\relax 
\providecommand{\transparent@use}[1]{}
\catcode `"\active 
\select@language{russian}
\@writefile{toc}{\select@language{russian}}
\@writefile{lof}{\select@language{russian}}
\@writefile{lot}{\select@language{russian}}
\@writefile{toc}{\contentsline {section}{\numberline {1}\IeC {\CYRO }\IeC {\cyrp }\IeC {\cyri }\IeC {\cyrs }\IeC {\cyra }\IeC {\cyrn }\IeC {\cyri }\IeC {\cyre } \IeC {\cyrerev }\IeC {\cyrk }\IeC {\cyrs }\IeC {\cyrp }\IeC {\cyre }\IeC {\cyrr }\IeC {\cyri }\IeC {\cyrm }\IeC {\cyre }\IeC {\cyrn }\IeC {\cyrt }\IeC {\cyra }\IeC {\cyrl }\IeC {\cyrsftsn }\IeC {\cyrn }\IeC {\cyro }\IeC {\cyrg }\IeC {\cyro } \IeC {\cyrs }\IeC {\cyrt }\IeC {\cyre }\IeC {\cyrn }\IeC {\cyrd }\IeC {\cyra }. \IeC {\CYRP }\IeC {\CYRG }\IeC {\CYRS } \IeC {\cyrs } \IeC {\cyrr }\IeC {\cyru }\IeC {\cyrch }\IeC {\cyrn }\IeC {\cyrery }\IeC {\cyrm } \IeC {\cyru }\IeC {\cyrp }\IeC {\cyrr }\IeC {\cyra }\IeC {\cyrv }\IeC {\cyrl }\IeC {\cyre }\IeC {\cyrn }\IeC {\cyri }\IeC {\cyre }\IeC {\cyrm }}{1}}
\@writefile{lof}{\contentsline {figure}{\numberline {1}{\ignorespaces \relax }}{2}}
\providecommand*\caption@xref[2]{\@setref\relax\@undefined{#1}}
\newlabel{}{{1}{2}}
\@writefile{toc}{\contentsline {section}{\numberline {2}\IeC {\CYRS }\IeC {\cyri }\IeC {\cyrs }\IeC {\cyrt }\IeC {\cyre }\IeC {\cyrm }\IeC {\cyra } \IeC {\cyra }\IeC {\cyrv }\IeC {\cyrt }\IeC {\cyro }\IeC {\cyrm }\IeC {\cyra }\IeC {\cyrt }\IeC {\cyri }\IeC {\cyrch }\IeC {\cyre }\IeC {\cyrs }\IeC {\cyrk }\IeC {\cyro }\IeC {\cyrg }\IeC {\cyro } \IeC {\cyru }\IeC {\cyrp }\IeC {\cyrr }\IeC {\cyra }\IeC {\cyrv }\IeC {\cyrl }\IeC {\cyre }\IeC {\cyrn }\IeC {\cyri }\IeC {\cyrya }}{3}}
\@writefile{lof}{\contentsline {figure}{\numberline {2}{\ignorespaces \relax }}{4}}
\newlabel{}{{2}{4}}
\@writefile{lof}{\contentsline {figure}{\numberline {3}{\ignorespaces \relax }}{5}}
\newlabel{}{{3}{5}}
\@writefile{lof}{\contentsline {figure}{\numberline {4}{\ignorespaces \relax }}{6}}
\newlabel{}{{4}{6}}
\@writefile{toc}{\contentsline {section}{\numberline {3}\IeC {\CYRD }\IeC {\cyra }\IeC {\cyrt }\IeC {\cyrch }\IeC {\cyri }\IeC {\cyrk }\IeC {\cyri }}{6}}
\@writefile{toc}{\contentsline {subsection}{\numberline {3.1}\IeC {\CYRD }\IeC {\cyra }\IeC {\cyrt }\IeC {\cyrch }\IeC {\cyri }\IeC {\cyrk } \IeC {\cyrr }\IeC {\cyra }\IeC {\cyrs }\IeC {\cyrh }\IeC {\cyro }\IeC {\cyrd }\IeC {\cyra } \IeC {\cyrs } \IeC {\cyrn }\IeC {\cyra }\IeC {\cyrg }\IeC {\cyrr }\IeC {\cyre }\IeC {\cyrv }\IeC {\cyra }\IeC {\cyre }\IeC {\cyrm }\IeC {\cyro }\IeC {\cyrishrt } \IeC {\cyrn }\IeC {\cyri }\IeC {\cyrt }\IeC {\cyrsftsn }\IeC {\cyryu }}{6}}
\@writefile{lof}{\contentsline {figure}{\numberline {5}{\ignorespaces \IeC {\CYRD }\IeC {\cyra }\IeC {\cyrt }\IeC {\cyrch }\IeC {\cyri }\IeC {\cyrk } \IeC {\cyrr }\IeC {\cyra }\IeC {\cyrs }\IeC {\cyrh }\IeC {\cyro }\IeC {\cyrd }\IeC {\cyra } \IeC {\cyrs } \IeC {\cyrn }\IeC {\cyra }\IeC {\cyrg }\IeC {\cyrr }\IeC {\cyre }\IeC {\cyrv }\IeC {\cyra }\IeC {\cyre }\IeC {\cyrm }\IeC {\cyro }\IeC {\cyrishrt } \IeC {\cyrn }\IeC {\cyri }\IeC {\cyrt }\IeC {\cyrsftsn }\IeC {\cyryu }: 1 --- \IeC {\cyrn }\IeC {\cyra }\IeC {\cyrg }\IeC {\cyrr }\IeC {\cyre }\IeC {\cyrv }\IeC {\cyra }\IeC {\cyre }\IeC {\cyrm }\IeC {\cyra }\IeC {\cyrya } \IeC {\cyrp }\IeC {\cyrl }\IeC {\cyra }\IeC {\cyrt }\IeC {\cyri }\IeC {\cyrn }\IeC {\cyro }\IeC {\cyrv }\IeC {\cyra }\IeC {\cyrya } \IeC {\cyrn }\IeC {\cyri }\IeC {\cyrt }\IeC {\cyrsftsn }, 2 --- \IeC {\cyrr }\IeC {\cyre }\IeC {\cyrz }\IeC {\cyri }\IeC {\cyrs }\IeC {\cyrt }\IeC {\cyro }\IeC {\cyrr }\IeC {\cyrn }\IeC {\cyrery }\IeC {\cyrishrt } \IeC {\cyrm }\IeC {\cyro }\IeC {\cyrs }\IeC {\cyrt }, 3 --- \IeC {\cyrn }\IeC {\cyra }\IeC {\cyrp }\IeC {\cyrr }\IeC {\cyra }\IeC {\cyrv }\IeC {\cyrl }\IeC {\cyre }\IeC {\cyrn }\IeC {\cyri }\IeC {\cyre } \IeC {\cyrp }\IeC {\cyro }\IeC {\cyrt }\IeC {\cyro }\IeC {\cyrk }\IeC {\cyra }\relax }}{7}}
\newlabel{}{{5}{7}}
\@writefile{toc}{\contentsline {subsection}{\numberline {3.2}\IeC {\CYRK }\IeC {\cyro }\IeC {\cyrr }\IeC {\cyri }\IeC {\cyro }\IeC {\cyrl }\IeC {\cyri }\IeC {\cyrs }\IeC {\cyro }\IeC {\cyrv } \IeC {\cyrd }\IeC {\cyra }\IeC {\cyrt }\IeC {\cyrch }\IeC {\cyri }\IeC {\cyrk } \IeC {\cyrr }\IeC {\cyra }\IeC {\cyrs }\IeC {\cyrh }\IeC {\cyro }\IeC {\cyrd }\IeC {\cyra }}{7}}
\@writefile{lof}{\contentsline {figure}{\numberline {6}{\ignorespaces \IeC {\CYRK }\IeC {\cyro }\IeC {\cyrr }\IeC {\cyri }\IeC {\cyro }\IeC {\cyrl }\IeC {\cyri }\IeC {\cyrs }\IeC {\cyro }\IeC {\cyrv } \IeC {\cyrd }\IeC {\cyra }\IeC {\cyrt }\IeC {\cyrch }\IeC {\cyri }\IeC {\cyrk } \IeC {\cyrr }\IeC {\cyra }\IeC {\cyrs }\IeC {\cyrh }\IeC {\cyro }\IeC {\cyrd }\IeC {\cyra }\relax }}{8}}
\newlabel{}{{6}{8}}
\@writefile{lof}{\contentsline {figure}{\numberline {7}{\ignorespaces \IeC {\CYRK }\IeC {\cyro }\IeC {\cyrr }\IeC {\cyri }\IeC {\cyro }\IeC {\cyrl }\IeC {\cyri }\IeC {\cyrs }\IeC {\cyro }\IeC {\cyrv } \IeC {\cyrd }\IeC {\cyra }\IeC {\cyrt }\IeC {\cyrch }\IeC {\cyri }\IeC {\cyrk } \IeC {\cyrr }\IeC {\cyra }\IeC {\cyrs }\IeC {\cyrh }\IeC {\cyro }\IeC {\cyrd }\IeC {\cyra }\relax }}{8}}
\newlabel{}{{7}{8}}
\@writefile{lof}{\contentsline {figure}{\numberline {8}{\ignorespaces \IeC {\CYRP }\IeC {\cyrr }\IeC {\cyri }\IeC {\cyrn }\IeC {\cyrc }\IeC {\cyri }\IeC {\cyrp } \IeC {\cyrd }\IeC {\cyre }\IeC {\cyrishrt }\IeC {\cyrs }\IeC {\cyrt }\IeC {\cyrv }\IeC {\cyri }\IeC {\cyrya } \IeC {\cyrd }\IeC {\cyra }\IeC {\cyrt }\IeC {\cyrch }\IeC {\cyri }\IeC {\cyrk }\IeC {\cyra } \IeC {\cyrr }\IeC {\cyra }\IeC {\cyrs }\IeC {\cyrh }\IeC {\cyro }\IeC {\cyrd }\IeC {\cyra } \IeC {\cyrk }\IeC {\cyro }\IeC {\cyrr }\IeC {\cyri }\IeC {\cyro }\IeC {\cyrl }\IeC {\cyri }\IeC {\cyrs }\IeC {\cyro }\IeC {\cyrv }\IeC {\cyra } \IeC {\cyrt }\IeC {\cyri }\IeC {\cyrp }\IeC {\cyra }\relax }}{9}}
\newlabel{}{{8}{9}}
\@writefile{lof}{\contentsline {figure}{\numberline {9}{\ignorespaces \IeC {\CYRL }\IeC {\cyra }\IeC {\cyrb }\IeC {\cyro }\IeC {\cyrr }\IeC {\cyra }\IeC {\cyrt }\IeC {\cyro }\IeC {\cyrr }\IeC {\cyrn }\IeC {\cyra }\IeC {\cyrya } \IeC {\cyrg }\IeC {\cyro }\IeC {\cyrr }\IeC {\cyre }\IeC {\cyrl }\IeC {\cyrk }\IeC {\cyra }\relax }}{10}}
\newlabel{}{{9}{10}}
\@writefile{toc}{\contentsline {section}{\numberline {4}\IeC {\CYRK }\IeC {\cyro }\IeC {\cyrn }\IeC {\cyrs }\IeC {\cyrt }\IeC {\cyrr }\IeC {\cyru }\IeC {\cyrk }\IeC {\cyrc }\IeC {\cyri }\IeC {\cyrya } \IeC {\cyrg }\IeC {\cyro }\IeC {\cyrr }\IeC {\cyre }\IeC {\cyrl }\IeC {\cyrk }\IeC {\cyri }}{10}}
