\relax 
\providecommand{\transparent@use}[1]{}
\catcode `"\active 
\select@language{russian}
\@writefile{toc}{\select@language{russian}}
\@writefile{lof}{\select@language{russian}}
\@writefile{lot}{\select@language{russian}}
\@writefile{toc}{\contentsline {section}{\numberline {1}\IeC {\CYRO }\IeC {\cyrp }\IeC {\cyrr }\IeC {\cyre }\IeC {\cyrd }\IeC {\cyre }\IeC {\cyrl }\IeC {\cyre }\IeC {\cyrn }\IeC {\cyri }\IeC {\cyrya }}{1}}
\@writefile{toc}{\contentsline {subsection}{\numberline {1.1}\IeC {\CYRS }\IeC {\cyrt }\IeC {\cyra }\IeC {\cyrr }\IeC {\cyrery }\IeC {\cyre } \IeC {\cyro }\IeC {\cyrp }\IeC {\cyrr }\IeC {\cyre }\IeC {\cyrd }\IeC {\cyre }\IeC {\cyrl }\IeC {\cyre }\IeC {\cyrn }\IeC {\cyri }\IeC {\cyrya }}{1}}
\@writefile{toc}{\contentsline {subsection}{\numberline {1.2}\IeC {\CYRN }\IeC {\cyro }\IeC {\cyrv }\IeC {\cyrery }\IeC {\cyre } \IeC {\cyro }\IeC {\cyrp }\IeC {\cyrr }\IeC {\cyre }\IeC {\cyrd }\IeC {\cyre }\IeC {\cyrl }\IeC {\cyre }\IeC {\cyrn }\IeC {\cyri }\IeC {\cyrya }}{2}}
