<?xml version="1.0" encoding="UTF-8" standalone="no"?>
<!-- Created with Inkscape (http://www.inkscape.org/) -->

<svg
   xmlns:dc="http://purl.org/dc/elements/1.1/"
   xmlns:cc="http://creativecommons.org/ns#"
   xmlns:rdf="http://www.w3.org/1999/02/22-rdf-syntax-ns#"
   xmlns:svg="http://www.w3.org/2000/svg"
   xmlns="http://www.w3.org/2000/svg"
   xmlns:sodipodi="http://sodipodi.sourceforge.net/DTD/sodipodi-0.dtd"
   xmlns:inkscape="http://www.inkscape.org/namespaces/inkscape"
   width="240mm"
   height="120mm"
   viewBox="0 0 240 120"
   version="1.1"
   id="svg8"
   inkscape:version="0.92.1 r15371"
   sodipodi:docname="gpvrd1.svg">
  <defs
     id="defs2">
    <marker
       markerWidth="0.911"
       markerHeight="1.690"
       refX="0"
       refY="0"
       orient="auto-start-reverse"
       id="marker-arrow-0.5308">
      <g
         id="g4491"
         transform="scale(2.153529264004019)">
        <path
           id="path4489"
           inkscape:connector-curvature="0"
           style="fill:none;stroke:#000000;stroke-width:0.6;stroke-linecap:round;stroke-linejoin:round;stroke-miterlimit:10;stroke-dasharray:none;stroke-opacity:1"
           d="M -1.55415,2.0722 C -1.42464,1.29512 0,0.1295 0.38852,0 0,-0.1295 -1.42464,-1.29512 -1.55415,-2.0722" />
      </g>
    </marker>
    <marker
       markerWidth="0.911"
       markerHeight="1.690"
       refX="0"
       refY="0"
       orient="auto-start-reverse"
       id="marker-arrow-0.5308-3">
      <g
         id="g4793"
         transform="scale(2.153529264004019)">
        <path
           id="path4791"
           inkscape:connector-curvature="0"
           style="fill:none;stroke:#000000;stroke-width:0.6;stroke-linecap:round;stroke-linejoin:round;stroke-miterlimit:10;stroke-dasharray:none;stroke-opacity:1"
           d="M -1.55415,2.0722 C -1.42464,1.29512 0,0.1295 0.38852,0 0,-0.1295 -1.42464,-1.29512 -1.55415,-2.0722" />
      </g>
    </marker>
    <marker
       markerWidth="0.91100001"
       markerHeight="1.6900001"
       refX="0"
       refY="0"
       orient="auto-start-reverse"
       id="marker-arrow-0.5308-6">
      <g
         id="g4491-7"
         transform="scale(2.1535293)">
        <path
           id="path4489-5"
           inkscape:connector-curvature="0"
           style="fill:none;stroke:#000000;stroke-width:0.60000002;stroke-linecap:round;stroke-linejoin:round;stroke-miterlimit:10;stroke-dasharray:none;stroke-opacity:1"
           d="M -1.55415,2.0722 C -1.42464,1.29512 0,0.1295 0.38852,0 0,-0.1295 -1.42464,-1.29512 -1.55415,-2.0722" />
      </g>
    </marker>
    <marker
       markerWidth="0.91100001"
       markerHeight="1.6900001"
       refX="0"
       refY="0"
       orient="auto-start-reverse"
       id="marker-arrow-0.5308-2">
      <g
         id="g4491-9"
         transform="scale(2.1535293)">
        <path
           id="path4489-1"
           inkscape:connector-curvature="0"
           style="fill:none;stroke:#000000;stroke-width:0.60000002;stroke-linecap:round;stroke-linejoin:round;stroke-miterlimit:10;stroke-dasharray:none;stroke-opacity:1"
           d="M -1.55415,2.0722 C -1.42464,1.29512 0,0.1295 0.38852,0 0,-0.1295 -1.42464,-1.29512 -1.55415,-2.0722" />
      </g>
    </marker>
  </defs>
  <sodipodi:namedview
     id="base"
     pagecolor="#ffffff"
     bordercolor="#666666"
     borderopacity="1.0"
     inkscape:pageopacity="0.0"
     inkscape:pageshadow="2"
     inkscape:zoom="0.70312851"
     inkscape:cx="437.46586"
     inkscape:cy="338.7043"
     inkscape:document-units="mm"
     inkscape:current-layer="layer1"
     showgrid="false"
     showborder="true"
     width="200mm"
     showguides="true"
     inkscape:guide-bbox="true"
     inkscape:window-width="1360"
     inkscape:window-height="724"
     inkscape:window-x="0"
     inkscape:window-y="20"
     inkscape:window-maximized="0">
    <inkscape:grid
       type="xygrid"
       id="grid815"
       units="mm"
       spacingx="10"
       spacingy="10"
       empspacing="4"
       dotted="false" />
  </sodipodi:namedview>
  <metadata
     id="metadata5">
    <rdf:RDF>
      <cc:Work
         rdf:about="">
        <dc:format>image/svg+xml</dc:format>
        <dc:type
           rdf:resource="http://purl.org/dc/dcmitype/StillImage" />
        <dc:title />
      </cc:Work>
    </rdf:RDF>
  </metadata>
  <g
     inkscape:label="Layer 1"
     inkscape:groupmode="layer"
     id="layer1"
     transform="translate(0,-177)">
    <path
       style="fill:none;stroke:#000000;stroke-width:0.26458332px;stroke-linecap:butt;stroke-linejoin:miter;stroke-opacity:1"
       d="m 79.291938,237.13192 c -6.398892,-5.6879 -12.480885,-10.22091 -21.685546,-8.91369 4.179005,-2.25578 8.021372,-5.97785 13.513253,-6.47711 l 45.907915,-0.94074 6.96145,-8.84292 8.84292,-0.37629 v 15.99251 l -19.94361,4.13924 c -4.52174,0.45357 -7.25391,2.78016 -9.5955,5.45627 z"
       id="path4485"
       inkscape:connector-curvature="0" />
    <path
       style="fill:none;stroke:black;stroke-width:0.14044083;stroke-linecap:butt;stroke-linejoin:miter;stroke-opacity:1;fill-opacity:1;marker-end:url(#marker-arrow-0.5308);marker-start:none;stroke-dasharray:none"
       d="m 36.985167,227.68607 c 4.426963,0.11376 8.847111,0.51403 13.037936,0.13304"
       id="path4487"
       inkscape:connector-curvature="0" />
    <text
       id="text4515"
       xml:space="preserve"
       style="font-size:2.64583325px;font-family:'Iosevka Term';-inkscape-font-specification:'Iosevka Term, Normal';fill:#000000;fill-opacity:1;stroke:none;stroke-width:0.26458332"
       y="224.78709"
       x="38.528076"><tspan
         id="tspan4513"
         sodipodi:role="line"
         x="38.528076"
         y="224.78709"
         style="stroke-width:0.26458332">$M_н&gt;5$</tspan></text>
    <path
       style="fill:none;stroke:black;stroke-width:0.14044083;stroke-linecap:butt;stroke-linejoin:miter;stroke-opacity:1;fill-opacity:1;marker-end:none;marker-start:none;stroke-dasharray:1.05330625,1.05330625"
       d="M 69.313927,253.49586 H 127.98464"
       id="path4527"
       inkscape:connector-curvature="0" />
    <path
       style="fill:none;stroke:#000000;stroke-width:0.26458332px;stroke-linecap:butt;stroke-linejoin:miter;stroke-opacity:1"
       d="m 72.373849,253.36282 v 9.5789 l 15.299621,-3.85817 v -5.72073"
       id="path4537"
       inkscape:connector-curvature="0" />
    <path
       style="fill:none;stroke:#000000;stroke-width:0.26458332px;stroke-linecap:butt;stroke-linejoin:miter;stroke-opacity:1"
       d="m 87.67347,259.08355 h 7.450248 l 8.913692,2.92689 v -8.64762"
       id="path4539"
       inkscape:connector-curvature="0" />
    <path
       style="fill:none;stroke:#000000;stroke-width:0.26458332px;stroke-linecap:butt;stroke-linejoin:miter;stroke-opacity:1"
       d="m 95.123716,259.08355 v -5.85377"
       id="path4541"
       inkscape:connector-curvature="0" />
    <path
       style="fill:none;stroke:#000000;stroke-width:0.26458332px;stroke-linecap:butt;stroke-linejoin:miter;stroke-opacity:1"
       d="m 104.03741,262.01044 7.98765,4.61167 v -13.12625"
       id="path4543"
       inkscape:connector-curvature="0" />
    <text
       id="text4547"
       xml:space="preserve"
       style="font-size:2.64583325px;font-family:'Iosevka Term';-inkscape-font-specification:'Iosevka Term, Normal';fill:#000000;fill-opacity:1;stroke:none;stroke-width:0.26458332"
       y="266.41321"
       x="90.110756"><tspan
         id="tspan4545"
         sodipodi:role="line"
         x="90.110756"
         y="266.41321"
         style="stroke-width:0.26458332">$КС$</tspan></text>
    <path
       style="fill:none;stroke:black;stroke-width:0.14044083;stroke-linecap:butt;stroke-linejoin:miter;stroke-opacity:1;fill-opacity:1;marker-end:none;marker-start:none;stroke-dasharray:none"
       d="m 93.527236,262.67564 -0.199559,-6.05333"
       id="path4559"
       inkscape:connector-curvature="0" />
    <text
       id="text4571"
       xml:space="preserve"
       style="font-size:2.64583325px;font-family:'Iosevka Term';-inkscape-font-specification:'Iosevka Term, Normal';fill:#000000;fill-opacity:1;stroke:none;stroke-width:0.26458332"
       y="250.67697"
       x="65.640434"><tspan
         id="tspan4569"
         sodipodi:role="line"
         x="65.640434"
         y="250.67697"
         style="stroke-width:0.26458332">ВЗУ внутр. сжатия</tspan></text>
    <text
       id="text4585"
       xml:space="preserve"
       style="font-size:2.64583325px;font-family:'Iosevka Term';-inkscape-font-specification:'Iosevka Term, Normal';fill:#000000;fill-opacity:1;stroke:none;stroke-width:0.26458332"
       y="248.30739"
       x="98.791695"><tspan
         id="tspan4583"
         sodipodi:role="line"
         x="98.791695"
         y="248.30739"
         style="stroke-width:0.26458332">сопло внутр. сжатия</tspan></text>
    <text
       id="text4599"
       xml:space="preserve"
       style="font-size:2.64583325px;font-family:'Iosevka Term';-inkscape-font-specification:'Iosevka Term, Normal';fill:#000000;fill-opacity:1;stroke:none;stroke-width:0.26458332"
       y="244.88972"
       x="68.388077"><tspan
         id="tspan4597"
         sodipodi:role="line"
         x="68.388077"
         y="244.88972"
         style="stroke-width:0.26458332">Эшалонированое подача горючего</tspan></text>
    <path
       style="fill:none;stroke:#000000;stroke-width:0.26458332px;stroke-linecap:butt;stroke-linejoin:miter;stroke-opacity:1"
       d="m 78.892817,252.56458 0.532162,4.25729"
       id="path4611"
       inkscape:connector-curvature="0" />
    <path
       style="fill:none;stroke:black;stroke-width:0.14044083;stroke-linecap:butt;stroke-linejoin:miter;stroke-opacity:1;fill-opacity:1;marker-end:none;marker-start:none;stroke-dasharray:none"
       d="m 93.793317,246.04562 -2.494886,9.75014"
       id="path4625"
       inkscape:connector-curvature="0" />
    <path
       style="fill:none;stroke:black;stroke-width:0.14044083;stroke-linecap:butt;stroke-linejoin:miter;stroke-opacity:1;fill-opacity:1;marker-end:none;marker-start:none;stroke-dasharray:none"
       d="m 105.36781,248.44034 0.6652,8.04893"
       id="path4635"
       inkscape:connector-curvature="0" />
    <path
       style="fill:none;stroke:black;stroke-width:0.14044083;stroke-linecap:butt;stroke-linejoin:miter;stroke-opacity:1;fill-opacity:1;marker-end:none;marker-start:none;stroke-dasharray:none"
       d="m 88.83757,255.42495 c 0.512583,-0.2336 1.26959,-0.29433 1.663002,-0.36586"
       id="path4645"
       inkscape:connector-curvature="0" />
    <path
       style="fill:none;stroke:black;stroke-width:0.14044083;stroke-linecap:butt;stroke-linejoin:miter;stroke-opacity:1;fill-opacity:1;marker-end:none;marker-start:none;stroke-dasharray:none"
       d="m 89.203431,257.05469 c 0.598831,-0.24628 1.172239,-0.34437 1.829303,-0.39912"
       id="path4655"
       inkscape:connector-curvature="0" />
    <path
       style="fill:none;stroke:black;stroke-width:0.14044083;stroke-linecap:butt;stroke-linejoin:miter;stroke-opacity:1;fill-opacity:1;marker-end:none;marker-start:none;stroke-dasharray:none"
       d="m 92.396394,254.82627 c 0.579704,-0.0175 1.139705,0.0824 1.696262,0.13304"
       id="path4665"
       inkscape:connector-curvature="0" />
    <path
       style="fill:none;stroke:black;stroke-width:0.14044083;stroke-linecap:butt;stroke-linejoin:miter;stroke-opacity:1;fill-opacity:1;marker-end:none;marker-start:none;stroke-dasharray:none"
       d="m 91.298431,255.79576 c -0.708126,0.0755 0.943658,-0.003 1.330785,0.0616"
       id="path4675"
       inkscape:connector-curvature="0" />
    <path
       style="fill:none;stroke:black;stroke-width:0.14044083;stroke-linecap:butt;stroke-linejoin:miter;stroke-opacity:1;fill-opacity:1;marker-end:none;marker-start:none;stroke-dasharray:none"
       d="m 93.327677,256.62231 c 0.460462,-0.76177 0.59368,-0.7226 0.898019,-0.26608"
       id="path4685"
       inkscape:connector-curvature="0" />
    <path
       style="fill:none;stroke:black;stroke-width:0.14044083;stroke-linecap:butt;stroke-linejoin:miter;stroke-opacity:1;fill-opacity:1;marker-end:none;marker-start:none;stroke-dasharray:none"
       d="m 96.354341,254.95931 c 0.728035,-0.14256 1.455427,-0.12295 2.09538,0.13304"
       id="path4695"
       inkscape:connector-curvature="0" />
    <path
       style="fill:none;stroke:black;stroke-width:0.14044083;stroke-linecap:butt;stroke-linejoin:miter;stroke-opacity:1;fill-opacity:1;marker-end:none;marker-start:none;stroke-dasharray:none"
       d="m 96.65368,256.35623 c 0.715457,-0.17284 1.27641,-0.0378 1.929082,0.19956"
       id="path4705"
       inkscape:connector-curvature="0" />
    <path
       style="fill:none;stroke:black;stroke-width:0.14044083;stroke-linecap:butt;stroke-linejoin:miter;stroke-opacity:1;fill-opacity:1;marker-end:none;marker-start:none;stroke-dasharray:none"
       d="m 98.283423,257.98597 c 0.454205,0.19626 0.900083,0.52675 1.297141,0.76498"
       id="path4715"
       inkscape:connector-curvature="0" />
    <path
       style="fill:none;stroke:black;stroke-width:0.14044083;stroke-linecap:butt;stroke-linejoin:miter;stroke-opacity:1;fill-opacity:1;marker-end:none;marker-start:none;stroke-dasharray:none"
       d="m 99.680343,255.62451 c 0.574267,-0.0855 1.134037,0.0154 1.696267,0.0665"
       id="path4725"
       inkscape:connector-curvature="0" />
    <path
       style="fill:none;stroke:black;stroke-width:0.14044083;stroke-linecap:butt;stroke-linejoin:miter;stroke-opacity:1;fill-opacity:1;marker-end:none;marker-start:none;stroke-dasharray:none"
       d="m 100.07946,257.52033 c 0.51084,-0.19401 1.01887,0.22672 1.43019,0.43238"
       id="path4735"
       inkscape:connector-curvature="0" />
    <path
       style="fill:none;stroke:black;stroke-width:0.14044083;stroke-linecap:butt;stroke-linejoin:miter;stroke-opacity:1;fill-opacity:1;marker-end:none;marker-start:none;stroke-dasharray:none"
       d="m 101.77573,256.42275 c 0.774,0.0147 1.50173,0.0777 1.43018,0.86476"
       id="path4745"
       inkscape:connector-curvature="0" />
    <text
       id="text4757"
       xml:space="preserve"
       style="font-size:2.64583325px;font-family:'Iosevka Term';-inkscape-font-specification:'Iosevka Term, Normal';fill:#000000;fill-opacity:1;stroke:none;stroke-width:0.26458332"
       y="215.28076"
       x="150.5388"><tspan
         id="tspan4755"
         sodipodi:role="line"
         x="150.5388"
         y="215.28076"
         style="stroke-width:0.26458332">Возможные конфигурации камеры сгорания:</tspan></text>
    <path
       style="fill:none;stroke:#000000;stroke-width:0.26458332px;stroke-linecap:butt;stroke-linejoin:miter;stroke-opacity:1"
       d="m 153.15182,226.0685 11.28884,3.76295 v 6.397 l -10.56887,6.10194 z"
       id="path4769"
       inkscape:connector-curvature="0" />
    <path
       style="fill:none;stroke:#000000;stroke-width:0.26458332px;stroke-linecap:butt;stroke-linejoin:miter;stroke-opacity:1"
       d="m 174.03616,230.01959 v 7.71404 h 15.05178 v -8.65477 h -14.86363"
       id="path4771"
       inkscape:connector-curvature="0" />
    <path
       style="fill:none;stroke:#000000;stroke-width:0.26458332px;stroke-linecap:butt;stroke-linejoin:miter;stroke-opacity:1"
       d="m 199.56025,228.08519 v 10.11106 l 13.60318,7.8538 v -25.41511 z"
       id="path4773"
       inkscape:connector-curvature="0" />
    <text
       id="text4777"
       xml:space="preserve"
       style="font-size:2.64583325px;font-family:'Iosevka Term';-inkscape-font-specification:'Iosevka Term, Normal';fill:#000000;fill-opacity:1;stroke:none;stroke-width:0.26458332"
       y="223.0421"
       x="155.8586"><tspan
         id="tspan4775"
         sodipodi:role="line"
         x="155.8586"
         y="223.0421"
         style="stroke-width:0.26458332">$Q$</tspan></text>
    <path
       style="fill:none;stroke:black;stroke-width:0.14044083;stroke-linecap:butt;stroke-linejoin:miter;stroke-opacity:1;fill-opacity:1;marker-end:url(#marker-arrow-0.5308);marker-start:none;stroke-dasharray:none"
       d="m 159.07846,224.6574 c -2.05094,1.36891 -2.91628,3.59492 -2.91628,5.73849"
       id="path4789"
       inkscape:connector-curvature="0" />
    <text
       id="text4777-3"
       xml:space="preserve"
       style="font-size:2.64583325px;font-family:'Iosevka Term';-inkscape-font-specification:'Iosevka Term, Normal';fill:#000000;fill-opacity:1;stroke:none;stroke-width:0.26458332"
       y="221.97557"
       x="178.40157"><tspan
         id="tspan4775-5"
         sodipodi:role="line"
         x="178.40157"
         y="221.97557"
         style="stroke-width:0.26458332">$Q$</tspan></text>
    <path
       style="fill:none;fill-opacity:1;stroke:#000000;stroke-width:0.14044085;stroke-linecap:butt;stroke-linejoin:miter;stroke-dasharray:none;stroke-opacity:1;marker-start:none;marker-end:url(#marker-arrow-0.5308-6)"
       d="m 181.62143,223.59088 c -2.05094,1.36891 -2.91628,3.59492 -2.91628,5.73849"
       id="path4789-6"
       inkscape:connector-curvature="0" />
    <text
       id="text4777-2"
       xml:space="preserve"
       style="font-size:2.64583325px;font-family:'Iosevka Term';-inkscape-font-specification:'Iosevka Term, Normal';fill:#000000;fill-opacity:1;stroke:none;stroke-width:0.26458332"
       y="218.40077"
       x="204.17773"><tspan
         id="tspan4775-7"
         sodipodi:role="line"
         x="204.17773"
         y="218.40077"
         style="stroke-width:0.26458332">$Q$</tspan></text>
    <path
       style="fill:none;fill-opacity:1;stroke:#000000;stroke-width:0.14044085;stroke-linecap:butt;stroke-linejoin:miter;stroke-dasharray:none;stroke-opacity:1;marker-start:none;marker-end:url(#marker-arrow-0.5308-2)"
       d="m 207.3976,220.01608 c -2.05094,1.36891 -2.91628,3.59492 -2.91628,5.73849"
       id="path4789-0"
       inkscape:connector-curvature="0" />
  </g>
</svg>
