\relax 
\catcode `"\active 
\babel@aux{russian}{}
\@writefile{toc}{\contentsline {section}{\numberline {1}\IeC {\CYRV }\IeC {\cyro }\IeC {\cyrp }\IeC {\cyrr }\IeC {\cyro }\IeC {\cyrs } 3. \IeC {\CYRO }\IeC {\cyrs }\IeC {\cyrn }\IeC {\cyro }\IeC {\cyrv }\IeC {\cyrn }\IeC {\cyrery }\IeC {\cyre } \IeC {\cyrs }\IeC {\cyrt }\IeC {\cyra }\IeC {\cyrd }\IeC {\cyri }\IeC {\cyri } \IeC {\cyrzh }\IeC {\cyri }\IeC {\cyrz }\IeC {\cyrn }\IeC {\cyre }\IeC {\cyrn }\IeC {\cyrn }\IeC {\cyro }\IeC {\cyrg }\IeC {\cyro } \IeC {\cyrc }\IeC {\cyri }\IeC {\cyrk }\IeC {\cyrl }\IeC {\cyra } \IeC {\CYRR }\IeC {\CYRD }\IeC {\CYRT }\IeC {\CYRT }}{1}}
\@writefile{toc}{\contentsline {section}{\numberline {2}\IeC {\CYRV }\IeC {\cyro }\IeC {\cyrp }\IeC {\cyrr }\IeC {\cyro }\IeC {\cyrs } 7. \IeC {\CYRZ }\IeC {\cyra }\IeC {\cyrv }\IeC {\cyri }\IeC {\cyrs }\IeC {\cyri }\IeC {\cyrm }\IeC {\cyro }\IeC {\cyrs }\IeC {\cyrt }\IeC {\cyrsftsn } \IeC {\cyrs }\IeC {\cyrk }\IeC {\cyro }\IeC {\cyrr }\IeC {\cyro }\IeC {\cyrs }\IeC {\cyrt }\IeC {\cyri } \IeC {\cyrg }\IeC {\cyro }\IeC {\cyrr }\IeC {\cyre }\IeC {\cyrn }\IeC {\cyri }\IeC {\cyrya } \IeC {\CYRT }\IeC {\CYRT } \IeC {\cyro }\IeC {\cyrt } \IeC {\cyrr }\IeC {\cyre }\IeC {\cyrzh }\IeC {\cyri }\IeC {\cyrm }\IeC {\cyro }\IeC {\cyrv } \IeC {\cyri } \IeC {\cyrv }\IeC {\cyrn }\IeC {\cyre }\IeC {\cyrsh }\IeC {\cyrn }\IeC {\cyri }\IeC {\cyrh } \IeC {\cyrp }\IeC {\cyra }\IeC {\cyrr }\IeC {\cyra }\IeC {\cyrm }\IeC {\cyre }\IeC {\cyrt }\IeC {\cyrr }\IeC {\cyro }\IeC {\cyrv }}{2}}
\@writefile{lof}{\contentsline {figure}{\numberline {1}{\ignorespaces \IeC {\CYRZ }\IeC {\cyra }\IeC {\cyrk }\IeC {\cyro }\IeC {\cyrn }\IeC {\cyrery } \IeC {\cyrg }\IeC {\cyro }\IeC {\cyrr }\IeC {\cyre }\IeC {\cyrn }\IeC {\cyri }\IeC {\cyrya }.1---\IeC {\cyrp }\IeC {\cyrr }\IeC {\cyro }\IeC {\cyrg }\IeC {\cyrr }\IeC {\cyre }\IeC {\cyrs }\IeC {\cyrs }\IeC {\cyri }\IeC {\cyrv }\IeC {\cyrn }\IeC {\cyro }\IeC {\cyre }; 2--- \IeC {\cyrp }\IeC {\cyro }\IeC {\cyrs }\IeC {\cyrt }\IeC {\cyro }\IeC {\cyrya }\IeC {\cyrn }\IeC {\cyrn }\IeC {\cyro }\IeC {\cyre }; 3---\IeC {\cyrr }\IeC {\cyre }\IeC {\cyrg }\IeC {\cyrr }\IeC {\cyre }\IeC {\cyrs }\IeC {\cyrs }\IeC {\cyri }\IeC {\cyrv }\IeC {\cyrn }\IeC {\cyro }\IeC {\cyre }}}{2}}
\newlabel{fig:zakongoreniya}{{1}{2}}
\@writefile{lot}{\contentsline {table}{\numberline {1}{\ignorespaces \IeC {\CYRD }\IeC {\cyri }\IeC {\cyra }\IeC {\cyrp }\IeC {\cyra }\IeC {\cyrz }\IeC {\cyro }\IeC {\cyrn }\IeC {\cyrery } \IeC {\cyrg }\IeC {\cyro }\IeC {\cyrr }\IeC {\cyre }\IeC {\cyrn }\IeC {\cyri }\IeC {\cyrya }}}{3}}
\newlabel{diapozoni}{{1}{3}}
\@writefile{toc}{\contentsline {section}{\numberline {3}\IeC {\CYRV }\IeC {\cyro }\IeC {\cyrp }\IeC {\cyrr }\IeC {\cyro }\IeC {\cyrs } 11. \IeC {\CYRT }\IeC {\cyre }\IeC {\cyrch }\IeC {\cyre }\IeC {\cyrn }\IeC {\cyri }\IeC {\cyre } \IeC {\cyrg }\IeC {\cyra }\IeC {\cyrz }\IeC {\cyra } \IeC {\cyrv } \IeC {\cyrk }\IeC {\cyra }\IeC {\cyrm }\IeC {\cyre }\IeC {\cyrr }\IeC {\cyre } \IeC {\cyrv } \IeC {\cyro }\IeC {\cyrd }\IeC {\cyrn }\IeC {\cyro }\IeC {\cyrm }\IeC {\cyre }\IeC {\cyrr }\IeC {\cyrn }\IeC {\cyro }\IeC {\cyrishrt } \IeC {\cyrp }\IeC {\cyro }\IeC {\cyrs }\IeC {\cyrt }\IeC {\cyra }\IeC {\cyrn }\IeC {\cyro }\IeC {\cyrv }\IeC {\cyrk }\IeC {\cyre }}{4}}
\@writefile{toc}{\contentsline {section}{\numberline {4}\IeC {\CYRV }\IeC {\cyro }\IeC {\cyrp }\IeC {\cyrr }\IeC {\cyro }\IeC {\cyrs } 15. \IeC {\CYRG }\IeC {\cyre }\IeC {\cyro }\IeC {\cyrm }\IeC {\cyre }\IeC {\cyrt }\IeC {\cyrr }\IeC {\cyri }\IeC {\cyrya } \IeC {\cyri } \IeC {\cyrs }\IeC {\cyrt }\IeC {\cyra }\IeC {\cyrd }\IeC {\cyri }\IeC {\cyri } \IeC {\cyrv }\IeC {\cyrery }\IeC {\cyrg }\IeC {\cyro }\IeC {\cyrr }\IeC {\cyra }\IeC {\cyrn }\IeC {\cyri }\IeC {\cyrya } \IeC {\cyrz }\IeC {\cyra }\IeC {\cyrr }\IeC {\cyrya }\IeC {\cyrd }\IeC {\cyra } \IeC {\cyrt }\IeC {\cyri }\IeC {\cyrp }\IeC {\cyra } \IeC {\cyrz }\IeC {\cyrv }\IeC {\cyre }\IeC {\cyrz }\IeC {\cyrd }\IeC {\cyra }}{6}}
\@writefile{lof}{\contentsline {figure}{\numberline {2}{\ignorespaces \IeC {\CYRS }\IeC {\cyrt }\IeC {\cyra }\IeC {\cyrd }\IeC {\cyri }\IeC {\cyri } \IeC {\cyrg }\IeC {\cyro }\IeC {\cyrr }\IeC {\cyre }\IeC {\cyrn }\IeC {\cyri }\IeC {\cyrya } \IeC {\CYRZ }\IeC {\cyrv }\IeC {\cyru }\IeC {\cyrz }\IeC {\cyrd }\IeC {\cyrery }}}{6}}
\newlabel{fig:zvezda}{{2}{6}}
\@writefile{lof}{\contentsline {figure}{\numberline {3}{\ignorespaces \IeC {\CYRC }\IeC {\cyri }\IeC {\cyrk }\IeC {\cyrl }\IeC {\cyro }\IeC {\cyrg }\IeC {\cyrr }\IeC {\cyra }\IeC {\cyrm }\IeC {\cyrm }\IeC {\cyra } 4 \IeC {\cyrs }\IeC {\cyrt }\IeC {\cyra }\IeC {\cyrd }\IeC {\cyri }\IeC {\cyri }}}{7}}
\newlabel{fig:4stadia}{{3}{7}}
\@writefile{toc}{\contentsline {section}{\numberline {5}\IeC {\CYRV }\IeC {\cyro }\IeC {\cyrp }\IeC {\cyrr }\IeC {\cyro }\IeC {\cyrs } 19. \IeC {\CYRG }\IeC {\cyre }\IeC {\cyro }\IeC {\cyrm }\IeC {\cyre }\IeC {\cyrt }\IeC {\cyrr }\IeC {\cyri }\IeC {\cyrch }\IeC {\cyre }\IeC {\cyrs }\IeC {\cyrk }\IeC {\cyri }\IeC {\cyre } \IeC {\cyrz }\IeC {\cyra }\IeC {\cyrk }\IeC {\cyro }\IeC {\cyrn }\IeC {\cyro }\IeC {\cyrm }\IeC {\cyre }\IeC {\cyrr }\IeC {\cyrn }\IeC {\cyro }\IeC {\cyrs }\IeC {\cyrt }\IeC {\cyri } \IeC {\cyrr }\IeC {\cyra }\IeC {\cyrs }\IeC {\cyrp }\IeC {\cyrr }\IeC {\cyro }\IeC {\cyrs }\IeC {\cyrt }\IeC {\cyrr }\IeC {\cyra }\IeC {\cyrn }\IeC {\cyre }\IeC {\cyrn }\IeC {\cyri }\IeC {\cyrya } \IeC {\cyrf }\IeC {\cyrr }\IeC {\cyro }\IeC {\cyrn }\IeC {\cyrt }\IeC {\cyra } \IeC {\cyrg }\IeC {\cyro }\IeC {\cyrr }\IeC {\cyre }\IeC {\cyrn }\IeC {\cyri }\IeC {\cyrya } \IeC {\cyrp }\IeC {\cyro } \IeC {\cyra }\IeC {\cyrn }\IeC {\cyri }\IeC {\cyrz }\IeC {\cyro }\IeC {\cyrt }\IeC {\cyrr }\IeC {\cyro }\IeC {\cyrp }\IeC {\cyrn }\IeC {\cyro }\IeC {\cyrm }\IeC {\cyru } \IeC {\cyrt }\IeC {\cyro }\IeC {\cyrp }\IeC {\cyrl }\IeC {\cyri }\IeC {\cyrv }\IeC {\cyru }}{8}}
\@writefile{toc}{\contentsline {section}{\numberline {6}\IeC {\CYRV }\IeC {\cyro }\IeC {\cyrp }\IeC {\cyrr }\IeC {\cyro }\IeC {\cyrs } 23. \IeC {\CYRK }\IeC {\cyro }\IeC {\cyrn }\IeC {\cyrs }\IeC {\cyrt }\IeC {\cyrr }\IeC {\cyru }\IeC {\cyrk }\IeC {\cyrt }\IeC {\cyri }\IeC {\cyrv }\IeC {\cyrn }\IeC {\cyrery }\IeC {\cyre } \IeC {\cyrs }\IeC {\cyrh }\IeC {\cyre }\IeC {\cyrm }\IeC {\cyrery } \IeC {\cyrs }\IeC {\cyro }\IeC {\cyrp }\IeC {\cyre }\IeC {\cyrl } \IeC {\CYRR }\IeC {\CYRD }\IeC {\CYRT }\IeC {\CYRT }}{9}}
\newlabel{konic}{{4(a)}{9}}
\newlabel{sub@konic}{{(a)}{9}}
\newlabel{kolco}{{4(b)}{9}}
\newlabel{sub@kolco}{{(b)}{9}}
\@writefile{lof}{\contentsline {figure}{\numberline {4}{\ignorespaces \IeC {\CYRO }\IeC {\cyrs }\IeC {\cyrn }\IeC {\cyro }\IeC {\cyrv }\IeC {\cyrn }\IeC {\cyrery }\IeC {\cyre } \IeC {\cyrv }\IeC {\cyri }\IeC {\cyrd }\IeC {\cyrery } \IeC {\cyrs }\IeC {\cyro }\IeC {\cyrp }\IeC {\cyre }\IeC {\cyrl }}}{9}}
\@writefile{lof}{\contentsline {subfigure}{\numberline{(a)}{\ignorespaces {\IeC {\CYRK }\IeC {\cyro }\IeC {\cyrn }\IeC {\cyri }\IeC {\cyrch }\IeC {\cyre }\IeC {\cyrs }\IeC {\cyrk }\IeC {\cyro }\IeC {\cyre } \IeC {\cyrs }\IeC {\cyro }\IeC {\cyrp }\IeC {\cyrl }\IeC {\cyro }}}}{9}}
\@writefile{lof}{\contentsline {subfigure}{\numberline{(b)}{\ignorespaces {\IeC {\CYRK }\IeC {\cyro }\IeC {\cyrl }\IeC {\cyrsftsn }\IeC {\cyrc }\IeC {\cyre }\IeC {\cyrv }\IeC {\cyro }\IeC {\cyre } \IeC {\cyrs }\IeC {\cyro }\IeC {\cyrp }\IeC {\cyrl }\IeC {\cyro }}}}{9}}
\newlabel{fig:konich}{{4}{9}}
\@writefile{lof}{\contentsline {figure}{\numberline {5}{\ignorespaces }}{10}}
\newlabel{fig:tverdiy}{{5}{10}}
\@writefile{lof}{\contentsline {figure}{\numberline {6}{\ignorespaces \IeC {\CYRS } \IeC {\cyro }\IeC {\cyrh }\IeC {\cyrl }\IeC {\cyra }\IeC {\cyrzh }\IeC {\cyrd }\IeC {\cyra }\IeC {\cyre }\IeC {\cyrm }\IeC {\cyrery }\IeC {\cyrm } \IeC {\cyrv }\IeC {\cyrk }\IeC {\cyrl }\IeC {\cyra }\IeC {\cyrd }\IeC {\cyrery }\IeC {\cyrsh }\IeC {\cyre }\IeC {\cyrm } (\IeC {\cyrs } \IeC {\cyrm }\IeC {\cyre }\IeC {\cyrt }\IeC {\cyra }\IeC {\cyrl }\IeC {\cyri }\IeC {\cyrch }\IeC {\cyre }\IeC {\cyrs }\IeC {\cyrk }\IeC {\cyri }\IeC {\cyrm } \IeC {\cyro }\IeC {\cyrh }\IeC {\cyrl }\IeC {\cyra }\IeC {\cyrd }\IeC {\cyri }\IeC {\cyrt }\IeC {\cyre }\IeC {\cyrl }\IeC {\cyre }\IeC {\cyrm })}}{10}}
\newlabel{fig:sotoviy}{{6}{10}}
\@writefile{toc}{\contentsline {section}{\numberline {7}\IeC {\CYRV }\IeC {\cyro }\IeC {\cyrp }\IeC {\cyrr }\IeC {\cyro }\IeC {\cyrs } 27. \IeC {\CYRO }\IeC {\cyrs }\IeC {\cyrn }\IeC {\cyro }\IeC {\cyrv }\IeC {\cyrn }\IeC {\cyrery }\IeC {\cyre } \IeC {\cyrh }\IeC {\cyra }\IeC {\cyrr }\IeC {\cyra }\IeC {\cyrk }\IeC {\cyrt }\IeC {\cyre }\IeC {\cyrr }\IeC {\cyrn }\IeC {\cyrery }\IeC {\cyre } \IeC {\cyrz }\IeC {\cyro }\IeC {\cyrn }\IeC {\cyrery } \IeC {\cyrt }\IeC {\cyre }\IeC {\cyrp }\IeC {\cyrl }\IeC {\cyro }\IeC {\cyro }\IeC {\cyrb }\IeC {\cyrm }\IeC {\cyre }\IeC {\cyrn }\IeC {\cyra } \IeC {\CYRR }\IeC {\CYRD }\IeC {\CYRT }\IeC {\CYRT }}{11}}
