\relax 
\providecommand{\transparent@use}[1]{}
\@nameuse{bbl@beforestart}
\catcode `"\active 
\babel@aux{russian}{}
\@writefile{toc}{\contentsline {section}{\numberline {1}3. Основы теории испытаний. Логико - информационная схема испытания (информационная модель). Круг решаемых проблем. Общие задачи испытаний. Роль и место моделирования.}{1}\protected@file@percent }
\@writefile{toc}{\contentsline {section}{\numberline {2}9. Программа испытаний. Содержание типовой программы. Требования к оптимальной программе.}{3}\protected@file@percent }
\@writefile{toc}{\contentsline {section}{\numberline {3}15. Структурно-функциональная и иерархическая структурно-функциональная схемы технологических систем огневого стенда.}{5}\protected@file@percent }
\@writefile{lof}{\contentsline {figure}{\numberline {1}{\ignorespaces Структурно-функциональная\relax }}{5}\protected@file@percent }
\@writefile{lof}{\contentsline {figure}{\numberline {2}{\ignorespaces Иерархическая структурно-функциональная\relax }}{6}\protected@file@percent }
\@writefile{toc}{\contentsline {section}{\numberline {4}21. Подсистема наддува и продувок. Расчет давления подачи.}{6}\protected@file@percent }
\@writefile{toc}{\contentsline {section}{\numberline {5}27. Методы измерений при стендовых испытаниях. Разновидности погрешностей, причины их возникновения и возможности учета.}{8}\protected@file@percent }
\@writefile{lof}{\contentsline {figure}{\numberline {3}{\ignorespaces Иерархическая структурно-функциональная\relax }}{8}\protected@file@percent }
