\relax 
\catcode `"\active 
\select@language{russian}
\@writefile{toc}{\select@language{russian}}
\@writefile{lof}{\select@language{russian}}
\@writefile{lot}{\select@language{russian}}
\@writefile{toc}{\contentsline {section}{\numberline {1}\IeC {\CYRO }\IeC {\cyrs }\IeC {\cyrn }\IeC {\cyro }\IeC {\cyrv }\IeC {\cyrn }\IeC {\cyrery }\IeC {\cyre } \IeC {\cyrerev }\IeC {\cyrt }\IeC {\cyra }\IeC {\cyrp }\IeC {\cyrery } \IeC {\cyri }\IeC {\cyrs }\IeC {\cyrt }\IeC {\cyro }\IeC {\cyrr }\IeC {\cyri }\IeC {\cyrch }\IeC {\cyre }\IeC {\cyrs }\IeC {\cyrk }\IeC {\cyro }\IeC {\cyrg }\IeC {\cyro } \IeC {\cyrr }\IeC {\cyra }\IeC {\cyrz }\IeC {\cyrv }\IeC {\cyri }\IeC {\cyrt }\IeC {\cyri }\IeC {\cyrya } \IeC {\CYRR }\IeC {\CYRD }\IeC {\CYRT }\IeC {\CYRT }}{3}}
\@writefile{toc}{\contentsline {section}{\numberline {2}\IeC {\CYRO }\IeC {\cyrs }\IeC {\cyrn }\IeC {\cyro }\IeC {\cyrv }\IeC {\cyrn }\IeC {\cyrery }\IeC {\cyre } \IeC {\cyrp }\IeC {\cyrr }\IeC {\cyro }\IeC {\cyre }\IeC {\cyrk }\IeC {\cyrt }\IeC {\cyrn }\IeC {\cyrery }\IeC {\cyre } \IeC {\cyrp }\IeC {\cyra }\IeC {\cyrr }\IeC {\cyra }\IeC {\cyrm }\IeC {\cyre }\IeC {\cyrt }\IeC {\cyrr }\IeC {\cyrery } \IeC {\CYRR }\IeC {\CYRD }\IeC {\CYRT }\IeC {\CYRT }}{4}}
\@writefile{toc}{\contentsline {section}{\numberline {3}\IeC {\CYRO }\IeC {\cyrs }\IeC {\cyrn }\IeC {\cyro }\IeC {\cyrv }\IeC {\cyrn }\IeC {\cyrery }\IeC {\cyre } \IeC {\cyrs }\IeC {\cyrt }\IeC {\cyra }\IeC {\cyrd }\IeC {\cyri }\IeC {\cyri } \IeC {\cyrzh }\IeC {\cyri }\IeC {\cyrz }\IeC {\cyrn }\IeC {\cyre }\IeC {\cyrn }\IeC {\cyro }\IeC {\cyrg }\IeC {\cyro } \IeC {\cyrc }\IeC {\cyri }\IeC {\cyrk }\IeC {\cyrl }\IeC {\cyra } \IeC {\CYRR }\IeC {\CYRD }\IeC {\CYRT }\IeC {\CYRT }}{5}}
\@writefile{toc}{\contentsline {section}{\numberline {4}\IeC {\CYRO }\IeC {\cyrb }\IeC {\cyrl }\IeC {\cyra }\IeC {\cyrs }\IeC {\cyrt }\IeC {\cyri } \IeC {\cyrp }\IeC {\cyrr }\IeC {\cyri }\IeC {\cyrm }\IeC {\cyre }\IeC {\cyrn }\IeC {\cyre }\IeC {\cyrn }\IeC {\cyri }\IeC {\cyrya } \IeC {\CYRR }\IeC {\CYRD }\IeC {\CYRT }\IeC {\CYRT }}{6}}
\@writefile{toc}{\contentsline {section}{\numberline {5}\IeC {\CYRO }\IeC {\cyrs }\IeC {\cyrn }\IeC {\cyro }\IeC {\cyrv }\IeC {\cyrn }\IeC {\cyrery }\IeC {\cyre } \IeC {\cyrp }\IeC {\cyrr }\IeC {\cyre }\IeC {\cyri }\IeC {\cyrm }\IeC {\cyru }\IeC {\cyrshch }\IeC {\cyre }\IeC {\cyrs }\IeC {\cyrt }\IeC {\cyrv }\IeC {\cyra } \IeC {\cyri } \IeC {\cyrn }\IeC {\cyre }\IeC {\cyrd }\IeC {\cyro }\IeC {\cyrs }\IeC {\cyrt }\IeC {\cyra }\IeC {\cyrt }\IeC {\cyrk }\IeC {\cyri } \IeC {\CYRR }\IeC {\CYRD }\IeC {\CYRT }\IeC {\CYRT } \IeC {\cyrp }\IeC {\cyro } \IeC {\cyrs }\IeC {\cyrr }\IeC {\cyra }\IeC {\cyrv }\IeC {\cyrn }\IeC {\cyre }\IeC {\cyrn }\IeC {\cyri }\IeC {\cyryu } \IeC {\cyrs } \IeC {\cyrd }\IeC {\cyrr }\IeC {\cyru }\IeC {\cyrg }\IeC {\cyri }\IeC {\cyrm }\IeC {\cyri } \IeC {\cyrt }\IeC {\cyri }\IeC {\cyrp }\IeC {\cyra }\IeC {\cyrm }\IeC {\cyri } \IeC {\cyrd }\IeC {\cyrv }\IeC {\cyri }\IeC {\cyrg }\IeC {\cyra }\IeC {\cyrt }\IeC {\cyre }\IeC {\cyrl }\IeC {\cyre }\IeC {\cyrishrt }}{7}}
\@writefile{toc}{\contentsline {section}{\numberline {6}\IeC {\CYRT }\IeC {\cyrv }\IeC {\cyre }\IeC {\cyrr }\IeC {\cyrd }\IeC {\cyrery }\IeC {\cyre } \IeC {\cyrr }\IeC {\cyra }\IeC {\cyrk }\IeC {\cyre }\IeC {\cyrt }\IeC {\cyrn }\IeC {\cyrery }\IeC {\cyre } \IeC {\cyrt }\IeC {\cyro }\IeC {\cyrp }\IeC {\cyrl }\IeC {\cyri }\IeC {\cyrv }\IeC {\cyra }. \IeC {\CYRS }\IeC {\cyrv }\IeC {\cyrya }\IeC {\cyrz }\IeC {\cyrsftsn } \IeC {\cyrs }\IeC {\cyro }\IeC {\cyrs }\IeC {\cyrt }\IeC {\cyra }\IeC {\cyrv }\IeC {\cyra } \IeC {\cyrs } \IeC {\cyrh }\IeC {\cyra }\IeC {\cyrr }\IeC {\cyra }\IeC {\cyrk }\IeC {\cyrt }\IeC {\cyre }\IeC {\cyrr }\IeC {\cyri }\IeC {\cyrs }\IeC {\cyrt }\IeC {\cyri }\IeC {\cyrk }\IeC {\cyri } \IeC {\CYRP }\IeC {\CYRS } \IeC {\cyri } \IeC {\cyro }\IeC {\cyrb }\IeC {\cyrl }\IeC {\cyra }\IeC {\cyrs }\IeC {\cyrt }\IeC {\cyrsftsn }\IeC {\cyryu } \IeC {\cyrp }\IeC {\cyrr }\IeC {\cyri }\IeC {\cyrm }\IeC {\cyre }\IeC {\cyrn }\IeC {\cyre }\IeC {\cyrn }\IeC {\cyri }\IeC {\cyrya }}{8}}
\@writefile{toc}{\contentsline {subsection}{\numberline {6.1}\IeC {\CYRS }\IeC {\cyrm }\IeC {\cyre }\IeC {\cyrs }\IeC {\cyre }\IeC {\cyrv }\IeC {\cyro }\IeC {\cyre } \IeC {\cyrt }\IeC {\cyrv }\IeC {\cyre }\IeC {\cyrr }\IeC {\cyrd }\IeC {\cyro }\IeC {\cyre } \IeC {\cyrr }\IeC {\cyra }\IeC {\cyrk }\IeC {\cyre }\IeC {\cyrt }\IeC {\cyrn }\IeC {\cyro }\IeC {\cyre } \IeC {\cyrt }\IeC {\cyro }\IeC {\cyrp }\IeC {\cyrl }\IeC {\cyri }\IeC {\cyrv }\IeC {\cyro }}{10}}
\@writefile{toc}{\contentsline {subsubsection}{\numberline {6.1.1}\IeC {\CYRO }\IeC {\cyrk }\IeC {\cyri }\IeC {\cyrs }\IeC {\cyrl }\IeC {\cyri }\IeC {\cyrt }\IeC {\cyre }\IeC {\cyrl }\IeC {\cyri }}{11}}
\@writefile{toc}{\contentsline {subsubsection}{\numberline {6.1.2}\IeC {\CYRG }\IeC {\cyro }\IeC {\cyrr }\IeC {\cyryu }\IeC {\cyrch }\IeC {\cyri }\IeC {\cyre } \IeC {\cyrs }\IeC {\cyrv }\IeC {\cyrya }\IeC {\cyrz }\IeC {\cyru }\IeC {\cyryu }\IeC {\cyrshch }\IeC {\cyri }\IeC {\cyre } \IeC {\cyrv }\IeC {\cyre }\IeC {\cyrshch }\IeC {\cyre }\IeC {\cyrs }\IeC {\cyrt }\IeC {\cyrv }\IeC {\cyra }}{11}}
\@writefile{toc}{\contentsline {subsubsection}{\numberline {6.1.3}\IeC {\CYRP }\IeC {\cyrl }\IeC {\cyra }\IeC {\cyrs }\IeC {\cyrt }\IeC {\cyri }\IeC {\cyrf }\IeC {\cyri }\IeC {\cyrk }\IeC {\cyra }\IeC {\cyrt }\IeC {\cyro }\IeC {\cyrr }\IeC {\cyrery }}{12}}
\@writefile{toc}{\contentsline {subsubsection}{\numberline {6.1.4}\IeC {\CYRM }\IeC {\cyre }\IeC {\cyrt }\IeC {\cyra }\IeC {\cyrl }\IeC {\cyrl }\IeC {\cyri }\IeC {\cyrch }\IeC {\cyre }\IeC {\cyrs }\IeC {\cyrk }\IeC {\cyri }\IeC {\cyre } \IeC {\cyrd }\IeC {\cyro }\IeC {\cyrb }\IeC {\cyra }\IeC {\cyrv }\IeC {\cyrk }\IeC {\cyri }}{12}}
\@writefile{toc}{\contentsline {subsubsection}{\numberline {6.1.5}\IeC {\CYRO }\IeC {\cyrt }\IeC {\cyrv }\IeC {\cyre }\IeC {\cyrr }\IeC {\cyrd }\IeC {\cyri }\IeC {\cyrt }\IeC {\cyre }\IeC {\cyrl }\IeC {\cyri }}{12}}
\@writefile{toc}{\contentsline {subsubsection}{\numberline {6.1.6}\IeC {\CYRS }\IeC {\cyrt }\IeC {\cyra }\IeC {\cyrb }\IeC {\cyri }\IeC {\cyrl }\IeC {\cyri }\IeC {\cyrz }\IeC {\cyra }\IeC {\cyrt }\IeC {\cyro }\IeC {\cyrr }\IeC {\cyrery }}{12}}
\@writefile{toc}{\contentsline {section}{\numberline {7}\IeC {\CYRZ }\IeC {\cyra }\IeC {\cyrv }\IeC {\cyri }\IeC {\cyrs }\IeC {\cyri }\IeC {\cyrm }\IeC {\cyro }\IeC {\cyrs }\IeC {\cyrt }\IeC {\cyrsftsn } \IeC {\cyrs }\IeC {\cyrk }\IeC {\cyro }\IeC {\cyrr }\IeC {\cyro }\IeC {\cyrs }\IeC {\cyrt }\IeC {\cyri } \IeC {\cyrg }\IeC {\cyro }\IeC {\cyrr }\IeC {\cyre }\IeC {\cyrn }\IeC {\cyri }\IeC {\cyrya } \IeC {\cyrt }\IeC {\cyrv }\IeC {\cyryo }\IeC {\cyrr }\IeC {\cyrd }\IeC {\cyro }\IeC {\cyrg }\IeC {\cyro } \IeC {\cyrt }\IeC {\cyro }\IeC {\cyrp }\IeC {\cyrl }\IeC {\cyri }\IeC {\cyrv }\IeC {\cyra } \IeC {\cyro }\IeC {\cyrt } \IeC {\cyrr }\IeC {\cyre }\IeC {\cyrzh }\IeC {\cyri }\IeC {\cyrm }\IeC {\cyrn }\IeC {\cyrery }\IeC {\cyrh } \IeC {\cyri } \IeC {\cyrv }\IeC {\cyrn }\IeC {\cyre }\IeC {\cyrsh }\IeC {\cyrn }\IeC {\cyri }\IeC {\cyrh } \IeC {\cyrp }\IeC {\cyra }\IeC {\cyrr }\IeC {\cyra }\IeC {\cyrm }\IeC {\cyre }\IeC {\cyrt }\IeC {\cyrr }\IeC {\cyro }\IeC {\cyrv }}{12}}
\@writefile{lof}{\contentsline {figure}{\numberline {1}{\ignorespaces \IeC {\CYRZ }\IeC {\cyra }\IeC {\cyrk }\IeC {\cyro }\IeC {\cyrn }\IeC {\cyrery } \IeC {\cyrg }\IeC {\cyro }\IeC {\cyrr }\IeC {\cyre }\IeC {\cyrn }\IeC {\cyri }\IeC {\cyrya }.1---\IeC {\cyrp }\IeC {\cyrr }\IeC {\cyro }\IeC {\cyrg }\IeC {\cyrr }\IeC {\cyre }\IeC {\cyrs }\IeC {\cyrs }\IeC {\cyri }\IeC {\cyrv }\IeC {\cyrn }\IeC {\cyro }\IeC {\cyre }; 2--- \IeC {\cyrp }\IeC {\cyro }\IeC {\cyrs }\IeC {\cyrt }\IeC {\cyro }\IeC {\cyrya }\IeC {\cyrn }\IeC {\cyrn }\IeC {\cyro }\IeC {\cyre }; 3---\IeC {\cyrr }\IeC {\cyre }\IeC {\cyrg }\IeC {\cyrr }\IeC {\cyre }\IeC {\cyrs }\IeC {\cyrs }\IeC {\cyri }\IeC {\cyrv }\IeC {\cyrn }\IeC {\cyro }\IeC {\cyre }\relax }}{13}}
\providecommand*\caption@xref[2]{\@setref\relax\@undefined{#1}}
\newlabel{fig:zakongoreniya}{{1}{13}}
\@writefile{lot}{\contentsline {table}{\numberline {1}{\ignorespaces \IeC {\CYRD }\IeC {\cyri }\IeC {\cyra }\IeC {\cyrp }\IeC {\cyra }\IeC {\cyrz }\IeC {\cyro }\IeC {\cyrn }\IeC {\cyrery } \IeC {\cyrg }\IeC {\cyro }\IeC {\cyrr }\IeC {\cyre }\IeC {\cyrn }\IeC {\cyri }\IeC {\cyrya }\relax }}{14}}
\newlabel{diapozoni}{{1}{14}}
\@writefile{toc}{\contentsline {section}{\numberline {8}\IeC {\CYRV }\IeC {\cyrn }\IeC {\cyru }\IeC {\cyrt }\IeC {\cyrr }\IeC {\cyre }\IeC {\cyrn }\IeC {\cyrn }\IeC {\cyrya }\IeC {\cyrya } \IeC {\cyrb }\IeC {\cyra }\IeC {\cyrl }\IeC {\cyrl }\IeC {\cyri }\IeC {\cyrs }\IeC {\cyrt }\IeC {\cyri }\IeC {\cyrk }\IeC {\cyra } \IeC {\CYRR }\IeC {\CYRD }\IeC {\CYRT }\IeC {\CYRT } \IeC {\cyrv } \IeC {\cyrn }\IeC {\cyru }\IeC {\cyrl }\IeC {\cyrsftsn }\IeC {\cyrm }\IeC {\cyre }\IeC {\cyrr }\IeC {\cyrn }\IeC {\cyro }\IeC {\cyrishrt } \IeC {\cyrp }\IeC {\cyro }\IeC {\cyrs }\IeC {\cyrt }\IeC {\cyra }\IeC {\cyrn }\IeC {\cyro }\IeC {\cyrv }\IeC {\cyrk }\IeC {\cyre } \IeC {\cyrn }\IeC {\cyra } \IeC {\cyrerev }\IeC {\cyrt }\IeC {\cyra }\IeC {\cyrp }\IeC {\cyre } \IeC {\cyrv }\IeC {\cyrery }\IeC {\cyrh }\IeC {\cyro }\IeC {\cyrd }\IeC {\cyra } \IeC {\cyrn }\IeC {\cyra } \IeC {\cyrr }\IeC {\cyre }\IeC {\cyrzh }\IeC {\cyri }\IeC {\cyrm }}{14}}
\newlabel{eq:Bas eq of bal}{{1}{15}}
\@writefile{toc}{\contentsline {section}{\numberline {9}\IeC {\CYRV }\IeC {\cyrn }\IeC {\cyru }\IeC {\cyrt }\IeC {\cyrr }\IeC {\cyre }\IeC {\cyrn }\IeC {\cyrn }\IeC {\cyrya }\IeC {\cyrya } \IeC {\cyrb }\IeC {\cyra }\IeC {\cyrl }\IeC {\cyrl }\IeC {\cyri }\IeC {\cyrs }\IeC {\cyrt }\IeC {\cyri }\IeC {\cyrk }\IeC {\cyra } \IeC {\CYRR }\IeC {\CYRD }\IeC {\CYRT }\IeC {\CYRT } \IeC {\cyrv } \IeC {\cyrn }\IeC {\cyru }\IeC {\cyrl }\IeC {\cyrsftsn }\IeC {\cyrm }\IeC {\cyre }\IeC {\cyrr }\IeC {\cyrn }\IeC {\cyro }\IeC {\cyrishrt } \IeC {\cyrp }\IeC {\cyro }\IeC {\cyrs }\IeC {\cyrt }\IeC {\cyra }\IeC {\cyrn }\IeC {\cyro }\IeC {\cyrv }\IeC {\cyrk }\IeC {\cyre } \IeC {\cyrn }\IeC {\cyra } \IeC {\cyrs }\IeC {\cyrt }\IeC {\cyra }\IeC {\cyrc }\IeC {\cyri }\IeC {\cyro }\IeC {\cyrn }\IeC {\cyra }\IeC {\cyrr }\IeC {\cyrn }\IeC {\cyro }\IeC {\cyrm } \IeC {\cyrr }\IeC {\cyre }\IeC {\cyrzh }\IeC {\cyri }\IeC {\cyrm }\IeC {\cyre } (\IeC {\cyru }\IeC {\cyrr }\IeC {\cyra }\IeC {\cyrv }\IeC {\cyrn }\IeC {\cyre }\IeC {\cyrn }\IeC {\cyri }\IeC {\cyre } \IeC {\CYRB }\IeC {\cyro }\IeC {\cyrr }\IeC {\cyri })}{16}}
\@writefile{toc}{\contentsline {section}{\numberline {10}\IeC {\CYRV }\IeC {\cyrn }\IeC {\cyru }\IeC {\cyrt }\IeC {\cyrr }\IeC {\cyre }\IeC {\cyrn }\IeC {\cyrn }\IeC {\cyrya }\IeC {\cyrya } \IeC {\cyrb }\IeC {\cyra }\IeC {\cyrl }\IeC {\cyrl }\IeC {\cyri }\IeC {\cyrs }\IeC {\cyrt }\IeC {\cyri }\IeC {\cyrk }\IeC {\cyra } \IeC {\CYRR }\IeC {\CYRD }\IeC {\CYRT }\IeC {\CYRT } \IeC {\cyrv } \IeC {\cyrn }\IeC {\cyru }\IeC {\cyrl }\IeC {\cyrsftsn }\IeC {\cyrm }\IeC {\cyre }\IeC {\cyrr }\IeC {\cyrn }\IeC {\cyro }\IeC {\cyrishrt } \IeC {\cyrp }\IeC {\cyro }\IeC {\cyrs }\IeC {\cyrt }\IeC {\cyra }\IeC {\cyrn }\IeC {\cyro }\IeC {\cyrv }\IeC {\cyrk }\IeC {\cyre } \IeC {\cyrn }\IeC {\cyra } \IeC {\cyrr }\IeC {\cyre }\IeC {\cyrzh }\IeC {\cyri }\IeC {\cyrm }\IeC {\cyre } \IeC {\cyrs }\IeC {\cyrp }\IeC {\cyra }\IeC {\cyrd }\IeC {\cyra } \IeC {\cyrd }\IeC {\cyra }\IeC {\cyrv }\IeC {\cyrl }\IeC {\cyre }\IeC {\cyrn }\IeC {\cyri }\IeC {\cyrya }}{17}}
\@writefile{toc}{\contentsline {subsubsection}{\numberline {10.0.1}\IeC {\CYRO }\IeC {\cyrp }\IeC {\cyrr }\IeC {\cyre }\IeC {\cyrd }\IeC {\cyre }\IeC {\cyrl }\IeC {\cyre }\IeC {\cyrn }\IeC {\cyri }\IeC {\cyre } \IeC {\cyrv }\IeC {\cyrr }\IeC {\cyre }\IeC {\cyrm }\IeC {\cyre }\IeC {\cyrn }\IeC {\cyri } \IeC {\cyrs }\IeC {\cyrp }\IeC {\cyra }\IeC {\cyrd }\IeC {\cyra } \IeC {\cyrd }\IeC {\cyra }\IeC {\cyrv }\IeC {\cyrl }\IeC {\cyre }\IeC {\cyrn }\IeC {\cyri }\IeC {\cyrya } $ t_{\IeC {\cyrs }\IeC {\cyrp }} $}{18}}
\@writefile{toc}{\contentsline {section}{\numberline {11}\IeC {\CYRT }\IeC {\cyre }\IeC {\cyrch }\IeC {\cyre }\IeC {\cyrn }\IeC {\cyri }\IeC {\cyre } \IeC {\cyrg }\IeC {\cyra }\IeC {\cyrz }\IeC {\cyra } \IeC {\cyrv } \IeC {\cyrk }\IeC {\cyra }\IeC {\cyrm }\IeC {\cyre }\IeC {\cyrr }\IeC {\cyre } \IeC {\cyrv } \IeC {\cyro }\IeC {\cyrd }\IeC {\cyrn }\IeC {\cyro }\IeC {\cyrm }\IeC {\cyre }\IeC {\cyrr }\IeC {\cyrn }\IeC {\cyro }\IeC {\cyrishrt } \IeC {\cyrp }\IeC {\cyro }\IeC {\cyrs }\IeC {\cyrt }\IeC {\cyra }\IeC {\cyrn }\IeC {\cyro }\IeC {\cyrv }\IeC {\cyrk }\IeC {\cyre }}{18}}
\@writefile{toc}{\contentsline {section}{\numberline {12}\IeC {\CYRR }\IeC {\cyra }\IeC {\cyrs }\IeC {\cyrch }\IeC {\cyryo }\IeC {\cyrt } \IeC {\cyrn }\IeC {\cyra }\IeC {\cyrp }\IeC {\cyrr }\IeC {\cyrya }\IeC {\cyrzh }\IeC {\cyre }\IeC {\cyrn }\IeC {\cyri }\IeC {\cyrishrt } \IeC {\cyrv } \IeC {\cyrp }\IeC {\cyrr }\IeC {\cyro }\IeC {\cyrch }\IeC {\cyrn }\IeC {\cyro }\IeC {\cyrs }\IeC {\cyrk }\IeC {\cyrr }\IeC {\cyre }\IeC {\cyrp }\IeC {\cyrl }\IeC {\cyryo }\IeC {\cyrn }\IeC {\cyrn }\IeC {\cyro }\IeC {\cyrm } \IeC {\cyrk }\IeC {\cyra }\IeC {\cyrn }\IeC {\cyra }\IeC {\cyrl }\IeC {\cyrsftsn }\IeC {\cyrn }\IeC {\cyro }\IeC {\cyrm } \IeC {\cyrz }\IeC {\cyra }\IeC {\cyrr }\IeC {\cyrya }\IeC {\cyrd }\IeC {\cyre }}{20}}
\@writefile{lof}{\contentsline {figure}{\numberline {2}{\ignorespaces \relax }}{21}}
\newlabel{fig:Stiff}{{2}{21}}
\newlabel{eq:Hooke}{{2}{22}}
\newlabel{eq:Sg_B}{{3}{22}}
\newlabel{eq:p_out}{{4}{22}}
\@writefile{toc}{\contentsline {section}{\numberline {13}\IeC {\CYRR }\IeC {\cyra }\IeC {\cyrs }\IeC {\cyrch }\IeC {\cyryo }\IeC {\cyrt } \IeC {\cyrn }\IeC {\cyra }\IeC {\cyrp }\IeC {\cyrr }\IeC {\cyrya }\IeC {\cyrzh }\IeC {\cyre }\IeC {\cyrn }\IeC {\cyri }\IeC {\cyrishrt } \IeC {\cyrv } \IeC {\cyrs }\IeC {\cyrv }\IeC {\cyro }\IeC {\cyrb }\IeC {\cyro }\IeC {\cyrd }\IeC {\cyrn }\IeC {\cyro }\IeC {\cyrv }\IeC {\cyrl }\IeC {\cyro }\IeC {\cyrzh }\IeC {\cyre }\IeC {\cyrn }\IeC {\cyrn }\IeC {\cyro }\IeC {\cyrm } \IeC {\cyrk }\IeC {\cyra }\IeC {\cyrn }\IeC {\cyra }\IeC {\cyrl }\IeC {\cyrsftsn }\IeC {\cyrn }\IeC {\cyro }\IeC {\cyrm } \IeC {\cyrz }\IeC {\cyra }\IeC {\cyrr }\IeC {\cyrya }\IeC {\cyrd }\IeC {\cyre }}{22}}
\@writefile{lof}{\contentsline {figure}{\numberline {3}{\ignorespaces \relax }}{23}}
\newlabel{fig:Poisson}{{3}{23}}
\@writefile{lof}{\contentsline {figure}{\numberline {4}{\ignorespaces \IeC {\CYRS }\IeC {\cyrh }\IeC {\cyre }\IeC {\cyrm }\IeC {\cyra } \IeC {\cyrs }\IeC {\cyrv }\IeC {\cyro }\IeC {\cyrb }\IeC {\cyro }\IeC {\cyrd }\IeC {\cyrn }\IeC {\cyro }\IeC {\cyrv }\IeC {\cyrl }\IeC {\cyro }\IeC {\cyrzh }\IeC {\cyre }\IeC {\cyrn }\IeC {\cyrn }\IeC {\cyro }\IeC {\cyrg }\IeC {\cyro } \IeC {\cyrz }\IeC {\cyra }\IeC {\cyrr }\IeC {\cyrya }\IeC {\cyrd }\IeC {\cyra }\relax }}{24}}
\newlabel{fig:131}{{4}{24}}
\@writefile{lof}{\contentsline {figure}{\numberline {5}{\ignorespaces \IeC {\CYRZ }\IeC {\cyra }\IeC {\cyrk }\IeC {\cyrr }\IeC {\cyre }\IeC {\cyrp }\IeC {\cyrl }\IeC {\cyre }\IeC {\cyrn }\IeC {\cyri }\IeC {\cyre } \IeC {\cyrs }\IeC {\cyrv }\IeC {\cyro }\IeC {\cyrb }\IeC {\cyro }\IeC {\cyrd }\IeC {\cyrn }\IeC {\cyro }\IeC {\cyrv }\IeC {\cyrl }\IeC {\cyro }\IeC {\cyrzh }\IeC {\cyre }\IeC {\cyrn }\IeC {\cyrn }\IeC {\cyro }\IeC {\cyrg }\IeC {\cyro } \IeC {\cyrz }\IeC {\cyra }\IeC {\cyrr }\IeC {\cyrya }\IeC {\cyrd }\IeC {\cyra } (\IeC {\cyrs }\IeC {\cyrl }\IeC {\cyru }\IeC {\cyrch }\IeC {\cyra }\IeC {\cyrishrt } 1).\relax }}{24}}
\newlabel{fig:132}{{5}{24}}
\@writefile{lof}{\contentsline {figure}{\numberline {6}{\ignorespaces \IeC {\CYRN }\IeC {\cyra }\IeC {\cyrp }\IeC {\cyrr }\IeC {\cyrya }\IeC {\cyrzh }\IeC {\cyre }\IeC {\cyrn }\IeC {\cyrn }\IeC {\cyro }\IeC {\cyre } \IeC {\cyrs }\IeC {\cyro }\IeC {\cyrs }\IeC {\cyrt }\IeC {\cyro }\IeC {\cyrya }\IeC {\cyrn }\IeC {\cyri }\IeC {\cyre } \IeC {\cyrt }\IeC {\cyro }\IeC {\cyrch }\IeC {\cyrk }\IeC {\cyri } \IeC {\CYRA }.\relax }}{25}}
\newlabel{fig:133}{{6}{25}}
\@writefile{lof}{\contentsline {figure}{\numberline {7}{\ignorespaces \IeC {\CYRN }\IeC {\cyra }\IeC {\cyrp }\IeC {\cyrr }\IeC {\cyrya }\IeC {\cyrzh }\IeC {\cyre }\IeC {\cyrn }\IeC {\cyrn }\IeC {\cyro }\IeC {\cyre } \IeC {\cyrs }\IeC {\cyro }\IeC {\cyrs }\IeC {\cyrt }\IeC {\cyro }\IeC {\cyrya }\IeC {\cyrn }\IeC {\cyri }\IeC {\cyre } \IeC {\cyrt }\IeC {\cyro }\IeC {\cyrch }\IeC {\cyrk }\IeC {\cyri } B.\relax }}{25}}
\newlabel{fig:134}{{7}{25}}
\@writefile{lof}{\contentsline {figure}{\numberline {8}{\ignorespaces \IeC {\CYRZ }\IeC {\cyra }\IeC {\cyrk }\IeC {\cyrr }\IeC {\cyre }\IeC {\cyrp }\IeC {\cyrl }\IeC {\cyre }\IeC {\cyrn }\IeC {\cyri }\IeC {\cyre } \IeC {\cyrs }\IeC {\cyrv }\IeC {\cyro }\IeC {\cyrb }\IeC {\cyro }\IeC {\cyrd }\IeC {\cyrn }\IeC {\cyro }\IeC {\cyrv }\IeC {\cyrl }\IeC {\cyro }\IeC {\cyrzh }\IeC {\cyre }\IeC {\cyrn }\IeC {\cyrn }\IeC {\cyro }\IeC {\cyrg }\IeC {\cyro } \IeC {\cyrz }\IeC {\cyra }\IeC {\cyrr }\IeC {\cyrya }\IeC {\cyrd }\IeC {\cyra } (\IeC {\cyrs }\IeC {\cyrl }\IeC {\cyru }\IeC {\cyrch }\IeC {\cyra }\IeC {\cyrishrt } 2).\relax }}{25}}
\newlabel{fig:135}{{8}{25}}
\@writefile{lof}{\contentsline {figure}{\numberline {9}{\ignorespaces \IeC {\CYRN }\IeC {\cyra }\IeC {\cyrp }\IeC {\cyrr }\IeC {\cyrya }\IeC {\cyrzh }\IeC {\cyre }\IeC {\cyrn }\IeC {\cyrn }\IeC {\cyro }\IeC {\cyre } \IeC {\cyrs }\IeC {\cyro }\IeC {\cyrs }\IeC {\cyrt }\IeC {\cyro }\IeC {\cyrya }\IeC {\cyrn }\IeC {\cyri }\IeC {\cyre } \IeC {\cyrt }\IeC {\cyro }\IeC {\cyrch }\IeC {\cyrk }\IeC {\cyri } \IeC {\CYRA }.\relax }}{26}}
\newlabel{fig:136}{{9}{26}}
\@writefile{lof}{\contentsline {figure}{\numberline {10}{\ignorespaces \IeC {\CYRN }\IeC {\cyra }\IeC {\cyrp }\IeC {\cyrr }\IeC {\cyrya }\IeC {\cyrzh }\IeC {\cyre }\IeC {\cyrn }\IeC {\cyrn }\IeC {\cyro }\IeC {\cyre } \IeC {\cyrs }\IeC {\cyro }\IeC {\cyrs }\IeC {\cyrt }\IeC {\cyro }\IeC {\cyrya }\IeC {\cyrn }\IeC {\cyri }\IeC {\cyre } \IeC {\cyrt }\IeC {\cyro }\IeC {\cyrch }\IeC {\cyrk }\IeC {\cyri } B.\relax }}{26}}
\newlabel{fig:137}{{10}{26}}
\@writefile{lof}{\contentsline {figure}{\numberline {11}{\ignorespaces \IeC {\CYRR }\IeC {\cyra }\IeC {\cyrs }\IeC {\cyrp }\IeC {\cyrr }\IeC {\cyre }\IeC {\cyrd }\IeC {\cyre }\IeC {\cyrl }\IeC {\cyre }\IeC {\cyrn }\IeC {\cyri }\IeC {\cyre } \IeC {\cyrn }\IeC {\cyra }\IeC {\cyrp }\IeC {\cyrr }\IeC {\cyrya }\IeC {\cyrzh }\IeC {\cyre }\IeC {\cyrn }\IeC {\cyri }\IeC {\cyrishrt } \IeC {\cyrp }\IeC {\cyro } \IeC {\cyrz }\IeC {\cyra }\IeC {\cyrr }\IeC {\cyrya }\IeC {\cyrd }\IeC {\cyru }\relax }}{27}}
\newlabel{fig:139}{{11}{27}}
\@writefile{toc}{\contentsline {section}{\numberline {14}\IeC {\CYRG }\IeC {\cyre }\IeC {\cyro }\IeC {\cyrm }\IeC {\cyre }\IeC {\cyrt }\IeC {\cyrr }\IeC {\cyri }\IeC {\cyrya } \IeC {\cyri } \IeC {\cyrs }\IeC {\cyrt }\IeC {\cyra }\IeC {\cyrd }\IeC {\cyri }\IeC {\cyri } \IeC {\cyrv }\IeC {\cyrery }\IeC {\cyrg }\IeC {\cyro }\IeC {\cyrr }\IeC {\cyra }\IeC {\cyrn }\IeC {\cyri }\IeC {\cyrya } \IeC {\cyrshch }\IeC {\cyre }\IeC {\cyrl }\IeC {\cyre }\IeC {\cyrv }\IeC {\cyro }\IeC {\cyrg }\IeC {\cyro } \IeC {\cyrz }\IeC {\cyra }\IeC {\cyrr }\IeC {\cyrya }\IeC {\cyrd }\IeC {\cyra }}{28}}
\@writefile{lof}{\contentsline {figure}{\numberline {12}{\ignorespaces \IeC {\CYRSHCH }\IeC {\cyre }\IeC {\cyrl }\IeC {\cyre }\IeC {\cyrv }\IeC {\cyro }\IeC {\cyrishrt } \IeC {\cyrz }\IeC {\cyra }\IeC {\cyrr }\IeC {\cyrya }\IeC {\cyrd }\relax }}{28}}
\@writefile{lof}{\contentsline {figure}{\numberline {13}{\ignorespaces \IeC {\CYRR }\IeC {\cyra }\IeC {\cyrs }\IeC {\cyrch }\IeC {\cyre }\IeC {\cyrt }\IeC {\cyrn }\IeC {\cyra }\IeC {\cyrya } \IeC {\cyrs }\IeC {\cyrh }\IeC {\cyre }\IeC {\cyrm }\IeC {\cyra }\relax }}{28}}
\@writefile{toc}{\contentsline {section}{\numberline {15}\IeC {\CYRG }\IeC {\cyre }\IeC {\cyro }\IeC {\cyrm }\IeC {\cyre }\IeC {\cyrt }\IeC {\cyrr }\IeC {\cyri }\IeC {\cyrya } \IeC {\cyri } \IeC {\cyrs }\IeC {\cyrt }\IeC {\cyra }\IeC {\cyrd }\IeC {\cyri }\IeC {\cyri } \IeC {\cyrv }\IeC {\cyrery }\IeC {\cyrg }\IeC {\cyro }\IeC {\cyrr }\IeC {\cyra }\IeC {\cyrn }\IeC {\cyri }\IeC {\cyrya } \IeC {\cyrz }\IeC {\cyra }\IeC {\cyrr }\IeC {\cyrya }\IeC {\cyrd }\IeC {\cyra } \IeC {\cyrt }\IeC {\cyri }\IeC {\cyrp }\IeC {\cyra } \IeC {\cyrz }\IeC {\cyrv }\IeC {\cyre }\IeC {\cyrz }\IeC {\cyrd }\IeC {\cyra }}{28}}
\@writefile{lof}{\contentsline {figure}{\numberline {14}{\ignorespaces \IeC {\CYRS }\IeC {\cyrt }\IeC {\cyra }\IeC {\cyrd }\IeC {\cyri }\IeC {\cyri } \IeC {\cyrg }\IeC {\cyro }\IeC {\cyrr }\IeC {\cyre }\IeC {\cyrn }\IeC {\cyri }\IeC {\cyrya } \IeC {\CYRZ }\IeC {\cyrv }\IeC {\cyru }\IeC {\cyrz }\IeC {\cyrd }\IeC {\cyrery }\relax }}{29}}
\newlabel{fig:zvezda}{{14}{29}}
\@writefile{lof}{\contentsline {figure}{\numberline {15}{\ignorespaces \IeC {\CYRC }\IeC {\cyri }\IeC {\cyrk }\IeC {\cyrl }\IeC {\cyro }\IeC {\cyrg }\IeC {\cyrr }\IeC {\cyra }\IeC {\cyrm }\IeC {\cyrm }\IeC {\cyra } 4 \IeC {\cyrs }\IeC {\cyrt }\IeC {\cyra }\IeC {\cyrd }\IeC {\cyri }\IeC {\cyri }\relax }}{30}}
\newlabel{fig:4stadia}{{15}{30}}
\@writefile{toc}{\contentsline {section}{\numberline {16}\IeC {\CYRG }\IeC {\cyre }\IeC {\cyro }\IeC {\cyrm }\IeC {\cyre }\IeC {\cyrt }\IeC {\cyrr }\IeC {\cyri }\IeC {\cyrya } \IeC {\cyri } \IeC {\cyrs }\IeC {\cyrt }\IeC {\cyra }\IeC {\cyrd }\IeC {\cyri }\IeC {\cyri } \IeC {\cyrv }\IeC {\cyrery }\IeC {\cyrg }\IeC {\cyro }\IeC {\cyrr }\IeC {\cyra }\IeC {\cyrn }\IeC {\cyri }\IeC {\cyrya } \IeC {\cyro }\IeC {\cyrd }\IeC {\cyrn }\IeC {\cyro }\IeC {\cyrk }\IeC {\cyra }\IeC {\cyrn }\IeC {\cyra }\IeC {\cyrl }\IeC {\cyrsftsn }\IeC {\cyrn }\IeC {\cyro }\IeC {\cyrg }\IeC {\cyro } \IeC {\cyro }\IeC {\cyrd }\IeC {\cyrn }\IeC {\cyro }\IeC {\cyrsh }\IeC {\cyra }\IeC {\cyrsh }\IeC {\cyre }\IeC {\cyrch }\IeC {\cyrn }\IeC {\cyro }\IeC {\cyrg }\IeC {\cyro } \IeC {\cyrz }\IeC {\cyra }\IeC {\cyrr }\IeC {\cyrya }\IeC {\cyrd }\IeC {\cyra } \IeC {\cyrb }\IeC {\cyre }\IeC {\cyrz } \IeC {\cyrb }\IeC {\cyrr }\IeC {\cyro }\IeC {\cyrn }\IeC {\cyri }\IeC {\cyrr }\IeC {\cyro }\IeC {\cyrv }\IeC {\cyrk }\IeC {\cyri }}{30}}
\@writefile{lof}{\contentsline {figure}{\numberline {16}{\ignorespaces \relax }}{31}}
\newlabel{fig:Block}{{16}{31}}
\@writefile{toc}{\contentsline {section}{\numberline {17}\IeC {\CYRG }\IeC {\cyre }\IeC {\cyro }\IeC {\cyrm }\IeC {\cyre }\IeC {\cyrt }\IeC {\cyrr }\IeC {\cyri }\IeC {\cyrya } \IeC {\cyri } \IeC {\cyrs }\IeC {\cyrt }\IeC {\cyra }\IeC {\cyrd }\IeC {\cyri }\IeC {\cyri } \IeC {\cyrv }\IeC {\cyrery }\IeC {\cyrg }\IeC {\cyro }\IeC {\cyrr }\IeC {\cyra }\IeC {\cyrn }\IeC {\cyri }\IeC {\cyrya } \IeC {\cyro }\IeC {\cyrd }\IeC {\cyrn }\IeC {\cyro }\IeC {\cyrk }\IeC {\cyra }\IeC {\cyrn }\IeC {\cyra }\IeC {\cyrl }\IeC {\cyrsftsn }\IeC {\cyrn }\IeC {\cyro }\IeC {\cyrg }\IeC {\cyro } \IeC {\cyro }\IeC {\cyrd }\IeC {\cyrn }\IeC {\cyro }\IeC {\cyrsh }\IeC {\cyra }\IeC {\cyrsh }\IeC {\cyre }\IeC {\cyrch }\IeC {\cyrn }\IeC {\cyro }\IeC {\cyrg }\IeC {\cyro } \IeC {\cyrz }\IeC {\cyra }\IeC {\cyrr }\IeC {\cyrya }\IeC {\cyrd }\IeC {\cyra } \IeC {\cyrs } \IeC {\cyrb }\IeC {\cyrr }\IeC {\cyro }\IeC {\cyrn }\IeC {\cyri }\IeC {\cyrr }\IeC {\cyro }\IeC {\cyrv }\IeC {\cyra }\IeC {\cyrn }\IeC {\cyrn }\IeC {\cyrery }\IeC {\cyrm }\IeC {\cyri } \IeC {\cyrt }\IeC {\cyro }\IeC {\cyrr }\IeC {\cyrc }\IeC {\cyra }\IeC {\cyrm }\IeC {\cyri }}{31}}
\@writefile{lof}{\contentsline {figure}{\numberline {17}{\ignorespaces \IeC {\CYRO }\IeC {\cyrd }\IeC {\cyrn }\IeC {\cyro }\IeC {\cyrsh }\IeC {\cyra }\IeC {\cyrsh }\IeC {\cyre }\IeC {\cyrch }\IeC {\cyrn }\IeC {\cyrery }\IeC {\cyrishrt } \IeC {\cyrk }\IeC {\cyra }\IeC {\cyrn }\IeC {\cyra }\IeC {\cyrl }\IeC {\cyrsftsn }\IeC {\cyrn }\IeC {\cyrery }\IeC {\cyrishrt } \IeC {\cyrz }\IeC {\cyra }\IeC {\cyrr }\IeC {\cyrya }\IeC {\cyrd }}}{32}}
\newlabel{fig:17}{{17}{32}}
\@writefile{toc}{\contentsline {section}{\numberline {18}\IeC {\CYRP }\IeC {\cyrr }\IeC {\cyro }\IeC {\cyre }\IeC {\cyrk }\IeC {\cyrt }\IeC {\cyri }\IeC {\cyrr }\IeC {\cyro }\IeC {\cyrv }\IeC {\cyra }\IeC {\cyrn }\IeC {\cyri }\IeC {\cyre } \IeC {\cyrt }\IeC {\cyro }\IeC {\cyrr }\IeC {\cyrc }\IeC {\cyre }\IeC {\cyrv }\IeC {\cyro }\IeC {\cyrg }\IeC {\cyro } \IeC {\cyrz }\IeC {\cyra }\IeC {\cyrr }\IeC {\cyrya }\IeC {\cyrd }\IeC {\cyra }}{32}}
\@writefile{toc}{\contentsline {section}{\numberline {19}\IeC {\CYRG }\IeC {\cyre }\IeC {\cyro }\IeC {\cyrm }\IeC {\cyre }\IeC {\cyrt }\IeC {\cyrr }\IeC {\cyri }\IeC {\cyrch }\IeC {\cyre }\IeC {\cyrs }\IeC {\cyrk }\IeC {\cyri }\IeC {\cyre } \IeC {\cyrz }\IeC {\cyra }\IeC {\cyrk }\IeC {\cyro }\IeC {\cyrn }\IeC {\cyra }\IeC {\cyrm }\IeC {\cyre }\IeC {\cyrr }\IeC {\cyrn }\IeC {\cyro }\IeC {\cyrs }\IeC {\cyrt }\IeC {\cyri } \IeC {\cyrr }\IeC {\cyra }\IeC {\cyrs }\IeC {\cyrp }\IeC {\cyrr }\IeC {\cyro }\IeC {\cyrs }\IeC {\cyrt }\IeC {\cyrr }\IeC {\cyra }\IeC {\cyrn }\IeC {\cyre }\IeC {\cyrn }\IeC {\cyri }\IeC {\cyrya } \IeC {\cyrf }\IeC {\cyrr }\IeC {\cyro }\IeC {\cyrn }\IeC {\cyrt }\IeC {\cyra } \IeC {\cyrg }\IeC {\cyro }\IeC {\cyrr }\IeC {\cyre }\IeC {\cyrn }\IeC {\cyri }\IeC {\cyrya } \IeC {\cyrp }\IeC {\cyro } \IeC {\cyra }\IeC {\cyrn }\IeC {\cyri }\IeC {\cyrz }\IeC {\cyro }\IeC {\cyrt }\IeC {\cyrr }\IeC {\cyro }\IeC {\cyrp }\IeC {\cyrn }\IeC {\cyro }\IeC {\cyrm }\IeC {\cyru } \IeC {\cyrt }\IeC {\cyro }\IeC {\cyrp }\IeC {\cyrl }\IeC {\cyri }\IeC {\cyrv }\IeC {\cyru }}{33}}
\@writefile{toc}{\contentsline {section}{\numberline {20}\IeC {\CYRK }\IeC {\cyrr }\IeC {\cyri }\IeC {\cyrt }\IeC {\cyre }\IeC {\cyrr }\IeC {\cyri }\IeC {\cyrishrt } \IeC {\CYRP }\IeC {\cyro }\IeC {\cyrb }\IeC {\cyre }\IeC {\cyrd }\IeC {\cyro }\IeC {\cyrn }\IeC {\cyro }\IeC {\cyrs }\IeC {\cyrc }\IeC {\cyre }\IeC {\cyrv }\IeC {\cyra }. \IeC {\CYRF }\IeC {\cyri }\IeC {\cyrz }\IeC {\cyri }\IeC {\cyrch }\IeC {\cyre }\IeC {\cyrs }\IeC {\cyrk }\IeC {\cyri }\IeC {\cyrishrt } \IeC {\cyrs }\IeC {\cyrm }\IeC {\cyrery }\IeC {\cyrs }\IeC {\cyrl }}{34}}
\@writefile{toc}{\contentsline {section}{\numberline {21}\IeC {\CYRK }\IeC {\cyro }\IeC {\cyrn }\IeC {\cyrs }\IeC {\cyrt }\IeC {\cyrr }\IeC {\cyru }\IeC {\cyrk }\IeC {\cyrt }\IeC {\cyri }\IeC {\cyrv }\IeC {\cyrn }\IeC {\cyra }\IeC {\cyrya } \IeC {\cyrs }\IeC {\cyrh }\IeC {\cyre }\IeC {\cyrm }\IeC {\cyra } \IeC {\CYRR }\IeC {\CYRD }\IeC {\CYRT }\IeC {\CYRT } \IeC {\cyrs } \IeC {\cyrp }\IeC {\cyrr }\IeC {\cyro }\IeC {\cyrch }\IeC {\cyrn }\IeC {\cyro }\IeC {\cyrs }\IeC {\cyrk }\IeC {\cyrr }\IeC {\cyre }\IeC {\cyrp }\IeC {\cyrl }\IeC {\cyryo }\IeC {\cyrn }\IeC {\cyrn }\IeC {\cyrery }\IeC {\cyrm } \IeC {\cyrz }\IeC {\cyra }\IeC {\cyrr }\IeC {\cyrya }\IeC {\cyrd }\IeC {\cyro }\IeC {\cyrm }}{35}}
\@writefile{lof}{\contentsline {figure}{\numberline {18}{\ignorespaces \relax }}{36}}
\newlabel{fig:211}{{18}{36}}
\@writefile{lof}{\contentsline {figure}{\numberline {19}{\ignorespaces \relax }}{36}}
\newlabel{fig:212}{{19}{36}}
\@writefile{lof}{\contentsline {figure}{\numberline {20}{\ignorespaces \relax }}{36}}
\newlabel{fig:213}{{20}{36}}
\@writefile{toc}{\contentsline {section}{\numberline {22}\IeC {\CYRK }\IeC {\cyro }\IeC {\cyrn }\IeC {\cyrs }\IeC {\cyrt }\IeC {\cyrr }\IeC {\cyru }\IeC {\cyrk }\IeC {\cyrt }\IeC {\cyri }\IeC {\cyrv }\IeC {\cyrn }\IeC {\cyra }\IeC {\cyrya } \IeC {\cyrs }\IeC {\cyrh }\IeC {\cyre }\IeC {\cyrm }\IeC {\cyra } \IeC {\CYRR }\IeC {\CYRD }\IeC {\CYRT }\IeC {\CYRT } \IeC {\cyrs } \IeC {\cyrv }\IeC {\cyrk }\IeC {\cyrl }\IeC {\cyra }\IeC {\cyrd }\IeC {\cyrn }\IeC {\cyrery }\IeC {\cyrm } \IeC {\cyrz }\IeC {\cyra }\IeC {\cyrr }\IeC {\cyrya }\IeC {\cyrd }\IeC {\cyro }\IeC {\cyrm }}{37}}
\@writefile{toc}{\contentsline {section}{\numberline {23}\IeC {\CYRK }\IeC {\cyro }\IeC {\cyrn }\IeC {\cyrs }\IeC {\cyrt }\IeC {\cyrr }\IeC {\cyru }\IeC {\cyrk }\IeC {\cyrt }\IeC {\cyri }\IeC {\cyrv }\IeC {\cyrn }\IeC {\cyrery }\IeC {\cyre } \IeC {\cyrs }\IeC {\cyrh }\IeC {\cyre }\IeC {\cyrm }\IeC {\cyrery } \IeC {\cyrs }\IeC {\cyro }\IeC {\cyrp }\IeC {\cyre }\IeC {\cyrl } \IeC {\CYRR }\IeC {\CYRD }\IeC {\CYRT }\IeC {\CYRT }}{38}}
\@writefile{lof}{\contentsline {figure}{\numberline {21}{\ignorespaces \IeC {\CYRO }\IeC {\cyrs }\IeC {\cyrn }\IeC {\cyro }\IeC {\cyrv }\IeC {\cyrn }\IeC {\cyrery }\IeC {\cyre } \IeC {\cyrv }\IeC {\cyri }\IeC {\cyrd }\IeC {\cyrery } \IeC {\cyrs }\IeC {\cyro }\IeC {\cyrp }\IeC {\cyre }\IeC {\cyrl }\relax }}{39}}
\newlabel{fig:konich}{{21}{39}}
\@writefile{toc}{\contentsline {section}{\numberline {24}\IeC {\CYRK }\IeC {\cyro }\IeC {\cyrn }\IeC {\cyrs }\IeC {\cyrt }\IeC {\cyrr }\IeC {\cyru }\IeC {\cyrk }\IeC {\cyrt }\IeC {\cyri }\IeC {\cyrv }\IeC {\cyrn }\IeC {\cyrery }\IeC {\cyre } \IeC {\cyrs }\IeC {\cyrh }\IeC {\cyre }\IeC {\cyrm }\IeC {\cyrery } \IeC {\cyrv }\IeC {\cyro }\IeC {\cyrs }\IeC {\cyrp }\IeC {\cyrl }\IeC {\cyra }\IeC {\cyrm }\IeC {\cyre }\IeC {\cyrn }\IeC {\cyri }\IeC {\cyrt }\IeC {\cyre }\IeC {\cyrl }\IeC {\cyrsftsn }\IeC {\cyrn }\IeC {\cyrery }\IeC {\cyrh } \IeC {\cyru }\IeC {\cyrs }\IeC {\cyrt }\IeC {\cyrr }\IeC {\cyro }\IeC {\cyrishrt }\IeC {\cyrs }\IeC {\cyrt }\IeC {\cyrv } \IeC {\CYRR }\IeC {\CYRD }\IeC {\CYRT }\IeC {\CYRT }}{39}}
\@writefile{lof}{\contentsline {figure}{\numberline {22}{\ignorespaces \relax }}{40}}
\newlabel{fig:tverdiy}{{22}{40}}
\@writefile{lof}{\contentsline {figure}{\numberline {23}{\ignorespaces \IeC {\CYRS } \IeC {\cyro }\IeC {\cyrh }\IeC {\cyrl }\IeC {\cyra }\IeC {\cyrzh }\IeC {\cyrd }\IeC {\cyra }\IeC {\cyre }\IeC {\cyrm }\IeC {\cyrery }\IeC {\cyrm } \IeC {\cyrv }\IeC {\cyrk }\IeC {\cyrl }\IeC {\cyra }\IeC {\cyrd }\IeC {\cyrery }\IeC {\cyrsh }\IeC {\cyre }\IeC {\cyrm } (\IeC {\cyrs } \IeC {\cyrm }\IeC {\cyre }\IeC {\cyrt }\IeC {\cyra }\IeC {\cyrl }\IeC {\cyri }\IeC {\cyrch }\IeC {\cyre }\IeC {\cyrs }\IeC {\cyrk }\IeC {\cyri }\IeC {\cyrm } \IeC {\cyro }\IeC {\cyrh }\IeC {\cyrl }\IeC {\cyra }\IeC {\cyrd }\IeC {\cyri }\IeC {\cyrt }\IeC {\cyre }\IeC {\cyrl }\IeC {\cyre }\IeC {\cyrm })\relax }}{40}}
\newlabel{fig:sotoviy}{{23}{40}}
\@writefile{toc}{\contentsline {section}{\numberline {25}\IeC {\CYRU }\IeC {\cyrch }\IeC {\cyryo }\IeC {\cyrt } \IeC {\cyrn }\IeC {\cyra }\IeC {\cyrl }\IeC {\cyri }\IeC {\cyrch }\IeC {\cyri }\IeC {\cyrya } \IeC {\cyrk }\IeC {\cyro }\IeC {\cyrn }\IeC {\cyrd }\IeC {\cyre }\IeC {\cyrn }\IeC {\cyrs }\IeC {\cyri }\IeC {\cyrr }\IeC {\cyro }\IeC {\cyrv }\IeC {\cyra }\IeC {\cyrn }\IeC {\cyrn }\IeC {\cyro }\IeC {\cyrishrt } \IeC {\cyrf }\IeC {\cyra }\IeC {\cyrz }\IeC {\cyrery } \IeC {\cyrp }\IeC {\cyrr }\IeC {\cyri } \IeC {\cyrr }\IeC {\cyra }\IeC {\cyrs }\IeC {\cyrch }\IeC {\cyryo }\IeC {\cyrt }\IeC {\cyre } \IeC {\cyrt }\IeC {\cyre }\IeC {\cyrp }\IeC {\cyrl }\IeC {\cyro }\IeC {\cyro }\IeC {\cyrb }\IeC {\cyrm }\IeC {\cyre }\IeC {\cyrn }\IeC {\cyra } \IeC {\CYRR }\IeC {\CYRD }\IeC {\CYRT }\IeC {\CYRT }}{43}}
\@writefile{lof}{\contentsline {figure}{\numberline {24}{\ignorespaces \IeC {\CYRR }\IeC {\cyra }\IeC {\cyrs }\IeC {\cyrp }\IeC {\cyrr }\IeC {\cyre }\IeC {\cyrd }\IeC {\cyre }\IeC {\cyrl }\IeC {\cyre }\IeC {\cyrn }\IeC {\cyri }\IeC {\cyre } \IeC {\cyrt }\IeC {\cyre }\IeC {\cyrp }\IeC {\cyrl }\IeC {\cyro }\IeC {\cyrv }\IeC {\cyrery }\IeC {\cyrh } \IeC {\cyrp }\IeC {\cyro }\IeC {\cyrt }\IeC {\cyro }\IeC {\cyrk }\IeC {\cyro }\IeC {\cyrv } \IeC {\cyrp }\IeC {\cyro } \IeC {\cyrd }\IeC {\cyrl }\IeC {\cyri }\IeC {\cyrn }\IeC {\cyre } \IeC {\CYRR }\IeC {\CYRD }\IeC {\CYRT }\IeC {\CYRT }}}{45}}
\newlabel{fig:25}{{24}{45}}
\@writefile{toc}{\contentsline {section}{\numberline {26}\IeC {\CYRO }\IeC {\cyrp }\IeC {\cyrr }\IeC {\cyre }\IeC {\cyrd }\IeC {\cyre }\IeC {\cyrl }\IeC {\cyre }\IeC {\cyrn }\IeC {\cyri }\IeC {\cyre } \IeC {\cyrk }\IeC {\cyro }\IeC {\cyrn }\IeC {\cyrv }\IeC {\cyre }\IeC {\cyrk }\IeC {\cyrt }\IeC {\cyri }\IeC {\cyrv }\IeC {\cyrn }\IeC {\cyro }\IeC {\cyrg }\IeC {\cyro } \IeC {\cyrt }\IeC {\cyre }\IeC {\cyrp }\IeC {\cyrl }\IeC {\cyro }\IeC {\cyrv }\IeC {\cyro }\IeC {\cyrg }\IeC {\cyro } \IeC {\cyrp }\IeC {\cyro }\IeC {\cyrt }\IeC {\cyro }\IeC {\cyrk }\IeC {\cyra } \IeC {\cyrk } \IeC {\cyrs }\IeC {\cyrt }\IeC {\cyre }\IeC {\cyrn }\IeC {\cyrk }\IeC {\cyre } \IeC {\cyrk }\IeC {\cyra }\IeC {\cyrm }\IeC {\cyre }\IeC {\cyrr }\IeC {\cyrery } (\IeC {\cyrp }\IeC {\cyro } \IeC {\cyrm }\IeC {\cyre }\IeC {\cyrt }\IeC {\cyro }\IeC {\cyrd }\IeC {\cyri }\IeC {\cyrk }\IeC {\cyre } \IeC {\CYRO }\IeC {\cyrv }\IeC {\cyrd }\IeC {\cyru }\IeC {\cyre }\IeC {\cyrv }\IeC {\cyrs }\IeC {\cyrk }\IeC {\cyro }\IeC {\cyrg }\IeC {\cyro })}{46}}
\@writefile{toc}{\contentsline {section}{\numberline {27}\IeC {\CYRO }\IeC {\cyrs }\IeC {\cyrn }\IeC {\cyro }\IeC {\cyrv }\IeC {\cyrn }\IeC {\cyrery }\IeC {\cyre } \IeC {\cyrh }\IeC {\cyra }\IeC {\cyrr }\IeC {\cyra }\IeC {\cyrk }\IeC {\cyrt }\IeC {\cyre }\IeC {\cyrr }\IeC {\cyrn }\IeC {\cyrery }\IeC {\cyre } \IeC {\cyrz }\IeC {\cyro }\IeC {\cyrn }\IeC {\cyrery } \IeC {\cyrt }\IeC {\cyre }\IeC {\cyrp }\IeC {\cyrl }\IeC {\cyro }\IeC {\cyro }\IeC {\cyrb }\IeC {\cyrm }\IeC {\cyre }\IeC {\cyrn }\IeC {\cyra } \IeC {\cyrv } \IeC {\CYRR }\IeC {\CYRD }\IeC {\CYRT }\IeC {\CYRT }}{46}}
\@writefile{toc}{\contentsline {section}{\numberline {28}\IeC {\CYRO }\IeC {\cyrs }\IeC {\cyro }\IeC {\cyrb }\IeC {\cyre }\IeC {\cyrn }\IeC {\cyrn }\IeC {\cyro }\IeC {\cyrs }\IeC {\cyrt }\IeC {\cyri } \IeC {\cyrr }\IeC {\cyra }\IeC {\cyrd }\IeC {\cyri }\IeC {\cyra }\IeC {\cyrc }\IeC {\cyri }\IeC {\cyro }\IeC {\cyrn }\IeC {\cyrn }\IeC {\cyro }\IeC {\cyrg }\IeC {\cyro } \IeC {\cyrt }\IeC {\cyre }\IeC {\cyrp }\IeC {\cyrl }\IeC {\cyro }\IeC {\cyro }\IeC {\cyrb }\IeC {\cyrm }\IeC {\cyre }\IeC {\cyrn }\IeC {\cyra } \IeC {\cyrv } \IeC {\CYRR }\IeC {\CYRD }\IeC {\CYRT }\IeC {\CYRT } (\IeC {\cyrn }\IeC {\cyre }\IeC {\cyrp }\IeC {\cyrr }\IeC {\cyri }\IeC {\cyrya }\IeC {\cyrt }\IeC {\cyrn }\IeC {\cyro })}{47}}
\@writefile{toc}{\contentsline {section}{\numberline {29}\IeC {\CYRU }\IeC {\cyrch }\IeC {\cyryo }\IeC {\cyrt } \IeC {\cyrv }\IeC {\cyrl }\IeC {\cyri }\IeC {\cyrya }\IeC {\cyrn }\IeC {\cyri }\IeC {\cyrya } \IeC {\cyrn }\IeC {\cyra }\IeC {\cyrl }\IeC {\cyri }\IeC {\cyrch }\IeC {\cyri }\IeC {\cyrya } \IeC {\cyrk }\IeC {\cyro }\IeC {\cyrn }\IeC {\cyrd }\IeC {\cyre }\IeC {\cyrn }\IeC {\cyrs }\IeC {\cyri }\IeC {\cyrr }\IeC {\cyro }\IeC {\cyrv }\IeC {\cyra }\IeC {\cyrn }\IeC {\cyrn }\IeC {\cyro }\IeC {\cyrishrt } \IeC {\cyrf }\IeC {\cyra }\IeC {\cyrz }\IeC {\cyrery } \IeC {\cyrn }\IeC {\cyra } \IeC {\cyrp }\IeC {\cyro }\IeC {\cyrt }\IeC {\cyre }\IeC {\cyrr }\IeC {\cyri } \IeC {\cyru }\IeC {\cyrd }\IeC {\cyre }\IeC {\cyrl }\IeC {\cyrsftsn }\IeC {\cyrn }\IeC {\cyro }\IeC {\cyrg }\IeC {\cyro } \IeC {\cyri }\IeC {\cyrm }\IeC {\cyru }\IeC {\cyrl }\IeC {\cyrsftsn }\IeC {\cyrs }\IeC {\cyra } \IeC {\cyrv } \IeC {\CYRR }\IeC {\CYRD }\IeC {\CYRT }\IeC {\CYRT }}{48}}
\@writefile{toc}{\contentsline {section}{\numberline {30}\IeC {\CYRO }\IeC {\cyrb }\IeC {\cyrshch }\IeC {\cyri }\IeC {\cyre } \IeC {\cyri } \IeC {\cyro }\IeC {\cyrs }\IeC {\cyro }\IeC {\cyrb }\IeC {\cyre }\IeC {\cyrn }\IeC {\cyrn }\IeC {\cyrery }\IeC {\cyre } \IeC {\cyrp }\IeC {\cyro }\IeC {\cyrt }\IeC {\cyre }\IeC {\cyrr }\IeC {\cyri } \IeC {\cyru }\IeC {\cyrd }\IeC {\cyre }\IeC {\cyrl }\IeC {\cyrsftsn }\IeC {\cyrn }\IeC {\cyro }\IeC {\cyrg }\IeC {\cyro } \IeC {\cyri }\IeC {\cyrm }\IeC {\cyrp }\IeC {\cyru }\IeC {\cyrl }\IeC {\cyrsftsn }\IeC {\cyrs }\IeC {\cyra } \IeC {\cyrv } \IeC {\CYRR }\IeC {\CYRD }\IeC {\CYRT }\IeC {\CYRT }}{50}}
