\relax 
\catcode `"\active 
\select@language{russian}
\@writefile{toc}{\select@language{russian}}
\@writefile{lof}{\select@language{russian}}
\@writefile{lot}{\select@language{russian}}
\@writefile{toc}{\contentsline {subsubsection}{\numberline {0.0.1}\IeC {\CYRS }\IeC {\cyrp }\IeC {\cyri }\IeC {\cyrs }\IeC {\cyro }\IeC {\cyrk } \IeC {\cyrl }\IeC {\cyri }\IeC {\cyrt }\IeC {\cyre }\IeC {\cyrr }\IeC {\cyra }\IeC {\cyrt }\IeC {\cyru }\IeC {\cyrr }\IeC {\cyrery }}{1}}
\@writefile{toc}{\contentsline {section}{\numberline {1}\IeC {\CYRZH }\IeC {\CYRR }\IeC {\CYRD } \IeC {\cyrk }\IeC {\cyra }\IeC {\cyrk } \IeC {\cyro }\IeC {\cyrb }\IeC {\cyrhrdsn }\IeC {\cyre }\IeC {\cyrk }\IeC {\cyrt } \IeC {\cyrm }\IeC {\cyra }\IeC {\cyrt }\IeC {\cyre }\IeC {\cyrm }\IeC {\cyra }\IeC {\cyrt }\IeC {\cyri }\IeC {\cyrch }\IeC {\cyre }\IeC {\cyrs }\IeC {\cyrk }\IeC {\cyro }\IeC {\cyrg }\IeC {\cyro } \IeC {\cyrm }\IeC {\cyro }\IeC {\cyrd }\IeC {\cyre }\IeC {\cyrl }\IeC {\cyri }\IeC {\cyrr }\IeC {\cyro }\IeC {\cyrv }\IeC {\cyra }\IeC {\cyrn }\IeC {\cyri }\IeC {\cyrya }}{1}}
\@writefile{toc}{\contentsline {section}{\numberline {2}\IeC {\CYRM }\IeC {\cyra }\IeC {\cyrt }\IeC {\cyre }\IeC {\cyrm }\IeC {\cyra }\IeC {\cyrt }\IeC {\cyri }\IeC {\cyrch }\IeC {\cyre }\IeC {\cyrs }\IeC {\cyrk }\IeC {\cyra }\IeC {\cyrya } \IeC {\cyrm }\IeC {\cyro }\IeC {\cyrd }\IeC {\cyre }\IeC {\cyrl }\IeC {\cyrsftsn }}{3}}
\@writefile{toc}{\contentsline {section}{\numberline {3}\IeC {\CYRT }\IeC {\cyrr }\IeC {\cyre }\IeC {\cyrb }\IeC {\cyro }\IeC {\cyrv }\IeC {\cyra }\IeC {\cyrn }\IeC {\cyri }\IeC {\cyrya } \IeC {\cyrk } \IeC {\cyrm }\IeC {\cyra }\IeC {\cyrt }\IeC {\cyre }\IeC {\cyrm }\IeC {\cyra }\IeC {\cyrt }\IeC {\cyri }\IeC {\cyrch }\IeC {\cyre }\IeC {\cyrs }\IeC {\cyrk }\IeC {\cyri }\IeC {\cyrm } \IeC {\cyrm }\IeC {\cyro }\IeC {\cyrd }\IeC {\cyre }\IeC {\cyrl }\IeC {\cyrya }\IeC {\cyrm } \IeC {\cyri } \IeC {\cyri }\IeC {\cyrh } \IeC {\cyrk }\IeC {\cyrl }\IeC {\cyra }\IeC {\cyrs }\IeC {\cyrs }\IeC {\cyri }\IeC {\cyrf }\IeC {\cyri }\IeC {\cyrk }\IeC {\cyra }\IeC {\cyrc }\IeC {\cyri }\IeC {\cyri }}{4}}
\@writefile{toc}{\contentsline {section}{\numberline {4}\IeC {\CYRG }\IeC {\cyri }\IeC {\cyrd }\IeC {\cyrr }\IeC {\cyra }\IeC {\cyrv }\IeC {\cyrl }\IeC {\cyri }\IeC {\cyrch }\IeC {\cyre }\IeC {\cyrs }\IeC {\cyrk }\IeC {\cyri }\IeC {\cyre }\IeC {\cyrs }\IeC {\cyrk }\IeC {\cyri }\IeC {\cyre } \IeC {\cyrm }\IeC {\cyra }\IeC {\cyrg }\IeC {\cyri }\IeC {\cyrs }\IeC {\cyrt }\IeC {\cyrr }\IeC {\cyra }\IeC {\cyrl }\IeC {\cyri } \IeC {\CYRZH }\IeC {\CYRR }\IeC {\CYRD }}{5}}
\@writefile{toc}{\contentsline {subsection}{\numberline {4.1}\IeC {\CYRS }\IeC {\cyrt }\IeC {\cyrr }\IeC {\cyru }\IeC {\cyrk }\IeC {\cyrt }\IeC {\cyru }\IeC {\cyrr }\IeC {\cyrn }\IeC {\cyrery }\IeC {\cyre } \IeC {\cyrs }\IeC {\cyrh }\IeC {\cyre }\IeC {\cyrm }\IeC {\cyrery } \IeC {\cyrk }\IeC {\cyro }\IeC {\cyrn }\IeC {\cyrt }\IeC {\cyrr }\IeC {\cyro }\IeC {\cyrl }\IeC {\cyrya }}{7}}
\@writefile{lof}{\contentsline {figure}{\numberline {1}{\ignorespaces \IeC {\CYRK }\IeC {\cyro }\IeC {\cyrn }\IeC {\cyrt }\IeC {\cyru }\IeC {\cyrr } \IeC {\textnumero }1 (\IeC {\cyro }\IeC {\cyrb }\IeC {\cyrhrdsn }\IeC {\cyre }\IeC {\cyrd }\IeC {\cyri }\IeC {\cyrn }\IeC {\cyrya }\IeC {\cyre }\IeC {\cyrt } \IeC {\cyrv }\IeC {\cyrs }\IeC {\cyre } \IeC {\cyrm }\IeC {\cyra }\IeC {\cyrg }\IeC {\cyri }\IeC {\cyrs }\IeC {\cyrt }\IeC {\cyrr }\IeC {\cyra }\IeC {\cyrl }\IeC {\cyri } \IeC {\cyro }\IeC {\cyrt } \IeC {\cyrb }\IeC {\cyra }\IeC {\cyrk }\IeC {\cyra } \IeC {\cyro }\IeC {\cyrk }\IeC {\cyri }\IeC {\cyrs }\IeC {\cyrl }\IeC {\cyri }\IeC {\cyrt }\IeC {\cyre }\IeC {\cyrl }\IeC {\cyrya } \IeC {\cyrd }\IeC {\cyro } \IeC {\cyrg }\IeC {\cyra }\IeC {\cyrz }\IeC {\cyro }\IeC {\cyrg }\IeC {\cyre }\IeC {\cyrn }\IeC {\cyre }\IeC {\cyrr }\IeC {\cyra }\IeC {\cyrt }\IeC {\cyro }\IeC {\cyrr }\IeC {\cyra })\relax }}{7}}
\providecommand*\caption@xref[2]{\@setref\relax\@undefined{#1}}
\newlabel{fig:okis}{{1}{7}}
\@writefile{lof}{\contentsline {figure}{\numberline {2}{\ignorespaces \IeC {\CYRK }\IeC {\cyro }\IeC {\cyrn }\IeC {\cyrt }\IeC {\cyru }\IeC {\cyrr } \IeC {\textnumero }2 (\IeC {\cyrk }\IeC {\cyro }\IeC {\cyrn }\IeC {\cyrt }\IeC {\cyru }\IeC {\cyrr } \IeC {\cyrp }\IeC {\cyri }\IeC {\cyrt }\IeC {\cyra }\IeC {\cyrn }\IeC {\cyri }\IeC {\cyrya } \IeC {\cyrg }\IeC {\cyro }\IeC {\cyrr }\IeC {\cyryu }\IeC {\cyrch }\IeC {\cyri }\IeC {\cyrm } \IeC {\CYRK }\IeC {\CYRS })\relax }}{7}}
\newlabel{fig:gor}{{2}{7}}
\@writefile{lof}{\contentsline {figure}{\numberline {3}{\ignorespaces \IeC {\CYRK }\IeC {\cyro }\IeC {\cyrn }\IeC {\cyrt }\IeC {\cyru }\IeC {\cyrr } \IeC {\textnumero }3 (\IeC {\cyrk }\IeC {\cyro }\IeC {\cyrn }\IeC {\cyrt }\IeC {\cyru }\IeC {\cyrr } \IeC {\cyrr }\IeC {\cyre }\IeC {\cyrg }\IeC {\cyru }\IeC {\cyrl }\IeC {\cyri }\IeC {\cyrr }\IeC {\cyro }\IeC {\cyrv }\IeC {\cyra }\IeC {\cyrn }\IeC {\cyri }\IeC {\cyrya })\relax }}{7}}
\newlabel{fig:reg}{{3}{7}}
\@writefile{toc}{\contentsline {section}{\numberline {5}\IeC {\CYRM }\IeC {\cyra }\IeC {\cyrt }\IeC {\cyre }\IeC {\cyrm }\IeC {\cyra }\IeC {\cyrt }\IeC {\cyri }\IeC {\cyrch }\IeC {\cyre }\IeC {\cyrs }\IeC {\cyrk }\IeC {\cyri }\IeC {\cyre } \IeC {\cyrm }\IeC {\cyro }\IeC {\cyrd }\IeC {\cyre }\IeC {\cyrl }\IeC {\cyri }}{7}}
\@writefile{toc}{\contentsline {subsection}{\numberline {5.1}\IeC {\CYRU }\IeC {\cyrr }\IeC {\cyra }\IeC {\cyrv }\IeC {\cyrn }\IeC {\cyre }\IeC {\cyrn }\IeC {\cyri }\IeC {\cyre } \IeC {\cyrt }\IeC {\cyre }\IeC {\cyrp }\IeC {\cyrl }\IeC {\cyro }\IeC {\cyrp }\IeC {\cyrr }\IeC {\cyro }\IeC {\cyrv }\IeC {\cyro }\IeC {\cyrd }\IeC {\cyrn }\IeC {\cyro }\IeC {\cyrs }\IeC {\cyrt }\IeC {\cyri }}{9}}
\@writefile{toc}{\contentsline {section}{\numberline {6}\IeC {\CYRB }\IeC {\cyra }\IeC {\cyrz }\IeC {\cyro }\IeC {\cyrv }\IeC {\cyra }\IeC {\cyrya } \IeC {\cyrn }\IeC {\cyre }\IeC {\cyrl }\IeC {\cyri }\IeC {\cyrn }\IeC {\cyre }\IeC {\cyrishrt }\IeC {\cyrn }\IeC {\cyra }\IeC {\cyrya } \IeC {\cyrm }\IeC {\cyra }\IeC {\cyrt }\IeC {\cyre }\IeC {\cyrm }\IeC {\cyra }\IeC {\cyrt }\IeC {\cyri }\IeC {\cyrch }\IeC {\cyre }\IeC {\cyrs }\IeC {\cyrk }\IeC {\cyra }\IeC {\cyrya } \IeC {\cyrm }\IeC {\cyro }\IeC {\cyrd }\IeC {\cyre }\IeC {\cyrl }\IeC {\cyrsftsn } \IeC {\CYRZH }\IeC {\CYRR }\IeC {\CYRD }}{9}}
\@writefile{toc}{\contentsline {section}{\numberline {7}\IeC {\CYRP }\IeC {\cyrr }\IeC {\cyri }\IeC {\cyrm }\IeC {\cyre }\IeC {\cyrr }}{10}}
\@writefile{lof}{\contentsline {figure}{\numberline {4}{\ignorespaces $\ensuremath  {\mathaccentV {dot}05F{m}}_{\IeC {\cyrv }\IeC {\cyrh }_\IeC {\cyrg }} $ --- \IeC {\cyrr }\IeC {\cyra }\IeC {\cyrs }\IeC {\cyrh }\IeC {\cyro }\IeC {\cyrd } \IeC {\cyrg }\IeC {\cyro }\IeC {\cyrr }\IeC {\cyryu }\IeC {\cyrch }\IeC {\cyre }\IeC {\cyrg }\IeC {\cyro } \IeC {\cyro }\IeC {\cyrt } \IeC {\cyrb }\IeC {\cyra }\IeC {\cyrk }\IeC {\cyra } \IeC {\cyrd }\IeC {\cyro } \IeC {\cyrv }\IeC {\cyrh }\IeC {\cyro }\IeC {\cyrd }\IeC {\cyra } \IeC {\cyrv } \IeC {\cyrs }\IeC {\cyrt }\IeC {\cyrr }\IeC {\cyru }\IeC {\cyrishrt }\IeC {\cyrn }\IeC {\cyrery }\IeC {\cyrishrt } \IeC {\cyrp }\IeC {\cyrr }\IeC {\cyre }\IeC {\cyrd }\IeC {\cyrn }\IeC {\cyra }\IeC {\cyrs }\IeC {\cyro }\IeC {\cyrs }, $\ensuremath  {\mathaccentV {dot}05F{m}}_{\ensuremath  {\alpha }_{\IeC {\cyrd }\IeC {\cyrr }}}$ --- \IeC {\cyrr }\IeC {\cyra }\IeC {\cyrs }\IeC {\cyrh }\IeC {\cyro }\IeC {\cyrd } \IeC {\cyrg }\IeC {\cyro }\IeC {\cyrr }\IeC {\cyryu }\IeC {\cyrch }\IeC {\cyre }\IeC {\cyrg }\IeC {\cyro }, \IeC {\cyrk }\IeC {\cyro }\IeC {\cyrt }\IeC {\cyro }\IeC {\cyrr }\IeC {\cyro }\IeC {\cyre } \IeC {\cyrp }\IeC {\cyro }\IeC {\cyrs }\IeC {\cyrt }\IeC {\cyru }\IeC {\cyrp }\IeC {\cyra }\IeC {\cyre }\IeC {\cyrt } \IeC {\cyrv } \IeC {\CYRK }\IeC {\CYRS } \IeC {\cyri } \IeC {\cyrp }\IeC {\cyrr }\IeC {\cyro }\IeC {\cyrt }\IeC {\cyre }\IeC {\cyrk }\IeC {\cyra }\IeC {\cyrch }\IeC {\cyre }\IeC {\cyrt } \IeC {\cyrch }\IeC {\cyre }\IeC {\cyrr }\IeC {\cyre }\IeC {\cyrz } \IeC {\cyrd }\IeC {\cyrr }\IeC {\cyro }\IeC {\cyrs }\IeC {\cyrs }\IeC {\cyre }\IeC {\cyrl }\IeC {\cyrsftsn }.\relax }}{12}}
\newlabel{fig:kont1}{{4}{12}}
\@writefile{lof}{\contentsline {figure}{\numberline {5}{\ignorespaces \IeC {\CYRK }\IeC {\cyro }\IeC {\cyrn }\IeC {\cyrt }\IeC {\cyru }\IeC {\cyrr } 3 - \IeC {\cyro }\IeC {\cyrb }\IeC {\cyrhrdsn }\IeC {\cyre }\IeC {\cyrd }\IeC {\cyri }\IeC {\cyrn }\IeC {\cyrya }\IeC {\cyryu }\IeC {\cyrshch }\IeC {\cyri }\IeC {\cyrishrt } \IeC {\cyrv }\IeC {\cyrs }\IeC {\cyre } \IeC {\cyra }\IeC {\cyrg }\IeC {\cyrr }\IeC {\cyre }\IeC {\cyrg }\IeC {\cyra }\IeC {\cyrt }\IeC {\cyrery } \IeC {\cyri } \IeC {\cyrg }\IeC {\cyri }\IeC {\cyrd }\IeC {\cyrr }\IeC {\cyra }\IeC {\cyrv }\IeC {\cyrl }\IeC {\cyri }\IeC {\cyrch }\IeC {\cyre }\IeC {\cyrs }\IeC {\cyrk }\IeC {\cyri }\IeC {\cyre } \IeC {\cyrm }\IeC {\cyra }\IeC {\cyrg }\IeC {\cyri }\IeC {\cyrs }\IeC {\cyrt }\IeC {\cyrr }\IeC {\cyra }\IeC {\cyrl }\IeC {\cyri } \IeC {\cyro }\IeC {\cyrt } \IeC {\cyrv }\IeC {\cyrh }\IeC {\cyro }\IeC {\cyrd }\IeC {\cyra } \IeC {\cyrv } \IeC {\cyrg }\IeC {\cyre }\IeC {\cyrn }\IeC {\cyre }\IeC {\cyrr }\IeC {\cyra }\IeC {\cyrt }\IeC {\cyro }\IeC {\cyrr }\IeC {\cyrn }\IeC {\cyrery }\IeC {\cyrishrt } \IeC {\cyrn }\IeC {\cyra }\IeC {\cyrs }\IeC {\cyro }\IeC {\cyrs } \IeC {\cyrg }\IeC {\cyro }\IeC {\cyrr }\IeC {\cyryu }\IeC {\cyrch }\IeC {\cyre }\IeC {\cyrg }\IeC {\cyro } \IeC {\cyrd }\IeC {\cyro } \IeC {\CYRG }\IeC {\CYRG } $ p_{\IeC {\cyrv }\IeC {\cyrery }\IeC {\cyrh }.\IeC {\cyrg }\IeC {\cyrg }} $ --- \IeC {\cyrd }\IeC {\cyra }\IeC {\cyrv }\IeC {\cyrl }\IeC {\cyre }\IeC {\cyrn }\IeC {\cyri }\IeC {\cyre } \IeC {\cyrg }\IeC {\cyro }\IeC {\cyrr }\IeC {\cyryu }\IeC {\cyrch }\IeC {\cyre }\IeC {\cyrg }\IeC {\cyro } \IeC {\cyrn }\IeC {\cyra } \IeC {\cyrv }\IeC {\cyrery }\IeC {\cyrh }\IeC {\cyro }\IeC {\cyrd }\IeC {\cyre } \IeC {\cyri }\IeC {\cyrz } \IeC {\cyrr }\IeC {\cyre }\IeC {\cyrg }\IeC {\cyru }\IeC {\cyrl }\IeC {\cyrya }\IeC {\cyrt }\IeC {\cyro }\IeC {\cyrr }\IeC {\cyra } \IeC {\cyrr }\IeC {\cyra }\IeC {\cyrs }\IeC {\cyrh }\IeC {\cyro }\IeC {\cyrd }\IeC {\cyra }, $\ensuremath  {\mathaccentV {dot}05F{m}}_{\IeC {\cyrr }\IeC {\cyre }\IeC {\cyrg }}$ --- \IeC {\cyrr }\IeC {\cyra }\IeC {\cyrs }\IeC {\cyrh }\IeC {\cyro }\IeC {\cyrd } \IeC {\cyrg }\IeC {\cyro }\IeC {\cyrr }\IeC {\cyryu }\IeC {\cyrch }\IeC {\cyre }\IeC {\cyrg }\IeC {\cyro } \IeC {\cyrch }\IeC {\cyre }\IeC {\cyrr }\IeC {\cyre }\IeC {\cyrz } \IeC {\cyrr }\IeC {\cyre }\IeC {\cyrg }\IeC {\cyru }\IeC {\cyrl }\IeC {\cyrya }\IeC {\cyrt }\IeC {\cyro }\IeC {\cyrr } \IeC {\cyrr }\IeC {\cyra }\IeC {\cyrs }\IeC {\cyrh }\IeC {\cyro }\IeC {\cyrd }\IeC {\cyra }, $\ensuremath  {\mathaccentV {dot}05F{m}}_{\IeC {\CYRG }_{\IeC {\cyrg }\IeC {\cyrg }}}$ --- \IeC {\cyrr }\IeC {\cyra }\IeC {\cyrs }\IeC {\cyrh }\IeC {\cyro }\IeC {\cyrd } \IeC {\cyrg }\IeC {\cyro }\IeC {\cyrr }\IeC {\cyryu }\IeC {\cyrch }\IeC {\cyre }\IeC {\cyrg }\IeC {\cyro }, \IeC {\cyrp }\IeC {\cyro }\IeC {\cyrs }\IeC {\cyrt }\IeC {\cyru }\IeC {\cyrp }\IeC {\cyra }\IeC {\cyryu }\IeC {\cyrshch }\IeC {\cyri }\IeC {\cyrishrt } \IeC {\cyrv } \IeC {\CYRG }\IeC {\CYRG }. \relax }}{12}}
\newlabel{fig:kont2}{{5}{12}}
\@writefile{lof}{\contentsline {figure}{\numberline {6}{\ignorespaces \IeC {\CYRK }\IeC {\cyro }\IeC {\cyrn }\IeC {\cyrt }\IeC {\cyru }\IeC {\cyrr } \IeC {\textnumero }4 --- \IeC {\cyro }\IeC {\cyrb }\IeC {\cyrhrdsn }\IeC {\cyre }\IeC {\cyrd }\IeC {\cyri }\IeC {\cyrn }\IeC {\cyrya }\IeC {\cyre }\IeC {\cyrt } \IeC {\cyrv }\IeC {\cyrs }\IeC {\cyre } \IeC {\cyra }\IeC {\cyrg }\IeC {\cyrr }\IeC {\cyre }\IeC {\cyrg }\IeC {\cyra }\IeC {\cyrt }\IeC {\cyrery } \IeC {\cyrd }\IeC {\cyrv }\IeC {\cyri }\IeC {\cyrg }\IeC {\cyra }\IeC {\cyrt }\IeC {\cyre }\IeC {\cyrl }\IeC {\cyrya }, \IeC {\cyrv } \IeC {\cyrk }\IeC {\cyro }\IeC {\cyrt }\IeC {\cyro }\IeC {\cyrr }\IeC {\cyro }\IeC {\cyrm } \IeC {\cyrp }\IeC {\cyrr }\IeC {\cyro }\IeC {\cyri }\IeC {\cyrs }\IeC {\cyrh }\IeC {\cyro }\IeC {\cyrd }\IeC {\cyri }\IeC {\cyrt } \IeC {\cyrs }\IeC {\cyrg }\IeC {\cyro }\IeC {\cyrr }\IeC {\cyra }\IeC {\cyrn }\IeC {\cyri }\IeC {\cyre } \IeC {\cyrk }\IeC {\cyro }\IeC {\cyrm }\IeC {\cyrp }\IeC {\cyro }\IeC {\cyrn }\IeC {\cyre }\IeC {\cyrn }\IeC {\cyrt }\IeC {\cyro }\IeC {\cyrv } \IeC {\cyrt }\IeC {\cyro }\IeC {\cyrp }\IeC {\cyrl }\IeC {\cyri }\IeC {\cyrv }\IeC {\cyra } (\IeC {\CYRG }\IeC {\CYRG }, \IeC {\CYRK }\IeC {\CYRS }) \IeC {\cyri } \IeC {\cyra }\IeC {\cyrg }\IeC {\cyrr }\IeC {\cyre }\IeC {\cyrg }\IeC {\cyra }\IeC {\cyrt }\IeC {\cyrery }, \IeC {\cyrch }\IeC {\cyre }\IeC {\cyrr }\IeC {\cyre }\IeC {\cyrz } \IeC {\cyrk }\IeC {\cyro }\IeC {\cyrt }\IeC {\cyro }\IeC {\cyrr }\IeC {\cyrery }\IeC {\cyre } \IeC {\cyrd }\IeC {\cyrv }\IeC {\cyri }\IeC {\cyrzh }\IeC {\cyru }\IeC {\cyrt }\IeC {\cyrs }\IeC {\cyrya } \IeC {\cyrg }\IeC {\cyra }\IeC {\cyrz }\IeC {\cyro }\IeC {\cyrv }\IeC {\cyrery }\IeC {\cyre } \IeC {\cyrp }\IeC {\cyro }\IeC {\cyrt }\IeC {\cyro }\IeC {\cyrk }\IeC {\cyri } (\IeC {\CYRG }\IeC {\cyra }\IeC {\cyrz }\IeC {\cyro }\IeC {\cyrv }\IeC {\cyro }\IeC {\cyrd }, \IeC {\CYRT }\IeC {\CYRA })\relax }}{12}}
\newlabel{fig:kont3}{{6}{12}}
