\relax 
\catcode `"\active 
\select@language{russian}
\@writefile{toc}{\select@language{russian}}
\@writefile{lof}{\select@language{russian}}
\@writefile{lot}{\select@language{russian}}
\@writefile{toc}{\contentsline {section}{\numberline {1}\IeC {\CYRV }\IeC {\cyrv }\IeC {\cyre }\IeC {\cyrd }\IeC {\cyre }\IeC {\cyrn }\IeC {\cyri }\IeC {\cyre }}{1}}
\@writefile{toc}{\contentsline {subsubsection}{\numberline {1.0.1}\IeC {\CYREREV }\IeC {\cyrt }\IeC {\cyra }\IeC {\cyrp }\IeC {\cyrery } \IeC {\cyrr }\IeC {\cyra }\IeC {\cyrz }\IeC {\cyrv }\IeC {\cyri }\IeC {\cyrt }\IeC {\cyri }\IeC {\cyrya } \IeC {\CYRR }\IeC {\CYRK }\IeC {\CYRO }}{1}}
\@writefile{toc}{\contentsline {section}{\numberline {2}\IeC {\CYRP }\IeC {\cyrr }\IeC {\cyri }\IeC {\cyrn }\IeC {\cyrc }\IeC {\cyri }\IeC {\cyrp }\IeC {\cyrery } \IeC {\cyrerev }\IeC {\cyrk }\IeC {\cyro }\IeC {\cyrn }\IeC {\cyro }\IeC {\cyrm }\IeC {\cyri }\IeC {\cyrch }\IeC {\cyre }\IeC {\cyrs }\IeC {\cyrk }\IeC {\cyro }\IeC {\cyrg }\IeC {\cyro } \IeC {\cyrm }\IeC {\cyrery }\IeC {\cyrsh }\IeC {\cyrl }\IeC {\cyre }\IeC {\cyrn }\IeC {\cyri }\IeC {\cyrya }}{1}}
\@writefile{toc}{\contentsline {section}{\numberline {3}\IeC {\CYRF }\IeC {\cyri }\IeC {\cyrr }\IeC {\cyrm }\IeC {\cyra }}{2}}
\@writefile{toc}{\contentsline {subsubsection}{\numberline {3.0.1}\IeC {\CYRS }\IeC {\cyru }\IeC {\cyrb }\IeC {\cyrhrdsn }\IeC {\cyre }\IeC {\cyrk }\IeC {\cyrt }\IeC {\cyrery } \IeC {\cyrp }\IeC {\cyrr }\IeC {\cyre }\IeC {\cyrd }\IeC {\cyrp }\IeC {\cyrr }\IeC {\cyri }\IeC {\cyrn }\IeC {\cyri }\IeC {\cyrm }\IeC {\cyra }\IeC {\cyrt }\IeC {\cyre }\IeC {\cyrl }\IeC {\cyrsftsn }\IeC {\cyrs }\IeC {\cyrk }\IeC {\cyro }\IeC {\cyrishrt } \IeC {\cyrd }\IeC {\cyre }\IeC {\cyrya }\IeC {\cyrt }\IeC {\cyre }\IeC {\cyrl }\IeC {\cyrsftsn }\IeC {\cyrn }\IeC {\cyro }\IeC {\cyrs }\IeC {\cyrt }\IeC {\cyrsftsn }\IeC {\cyryu }}{4}}
\@writefile{toc}{\contentsline {section}{\numberline {4}\IeC {\CYRO }\IeC {\cyrs }\IeC {\cyrn }\IeC {\cyro }\IeC {\cyrv }\IeC {\cyrery } \IeC {\cyrb }\IeC {\cyru }\IeC {\cyrh }\IeC {\cyru }\IeC {\cyrch }\IeC {\cyre }\IeC {\cyrt }\IeC {\cyra }}{5}}
\@writefile{toc}{\contentsline {subsection}{\numberline {4.1}\IeC {\CYRO }\IeC {\cyrs }\IeC {\cyrn }\IeC {\cyro }\IeC {\cyrv }\IeC {\cyrery } \IeC {\cyrb }\IeC {\cyru }\IeC {\cyrh }\IeC {\cyrg }\IeC {\cyra }\IeC {\cyrl }\IeC {\cyrt }\IeC {\cyre }\IeC {\cyrr }\IeC {\cyrs }\IeC {\cyrk }\IeC {\cyro }\IeC {\cyrg }\IeC {\cyro } \IeC {\cyru }\IeC {\cyrch }\IeC {\cyre }\IeC {\cyrt }\IeC {\cyra }}{6}}
\@writefile{toc}{\contentsline {section}{\numberline {5}\IeC {\CYRN }\IeC {\cyra }\IeC {\cyrl }\IeC {\cyro }\IeC {\cyrg }\IeC {\cyro }\IeC {\cyrv }\IeC {\cyra }\IeC {\cyrya } \IeC {\cyrs }\IeC {\cyri }\IeC {\cyrs }\IeC {\cyrt }\IeC {\cyre }\IeC {\cyrm }\IeC {\cyra }}{8}}
\@writefile{toc}{\contentsline {section}{\numberline {6}\IeC {\CYRU }\IeC {\cyrp }\IeC {\cyrr }\IeC {\cyra }\IeC {\cyrv }\IeC {\cyrl }\IeC {\cyre }\IeC {\cyrn }\IeC {\cyrch }\IeC {\cyre }\IeC {\cyrs }\IeC {\cyrk }\IeC {\cyri }\IeC {\cyrishrt } \IeC {\cyru }\IeC {\cyrch }\IeC {\cyre }\IeC {\cyrt } (\IeC {\CYRK }\IeC {\cyro }\IeC {\cyrn }\IeC {\cyrt }\IeC {\cyrr }\IeC {\cyro }\IeC {\cyrl }\IeC {\cyrl }\IeC {\cyri }\IeC {\cyrn }\IeC {\cyrg })}{9}}
\@writefile{toc}{\contentsline {subsection}{\numberline {6.1}\IeC {\CYRK }\IeC {\CYRL }\IeC {\CYRA }\IeC {\CYRS }\IeC {\CYRS }\IeC {\CYRI }\IeC {\CYRCH }\IeC {\CYRE }\IeC {\CYRS }\IeC {\CYRK }\IeC {\CYRA }\IeC {\CYRYA } \IeC {\CYRK }\IeC {\CYRO }\IeC {\CYRN }\IeC {\CYRC }\IeC {\CYRE }\IeC {\CYRP }\IeC {\CYRC }\IeC {\CYRI }\IeC {\CYRYA } \IeC {\CYRK }\IeC {\CYRO }\IeC {\CYRN }\IeC {\CYRT }\IeC {\CYRR }\IeC {\CYRO }\IeC {\CYRL }\IeC {\CYRL }\IeC {\CYRI }\IeC {\CYRN }\IeC {\CYRG }\IeC {\CYRA }}{10}}
\@writefile{toc}{\contentsline {subsection}{\numberline {6.2}\IeC {\CYRF }\IeC {\cyru }\IeC {\cyrn }\IeC {\cyrk }\IeC {\cyrc }\IeC {\cyri }\IeC {\cyri } \IeC {\cyrk }\IeC {\cyro }\IeC {\cyrn }\IeC {\cyrt }\IeC {\cyrr }\IeC {\cyro }\IeC {\cyrl }\IeC {\cyrl }\IeC {\cyri }\IeC {\cyrn }\IeC {\cyrg }\IeC {\cyra }}{10}}
\@writefile{toc}{\contentsline {subsection}{\numberline {6.3}}{11}}
\@writefile{toc}{\contentsline {subsection}{\numberline {6.4}\IeC {\CYRP }\IeC {\cyrr }\IeC {\cyri }\IeC {\cyrn }\IeC {\cyrc }\IeC {\cyri }\IeC {\cyrp }\IeC {\cyrery } \IeC {\cyrk }\IeC {\cyro }\IeC {\cyrn }\IeC {\cyrt }\IeC {\cyrr }\IeC {\cyro }\IeC {\cyrl }\IeC {\cyri }\IeC {\cyrn }\IeC {\cyrg }\IeC {\cyra }}{11}}
\@writefile{toc}{\contentsline {subsection}{\numberline {6.5}\IeC {\CYRZ }\IeC {\CYRA }\IeC {\CYRT }\IeC {\CYRR }\IeC {\CYRA }\IeC {\CYRT }\IeC {\CYRERY }}{12}}
\@writefile{toc}{\contentsline {subsection}{\numberline {6.6}\IeC {\CYRS }\IeC {\cyri }\IeC {\cyrs }\IeC {\cyrt }\IeC {\cyre }\IeC {\cyrm }\IeC {\cyra } \IeC {\cyrk }\IeC {\cyra }\IeC {\cyrl }\IeC {\cyrsftsn }\IeC {\cyrk }\IeC {\cyru }\IeC {\cyrl }\IeC {\cyrya }\IeC {\cyrc }\IeC {\cyri }\IeC {\cyri } \IeC {\cyrs } \IeC {\cyrp }\IeC {\cyro }\IeC {\cyrl }\IeC {\cyrn }\IeC {\cyrery }\IeC {\cyrm } \IeC {\cyrr }\IeC {\cyra }\IeC {\cyrs }\IeC {\cyrp }\IeC {\cyrr }\IeC {\cyre }\IeC {\cyrd }\IeC {\cyre }\IeC {\cyrl }\IeC {\cyre }\IeC {\cyrn }\IeC {\cyri }\IeC {\cyre }\IeC {\cyrm } \IeC {\cyrz }\IeC {\cyra }\IeC {\cyrt }\IeC {\cyrr }\IeC {\cyra }\IeC {\cyrt }}{14}}
\@writefile{toc}{\contentsline {subsection}{\numberline {6.7}\IeC {\CYRS }\IeC {\cyri }\IeC {\cyrs }\IeC {\cyrt }\IeC {\cyre }\IeC {\cyrm }\IeC {\cyra } \IeC {\cyrk }\IeC {\cyra }\IeC {\cyrl }\IeC {\cyrsftsn }\IeC {\cyrk }\IeC {\cyru }\IeC {\cyrl }\IeC {\cyrya }\IeC {\cyrc }\IeC {\cyri }\IeC {\cyri } \IeC {\cyrp }\IeC {\cyro } \IeC {\cyrp }\IeC {\cyrr }\IeC {\cyre }\IeC {\cyrd }\IeC {\cyre }\IeC {\cyrl }\IeC {\cyrsftsn }\IeC {\cyrn }\IeC {\cyrery }\IeC {\cyrm } \IeC {\cyrz }\IeC {\cyra }\IeC {\cyrt }\IeC {\cyrr }\IeC {\cyra }\IeC {\cyrt }\IeC {\cyra }\IeC {\cyrm }}{14}}
\@writefile{toc}{\contentsline {subsection}{\numberline {6.8}\IeC {\CYRS }\IeC {\cyri }\IeC {\cyrs }\IeC {\cyrt }\IeC {\cyre }\IeC {\cyrm }\IeC {\cyrery } \IeC {\cyrk }\IeC {\cyra }\IeC {\cyrl }\IeC {\cyrsftsn }\IeC {\cyrk }\IeC {\cyru }\IeC {\cyrl }\IeC {\cyrya }\IeC {\cyrc }\IeC {\cyri }\IeC {\cyri } \IeC {\cyrv } \IeC {\cyrk }\IeC {\cyro }\IeC {\cyrn }\IeC {\cyrt }\IeC {\cyrr }\IeC {\cyro }\IeC {\cyrl }\IeC {\cyrl }\IeC {\cyri }\IeC {\cyrn }\IeC {\cyrg }\IeC {\cyre }}{14}}
\@writefile{toc}{\contentsline {subsection}{\numberline {6.9}\IeC {\CYRP }\IeC {\cyrr }\IeC {\cyri }\IeC {\cyrm }\IeC {\cyre }\IeC {\cyrr } \IeC {\cyrp }\IeC {\cyrr }\IeC {\cyri }\IeC {\cyrm }\IeC {\cyre }\IeC {\cyrn }\IeC {\cyre }\IeC {\cyrn }\IeC {\cyri }\IeC {\cyrya } \IeC {\cyrm }\IeC {\cyre }\IeC {\cyrt }\IeC {\cyro }\IeC {\cyrd }\IeC {\cyra } \IeC {\cyrp }\IeC {\cyro }\IeC {\cyrg }\IeC {\cyrl }\IeC {\cyro }\IeC {\cyrshch }\IeC {\cyre }\IeC {\cyrn }\IeC {\cyri }\IeC {\cyrya }}{14}}
\@writefile{toc}{\contentsline {section}{\numberline {7}\IeC {\CYRV }\IeC {\CYRI }\IeC {\CYRD }\IeC {\CYRERY } \IeC {\CYRZ }\IeC {\CYRA }\IeC {\CYRT }\IeC {\CYRR }\IeC {\CYRA }\IeC {\CYRT }. \IeC {\CYRS }\IeC {\CYRCH }\IeC {\CYRE }\IeC {\CYRT } \IeC {\CYRP }\IeC {\CYRR }\IeC {\CYRI }\IeC {\CYRB }\IeC {\CYRERY }\IeC {\CYRL }\IeC {\CYRE }\IeC {\CYRISHRT } \IeC {\CYRI } \IeC {\CYRU }\IeC {\CYRB }\IeC {\CYRERY }\IeC {\CYRT }\IeC {\CYRK }\IeC {\CYRO }\IeC {\CYRV }}{15}}
\@writefile{toc}{\contentsline {subsection}{\numberline {7.1}\IeC {\CYRV }\IeC {\cyri }\IeC {\cyrd }\IeC {\cyrery } \IeC {\cyrz }\IeC {\cyra }\IeC {\cyrt }\IeC {\cyrr }\IeC {\cyra }\IeC {\cyrt }}{16}}
\@writefile{toc}{\contentsline {subsection}{\numberline {7.2}\IeC {\CYRZ }\IeC {\cyra }\IeC {\cyrt }\IeC {\cyrr }\IeC {\cyra }\IeC {\cyrt }\IeC {\cyrery } \IeC {\cyrn }\IeC {\cyra } \IeC {\cyrm }\IeC {\cyra }\IeC {\cyrt }\IeC {\cyre }\IeC {\cyrr }\IeC {\cyri }\IeC {\cyra }\IeC {\cyrl }}{16}}
\@writefile{toc}{\contentsline {subsection}{\numberline {7.3}\IeC {\CYRZ }\IeC {\cyra }\IeC {\cyrt }\IeC {\cyrr }\IeC {\cyra }\IeC {\cyrt }\IeC {\cyrery } \IeC {\cyrn }\IeC {\cyra } \IeC {\cyrp }\IeC {\cyre }\IeC {\cyrr }\IeC {\cyrs }\IeC {\cyro }\IeC {\cyrn }\IeC {\cyra }\IeC {\cyrl }}{16}}
\@writefile{toc}{\contentsline {subsection}{\numberline {7.4}\IeC {\CYRK }\IeC {\cyra }\IeC {\cyrl }\IeC {\cyrsftsn }\IeC {\cyrk }\IeC {\cyru }\IeC {\cyrl }\IeC {\cyrya }\IeC {\cyrc }\IeC {\cyri }\IeC {\cyro }\IeC {\cyrn }\IeC {\cyrn }\IeC {\cyrery }\IeC {\cyre } \IeC {\cyrz }\IeC {\cyra }\IeC {\cyrt }\IeC {\cyrr }\IeC {\cyra }\IeC {\cyrt }\IeC {\cyrery }}{17}}
\@writefile{toc}{\contentsline {subsubsection}{\numberline {7.4.1}\IeC {\CYRP }\IeC {\cyrr }\IeC {\cyri }\IeC {\cyrm }\IeC {\cyre }\IeC {\cyrr } \IeC {\cyrk }\IeC {\cyrl }\IeC {\cyra }\IeC {\cyrs }\IeC {\cyrs }\IeC {\cyri }\IeC {\cyrf }\IeC {\cyri }\IeC {\cyrk }\IeC {\cyra }\IeC {\cyrc }\IeC {\cyri }\IeC {\cyri } \IeC {\cyrt }\IeC {\cyre }\IeC {\cyrk }\IeC {\cyru }\IeC {\cyrshch }\IeC {\cyri }\IeC {\cyrh } \IeC {\cyrz }\IeC {\cyra }\IeC {\cyrt }\IeC {\cyrr }\IeC {\cyra }\IeC {\cyrt }}{17}}
\@writefile{toc}{\contentsline {subsection}{\numberline {7.5}\IeC {\CYRS }\IeC {\cyrch }\IeC {\cyre }\IeC {\cyrt } \IeC {\cyrp }\IeC {\cyrr }\IeC {\cyri }\IeC {\cyrb }\IeC {\cyrery }\IeC {\cyrl }\IeC {\cyre }\IeC {\cyrishrt } \IeC {\cyri } \IeC {\cyru }\IeC {\cyrb }\IeC {\cyrery }\IeC {\cyrt }\IeC {\cyrk }\IeC {\cyro }\IeC {\cyrv }}{18}}
\@writefile{toc}{\contentsline {subsection}{\numberline {7.6}\IeC {\CYRS }\IeC {\cyrt }\IeC {\cyrr }\IeC {\cyru }\IeC {\cyrk }\IeC {\cyrt }\IeC {\cyru }\IeC {\cyrr }\IeC {\cyra } \IeC {\cyrb }\IeC {\cyra }\IeC {\cyrl }\IeC {\cyra }\IeC {\cyrn }\IeC {\cyrs }\IeC {\cyra }}{19}}
\@writefile{toc}{\contentsline {subsection}{\numberline {7.7}\IeC {\CYRK }\IeC {\cyra }\IeC {\cyrl }\IeC {\cyrsftsn }\IeC {\cyrk }\IeC {\cyru }\IeC {\cyrl }\IeC {\cyrya }\IeC {\cyrc }\IeC {\cyri }\IeC {\cyro }\IeC {\cyrn }\IeC {\cyrn }\IeC {\cyrery }\IeC {\cyre } \IeC {\cyrp }\IeC {\cyrr }\IeC {\cyro }\IeC {\cyrc }\IeC {\cyre }\IeC {\cyrn }\IeC {\cyrt }\IeC {\cyrery }}{20}}
\@writefile{toc}{\contentsline {section}{\numberline {8}\IeC {\CYRC }\IeC {\cyre }\IeC {\cyrn }\IeC {\cyrt }\IeC {\cyrr }\IeC {\cyrery } \IeC {\CYRZ }\IeC {\cyra }\IeC {\cyrt }\IeC {\cyrr }\IeC {\cyra }\IeC {\cyrt }. \IeC {\CYRM }\IeC {\cyra }\IeC {\cyrt }\IeC {\cyrr }\IeC {\cyri }\IeC {\cyrc }\IeC {\cyra } \IeC {\cyrz }\IeC {\cyra }\IeC {\cyrt }\IeC {\cyrr }\IeC {\cyra }\IeC {\cyrt }}{20}}
\@writefile{toc}{\contentsline {subsection}{\numberline {8.1}\IeC {\CYRC }\IeC {\cyre }\IeC {\cyrn }\IeC {\cyrt }\IeC {\cyrr }\IeC {\cyrery } \IeC {\cyrf }\IeC {\cyri }\IeC {\cyrn }\IeC {\cyra }\IeC {\cyrn }\IeC {\cyrs }\IeC {\cyro }\IeC {\cyrv }\IeC {\cyro }\IeC {\cyrg }\IeC {\cyro } \IeC {\cyru }\IeC {\cyrch }\IeC {\cyre }\IeC {\cyrt }\IeC {\cyra }}{21}}
\@writefile{toc}{\contentsline {subsection}{\numberline {8.2}\IeC {\CYRP }\IeC {\cyrr }\IeC {\cyri }\IeC {\cyrn }\IeC {\cyrc }\IeC {\cyri }\IeC {\cyrp }\IeC {\cyrery } \IeC {\cyrv }\IeC {\cyrery }\IeC {\cyrd }\IeC {\cyre }\IeC {\cyrl }\IeC {\cyre }\IeC {\cyrn }\IeC {\cyri }\IeC {\cyrya } \IeC {\cyrc }\IeC {\cyre }\IeC {\cyrn }\IeC {\cyrt }\IeC {\cyrr }\IeC {\cyro }\IeC {\cyrv } \IeC {\cyrz }\IeC {\cyra }\IeC {\cyrt }\IeC {\cyrr }\IeC {\cyra }\IeC {\cyrt }}{21}}
\@writefile{toc}{\contentsline {subsection}{\numberline {8.3}\IeC {\CYRM }\IeC {\cyra }\IeC {\cyrt }\IeC {\cyrr }\IeC {\cyri }\IeC {\cyrc }\IeC {\cyra } \IeC {\cyrz }\IeC {\cyra }\IeC {\cyrt }\IeC {\cyrr }\IeC {\cyra }\IeC {\cyrt }}{22}}
\@writefile{toc}{\contentsline {section}{\numberline {9}\IeC {\CYRB }\IeC {\cyra }\IeC {\cyrn }\IeC {\cyrk }\IeC {\cyro }\IeC {\cyrv }\IeC {\cyrs }\IeC {\cyrk }\IeC {\cyra }\IeC {\cyrya } \IeC {\cyrs }\IeC {\cyri }\IeC {\cyrs }\IeC {\cyrt }\IeC {\cyre }\IeC {\cyrm }\IeC {\cyra }. \IeC {\CYRB }\IeC {\cyra }\IeC {\cyrn }\IeC {\cyrk }\IeC {\cyro }\IeC {\cyrv }\IeC {\cyrs }\IeC {\cyrk }\IeC {\cyri }\IeC {\cyre } \IeC {\cyro }\IeC {\cyrp }\IeC {\cyre }\IeC {\cyrr }\IeC {\cyra }\IeC {\cyrc }\IeC {\cyri }\IeC {\cyri }}{22}}
\@writefile{toc}{\contentsline {subsection}{\numberline {9.1}\IeC {\CYRB }\IeC {\cyra }\IeC {\cyrn }\IeC {\cyrk }\IeC {\cyri } \IeC {\cyri } \IeC {\cyrb }\IeC {\cyra }\IeC {\cyrn }\IeC {\cyrk }\IeC {\cyro }\IeC {\cyrv }\IeC {\cyrs }\IeC {\cyrk }\IeC {\cyra }\IeC {\cyrya } \IeC {\cyrs }\IeC {\cyri }\IeC {\cyrs }\IeC {\cyrt }\IeC {\cyre }\IeC {\cyrm }\IeC {\cyra }}{23}}
\@writefile{toc}{\contentsline {subsection}{\numberline {9.2}\IeC {\CYRS }\IeC {\cyrt }\IeC {\cyra }\IeC {\cyrv }\IeC {\cyrk }\IeC {\cyri } \IeC {\cyrk }\IeC {\cyrr }\IeC {\cyre }\IeC {\cyrd }\IeC {\cyri }\IeC {\cyrt }\IeC {\cyro }\IeC {\cyrv }\IeC {\cyra }\IeC {\cyrn }\IeC {\cyri }\IeC {\cyrya }}{24}}
\@writefile{toc}{\contentsline {subsection}{\numberline {9.3}\IeC {\CYRV }\IeC {\cyre }\IeC {\cyrk }\IeC {\cyrs }\IeC {\cyre }\IeC {\cyrl }\IeC {\cyrsftsn }}{25}}
\@writefile{toc}{\contentsline {section}{\numberline {10}}{25}}
