\relax 
\providecommand{\transparent@use}[1]{}
\catcode `"\active 
\select@language{russian}
\@writefile{toc}{\select@language{russian}}
\@writefile{lof}{\select@language{russian}}
\@writefile{lot}{\select@language{russian}}
\@writefile{toc}{\contentsline {subsection}{\numberline {0.1}}{1}}
\@writefile{toc}{\contentsline {section}{\numberline {1}}{1}}
\@writefile{toc}{\contentsline {subsection}{\numberline {1.1}\IeC {\CYRV }\IeC {\cyrv }\IeC {\cyre }\IeC {\cyrd }\IeC {\cyre }\IeC {\cyrn }\IeC {\cyri }\IeC {\cyre }}{2}}
\newlabel{fig:11}{{1.1}{2}}
\@writefile{lof}{\contentsline {figure}{\numberline {1}{\ignorespaces \IeC {\cyrr }\IeC {\cyri }\IeC {\cyrs }.1.1\relax }}{2}}
\newlabel{fig:12}{{1.1}{2}}
\@writefile{lof}{\contentsline {figure}{\numberline {2}{\ignorespaces \IeC {\cyrr }\IeC {\cyri }\IeC {\cyrs }.1.2\relax }}{3}}
\@writefile{toc}{\contentsline {subsection}{\numberline {1.2}\IeC {\CYRS }\IeC {\cyrh }\IeC {\cyre }\IeC {\cyrm }\IeC {\cyra } \IeC {\CYRP }\IeC {\CYRV }\IeC {\CYRR }\IeC {\CYRD }}{3}}
\@writefile{lof}{\contentsline {figure}{\numberline {3}{\ignorespaces \IeC {\cyrr }\IeC {\cyri }\IeC {\cyrs }.1.3\relax }}{3}}
\newlabel{fig:13}{{1.2}{3}}
\@writefile{toc}{\contentsline {subsection}{\numberline {1.3}\IeC {\CYRI }\IeC {\cyrs }\IeC {\cyrt }\IeC {\cyro }\IeC {\cyrr }\IeC {\cyri }\IeC {\cyrya } \IeC {\CYRP }\IeC {\CYRV }\IeC {\CYRR }\IeC {\CYRD }}{3}}
\@writefile{toc}{\contentsline {section}{\numberline {2}}{3}}
\@writefile{toc}{\contentsline {subsection}{\numberline {2.1}\IeC {\CYRV }\IeC {\cyrery }\IeC {\cyrv }\IeC {\cyro }\IeC {\cyrd } \IeC {\cyrf }\IeC {\cyro }\IeC {\cyrr }\IeC {\cyrm }\IeC {\cyru }\IeC {\cyrl }\IeC {\cyrery } \IeC {\cyrt }\IeC {\cyrya }\IeC {\cyrg }\IeC {\cyri } \IeC {\CYRV }\IeC {\CYRR }\IeC {\CYRD }}{4}}
\newlabel{fig:21}{{2.1}{4}}
\@writefile{lof}{\contentsline {figure}{\numberline {4}{\ignorespaces \IeC {\cyrr }\IeC {\cyri }\IeC {\cyrs }.2.1\relax }}{4}}
\@writefile{toc}{\contentsline {subsubsection}{\numberline {2.1.1}\IeC {\CYRN }\IeC {\cyra } \IeC {\cyrr }\IeC {\cyra }\IeC {\cyrs }\IeC {\cyrch }\IeC {\cyre }\IeC {\cyrt }\IeC {\cyrn }\IeC {\cyro }\IeC {\cyrm } \IeC {\cyrr }\IeC {\cyre }\IeC {\cyrzh }\IeC {\cyri }\IeC {\cyrm }\IeC {\cyre } \IeC {\cyrs }\IeC {\cyro }\IeC {\cyrp }\IeC {\cyrl }\IeC {\cyra }}{4}}
\@writefile{toc}{\contentsline {subsection}{\numberline {2.2}\IeC {\CYRI }\IeC {\cyrd }\IeC {\cyre }\IeC {\cyra }\IeC {\cyrl }\IeC {\cyrsftsn }\IeC {\cyrn }\IeC {\cyrery }\IeC {\cyrishrt } \IeC {\CYRP }\IeC {\CYRV }\IeC {\CYRR }\IeC {\CYRD }}{5}}
\newlabel{fig:22}{{2.2}{5}}
\@writefile{lof}{\contentsline {figure}{\numberline {5}{\ignorespaces \IeC {\cyrr }\IeC {\cyri }\IeC {\cyrs }.2.2\relax }}{5}}
\@writefile{toc}{\contentsline {subsection}{\numberline {2.3}\IeC {\CYRC }\IeC {\cyri }\IeC {\cyrk }\IeC {\cyrl } \IeC {\cyri }\IeC {\cyrd }\IeC {\cyre }\IeC {\cyra }\IeC {\cyrl }\IeC {\cyrsftsn }\IeC {\cyrn }\IeC {\cyro }\IeC {\cyrg }\IeC {\cyro } \IeC {\CYRP }\IeC {\CYRV }\IeC {\CYRR }\IeC {\CYRD }}{6}}
\@writefile{lof}{\contentsline {figure}{\numberline {6}{\ignorespaces \IeC {\cyrr }\IeC {\cyri }\IeC {\cyrs }.2.3\relax }}{6}}
\newlabel{fig:23}{{2.3}{6}}
\@writefile{toc}{\contentsline {subsection}{\numberline {2.4}\IeC {\CYRG }\IeC {\cyra }\IeC {\cyrz }\IeC {\cyro }\IeC {\cyrd }\IeC {\cyri }\IeC {\cyrn }\IeC {\cyra }\IeC {\cyrm }\IeC {\cyri }\IeC {\cyrk }\IeC {\cyra } \IeC {\cyri }\IeC {\cyrd }\IeC {\cyre }\IeC {\cyra }\IeC {\cyrl }\IeC {\cyrsftsn }\IeC {\cyrn }\IeC {\cyro }\IeC {\cyrg }\IeC {\cyro } \IeC {\CYRP }\IeC {\CYRV }\IeC {\CYRR }\IeC {\CYRD }}{6}}
\@writefile{toc}{\contentsline {subsection}{\numberline {2.5}\IeC {\CYRK }\IeC {\CYRP }\IeC {\CYRD } \IeC {\cyri }\IeC {\cyrd }\IeC {\cyre }\IeC {\cyra }\IeC {\cyrl }\IeC {\cyrsftsn }\IeC {\cyrn }\IeC {\cyro }\IeC {\cyrg }\IeC {\cyro } \IeC {\CYRP }\IeC {\CYRV }\IeC {\CYRR }\IeC {\CYRD }}{9}}
\@writefile{toc}{\contentsline {subsubsection}{\numberline {2.5.1}\IeC {\CYRT }\IeC {\cyre }\IeC {\cyrr }\IeC {\cyrm }\IeC {\cyri }\IeC {\cyrch }\IeC {\cyre }\IeC {\cyrs }\IeC {\cyrk }\IeC {\cyri }\IeC {\cyrishrt } \IeC {\CYRK }\IeC {\CYRP }\IeC {\CYRD }}{9}}
\@writefile{lof}{\contentsline {figure}{\numberline {7}{\ignorespaces \IeC {\cyrr }\IeC {\cyri }\IeC {\cyrs }.2.4\relax }}{9}}
\newlabel{fig:24}{{2.5.1}{9}}
\@writefile{toc}{\contentsline {section}{\numberline {3}}{10}}
\newlabel{fig:31}{{3}{11}}
\@writefile{lof}{\contentsline {figure}{\numberline {8}{\ignorespaces \IeC {\cyrr }\IeC {\cyri }\IeC {\cyrs }.3.1\relax }}{11}}
\@writefile{toc}{\contentsline {subsection}{\numberline {3.1}\IeC {\CYRT }\IeC {\cyrya }\IeC {\cyrg }\IeC {\cyro }\IeC {\cyrv }\IeC {\cyrery }\IeC {\cyrishrt } \IeC {\CYRK }\IeC {\CYRP }\IeC {\CYRD }}{11}}
\@writefile{toc}{\contentsline {subsection}{\numberline {3.2}\IeC {\CYRO }\IeC {\cyrb }\IeC {\cyrshch }\IeC {\cyri }\IeC {\cyrishrt } \IeC {\CYRK }\IeC {\CYRP }\IeC {\CYRD }}{12}}
\@writefile{toc}{\contentsline {subsection}{\numberline {3.3}\IeC {\CYRH }\IeC {\cyra }\IeC {\cyrr }\IeC {\cyra }\IeC {\cyrk }\IeC {\cyrt }\IeC {\cyre }\IeC {\cyrr }\IeC {\cyri }\IeC {\cyrs }\IeC {\cyrt }\IeC {\cyri }\IeC {\cyrk }\IeC {\cyri } \IeC {\cyri }\IeC {\cyrd }\IeC {\cyre }\IeC {\cyra }\IeC {\cyrl }\IeC {\cyrsftsn }\IeC {\cyrn }\IeC {\cyro }\IeC {\cyrg }\IeC {\cyro } \IeC {\CYRP }\IeC {\CYRV }\IeC {\CYRR }\IeC {\CYRD }}{12}}
\@writefile{toc}{\contentsline {subsubsection}{\numberline {3.3.1}\IeC {\CYRV }\IeC {\cyrery }\IeC {\cyrv }\IeC {\cyro }\IeC {\cyrd } \IeC {\cyrf }\IeC {\cyro }\IeC {\cyrr }\IeC {\cyrm }\IeC {\cyru }\IeC {\cyrl }\IeC {\cyrery } \IeC {\CYRT }\IeC {\cyrya }\IeC {\cyrg }\IeC {\cyri }}{13}}
\@writefile{toc}{\contentsline {subsubsection}{\numberline {3.3.2}\IeC {\CYRK }\IeC {\cyro }\IeC {\cyrerev }\IeC {\cyrf }\IeC {\cyrf }\IeC {\cyri }\IeC {\cyrc }\IeC {\cyri }\IeC {\cyre }\IeC {\cyrn }\IeC {\cyrt } \IeC {\CYRT }\IeC {\cyrya }\IeC {\cyrg }\IeC {\cyri }}{13}}
\@writefile{toc}{\contentsline {subsubsection}{\numberline {3.3.3}\IeC {\CYRU }\IeC {\cyrd }\IeC {\cyre }\IeC {\cyrl }\IeC {\cyrsftsn }\IeC {\cyrn }\IeC {\cyra }\IeC {\cyrya } \IeC {\CYRT }\IeC {\cyrya }\IeC {\cyrg }\IeC {\cyra }}{13}}
\@writefile{toc}{\contentsline {subsection}{\numberline {3.4}\IeC {\CYRS }\IeC {\cyrk }\IeC {\cyro }\IeC {\cyrr }\IeC {\cyro }\IeC {\cyrs }\IeC {\cyrt }\IeC {\cyrn }\IeC {\cyra }\IeC {\cyrya } \IeC {\cyrh }\IeC {\cyra }\IeC {\cyrr }\IeC {\cyra }\IeC {\cyrk }\IeC {\cyrt }\IeC {\cyre }\IeC {\cyrr }\IeC {\cyri }\IeC {\cyrs }\IeC {\cyrt }\IeC {\cyri }\IeC {\cyrk }\IeC {\cyra }}{14}}
\newlabel{fig:32}{{3.4}{14}}
\@writefile{lof}{\contentsline {figure}{\numberline {9}{\ignorespaces \IeC {\cyrr }\IeC {\cyri }\IeC {\cyrs }.3.2\relax }}{14}}
\@writefile{toc}{\contentsline {subsection}{\numberline {3.5}\IeC {\CYRD }\IeC {\cyrr }\IeC {\cyro }\IeC {\cyrs }\IeC {\cyrs }\IeC {\cyre }\IeC {\cyrl }\IeC {\cyrsftsn }\IeC {\cyrn }\IeC {\cyra }\IeC {\cyrya } \IeC {\cyrh }\IeC {\cyra }\IeC {\cyrr }\IeC {\cyra }\IeC {\cyrk }\IeC {\cyrt }\IeC {\cyre }\IeC {\cyrr }\IeC {\cyri }\IeC {\cyrs }\IeC {\cyrt }\IeC {\cyri }\IeC {\cyrk }\IeC {\cyra }}{14}}
\newlabel{fig:33}{{3.5}{14}}
\@writefile{lof}{\contentsline {figure}{\numberline {10}{\ignorespaces \IeC {\cyrr }\IeC {\cyri }\IeC {\cyrs }.3.3\relax }}{14}}
\@writefile{toc}{\contentsline {subsection}{\numberline {3.6}\IeC {\CYRV }\IeC {\cyrery }\IeC {\cyrs }\IeC {\cyro }\IeC {\cyrt }\IeC {\cyrn }\IeC {\cyra }\IeC {\cyrya } \IeC {\cyrh }\IeC {\cyra }\IeC {\cyrr }\IeC {\cyra }\IeC {\cyrk }\IeC {\cyrt }\IeC {\cyre }\IeC {\cyrr }\IeC {\cyri }\IeC {\cyrs }\IeC {\cyrt }\IeC {\cyri }\IeC {\cyrk }\IeC {\cyra }}{15}}
\newlabel{fig:34}{{3.6}{15}}
\@writefile{lof}{\contentsline {figure}{\numberline {11}{\ignorespaces \IeC {\cyrr }\IeC {\cyri }\IeC {\cyrs }.3.4\relax }}{15}}
\@writefile{toc}{\contentsline {section}{\numberline {4}}{15}}
\@writefile{toc}{\contentsline {subsection}{\numberline {4.1}\IeC {\CYRT }\IeC {\cyre }\IeC {\cyro }\IeC {\cyrr }\IeC {\cyri }\IeC {\cyrya } \IeC {\CYRV }\IeC {\cyro }\IeC {\cyrz }\IeC {\cyrd }\IeC {\cyru }\IeC {\cyrh }\IeC {\cyro }\IeC {\cyrz }\IeC {\cyra }\IeC {\cyrb }\IeC {\cyro }\IeC {\cyrr }\IeC {\cyrn }\IeC {\cyri }\IeC {\cyrk }\IeC {\cyro }\IeC {\cyrv }}{16}}
\@writefile{lof}{\contentsline {figure}{\numberline {12}{\ignorespaces \IeC {\cyrr }\IeC {\cyri }\IeC {\cyrs }.4.1\relax }}{16}}
\newlabel{fig:41}{{1}{17}}
\@writefile{toc}{\contentsline {subsection}{\numberline {4.2}\IeC {\CYRD }\IeC {\cyro }\IeC {\cyrz }\IeC {\cyrv }\IeC {\cyru }\IeC {\cyrk }\IeC {\cyro }\IeC {\cyrv }\IeC {\cyrery }\IeC {\cyre } \IeC {\CYRV }\IeC {\CYRZ }\IeC {\CYRU }. \IeC {\CYRR }\IeC {\cyra }\IeC {\cyrb }\IeC {\cyro }\IeC {\cyrt }\IeC {\cyra } \IeC {\CYRD }\IeC {\cyro }\IeC {\cyrz }\IeC {\cyrv }\IeC {\cyru }\IeC {\cyrk }\IeC {\cyro }\IeC {\cyrv }\IeC {\cyro }\IeC {\cyrg }\IeC {\cyro } \IeC {\CYRV }\IeC {\CYRZ }\IeC {\CYRU } \IeC {\cyrn }\IeC {\cyra } \IeC {\cyrp }\IeC {\cyre }\IeC {\cyrr }\IeC {\cyre }\IeC {\cyrm }\IeC {\cyre }\IeC {\cyrn }\IeC {\cyrn }\IeC {\cyrery }\IeC {\cyrh } \IeC {\cyrr }\IeC {\cyre }\IeC {\cyrzh }\IeC {\cyri }\IeC {\cyrm }\IeC {\cyra }\IeC {\cyrh }}{18}}
\newlabel{fig:42}{{4.2}{18}}
\@writefile{lof}{\contentsline {figure}{\numberline {13}{\ignorespaces \IeC {\cyrr }\IeC {\cyri }\IeC {\cyrs }.4.2\relax }}{18}}
\newlabel{fig:43}{{4.2}{18}}
\@writefile{lof}{\contentsline {figure}{\numberline {14}{\ignorespaces \IeC {\cyrr }\IeC {\cyri }\IeC {\cyrs }.4.3\relax }}{18}}
\newlabel{fig:44}{{4.2}{19}}
\@writefile{lof}{\contentsline {figure}{\numberline {15}{\ignorespaces \IeC {\cyrr }\IeC {\cyri }\IeC {\cyrs }.4.4\relax }}{19}}
\@writefile{toc}{\contentsline {subsection}{\numberline {4.3}\IeC {\CYRV }\IeC {\cyri }\IeC {\cyrd }\IeC {\cyrery } \IeC {\cyrd }\IeC {\cyro }\IeC {\cyrz }\IeC {\cyrv }\IeC {\cyru }\IeC {\cyrk }\IeC {\cyro }\IeC {\cyrv }\IeC {\cyrery }\IeC {\cyrh } \IeC {\cyrd }\IeC {\cyri }\IeC {\cyrf }\IeC {\cyrf }\IeC {\cyru }\IeC {\cyrz }\IeC {\cyro }\IeC {\cyrr }\IeC {\cyro }\IeC {\cyrv }}{19}}
\newlabel{fig:45}{{1}{19}}
\@writefile{lof}{\contentsline {figure}{\numberline {16}{\ignorespaces \IeC {\cyrr }\IeC {\cyri }\IeC {\cyrs }.4.5\relax }}{20}}
\newlabel{fig:46}{{2}{20}}
\@writefile{lof}{\contentsline {figure}{\numberline {17}{\ignorespaces \IeC {\cyrr }\IeC {\cyri }\IeC {\cyrs }.4.6\relax }}{20}}
\@writefile{toc}{\contentsline {subsection}{\numberline {4.4}\IeC {\CYRR }\IeC {\cyra }\IeC {\cyrs }\IeC {\cyrch }\IeC {\cyre }\IeC {\cyrt } \IeC {\cyrp }\IeC {\cyro }\IeC {\cyrt }\IeC {\cyre }\IeC {\cyrr }\IeC {\cyrsftsn } \IeC {\cyrv } \IeC {\cyrd }\IeC {\cyro }\IeC {\cyrz }\IeC {\cyrv }\IeC {\cyru }\IeC {\cyrk }\IeC {\cyro }\IeC {\cyrv }\IeC {\cyro }\IeC {\cyrm } \IeC {\CYRV }\IeC {\CYRZ }\IeC {\CYRU }}{20}}
\@writefile{toc}{\contentsline {subsection}{\numberline {4.5}\IeC {\CYRO }\IeC {\cyrk }\IeC {\cyro }\IeC {\cyrl }\IeC {\cyro }\IeC {\cyrz }\IeC {\cyrv }\IeC {\cyru }\IeC {\cyrk }\IeC {\cyro }\IeC {\cyrv }\IeC {\cyrery }\IeC {\cyre } \IeC {\CYRV }\IeC {\CYRZ }\IeC {\CYRU } \IeC {\cyrs } \IeC {\cyrp }\IeC {\cyrr }\IeC {\cyrya }\IeC {\cyrm }\IeC {\cyrery }\IeC {\cyrm } \IeC {\cyrs }\IeC {\cyrk }\IeC {\cyra }\IeC {\cyrch }\IeC {\cyrk }\IeC {\cyro }\IeC {\cyrm } \IeC {\cyrn }\IeC {\cyra } \IeC {\cyrv }\IeC {\cyrh }\IeC {\cyro }\IeC {\cyrd }\IeC {\cyre }}{21}}
\newlabel{fig:47}{{4.5}{21}}
\@writefile{lof}{\contentsline {figure}{\numberline {18}{\ignorespaces \IeC {\cyrr }\IeC {\cyri }\IeC {\cyrs }.4.7\relax }}{21}}
\@writefile{toc}{\contentsline {section}{\numberline {5}}{22}}
\newlabel{fig:51}{{5}{23}}
\@writefile{lof}{\contentsline {figure}{\numberline {19}{\ignorespaces \IeC {\cyrr }\IeC {\cyri }\IeC {\cyrs }.5.1\relax }}{23}}
\@writefile{toc}{\contentsline {subsection}{\numberline {5.1}\IeC {\CYRR }\IeC {\cyra }\IeC {\cyrb }\IeC {\cyro }\IeC {\cyrt }\IeC {\cyra } \IeC {\cyro }\IeC {\cyrk }\IeC {\cyro }\IeC {\cyrl }\IeC {\cyro }\IeC {\cyrz }\IeC {\cyrv }\IeC {\cyru }\IeC {\cyrk }\IeC {\cyro }\IeC {\cyrv }\IeC {\cyro }\IeC {\cyrg }\IeC {\cyro } \IeC {\cyrd }\IeC {\cyri }\IeC {\cyrf }\IeC {\cyrf }\IeC {\cyru }\IeC {\cyrz }\IeC {\cyro }\IeC {\cyrr }\IeC {\cyra } \IeC {\cyrp }\IeC {\cyrr }\IeC {\cyri } \IeC {\cyri }\IeC {\cyrz }\IeC {\cyrm }\IeC {\cyre }\IeC {\cyrn }\IeC {\cyre }\IeC {\cyrn }\IeC {\cyri }\IeC {\cyri } \IeC {\cyrp }\IeC {\cyrr }\IeC {\cyro }\IeC {\cyrp }\IeC {\cyru }\IeC {\cyrs }\IeC {\cyrk }\IeC {\cyrn }\IeC {\cyro }\IeC {\cyrishrt } \IeC {\cyrs }\IeC {\cyrp }\IeC {\cyro }\IeC {\cyrs }\IeC {\cyro }\IeC {\cyrb }\IeC {\cyrn }\IeC {\cyro }\IeC {\cyrs }\IeC {\cyrt }\IeC {\cyri } \IeC {\cyrt }\IeC {\cyrr }\IeC {\cyra }\IeC {\cyrk }\IeC {\cyrt }\IeC {\cyra }}{23}}
\newlabel{fig:52}{{1}{23}}
\@writefile{lof}{\contentsline {figure}{\numberline {20}{\ignorespaces \IeC {\cyrr }\IeC {\cyri }\IeC {\cyrs }.5.2\relax }}{23}}
\newlabel{fig:53}{{2}{24}}
\@writefile{lof}{\contentsline {figure}{\numberline {21}{\ignorespaces \IeC {\cyrr }\IeC {\cyri }\IeC {\cyrs }.5.3\relax }}{24}}
\newlabel{fig:54}{{2}{24}}
\@writefile{lof}{\contentsline {figure}{\numberline {22}{\ignorespaces \IeC {\cyrr }\IeC {\cyri }\IeC {\cyrs }.5.4\relax }}{25}}
\@writefile{toc}{\contentsline {subsection}{\numberline {5.2}\IeC {\CYRS }\IeC {\cyrv }\IeC {\cyre }\IeC {\cyrr }\IeC {\cyrh }\IeC {\cyrz }\IeC {\cyrv }\IeC {\cyru }\IeC {\cyrk }\IeC {\cyro }\IeC {\cyrv }\IeC {\cyrery }\IeC {\cyre } \IeC {\cyrd }\IeC {\cyri }\IeC {\cyrf }\IeC {\cyrf }\IeC {\cyru }\IeC {\cyrz }\IeC {\cyro }\IeC {\cyrr }\IeC {\cyrery }}{25}}
\newlabel{fig:55}{{1}{25}}
\@writefile{lof}{\contentsline {figure}{\numberline {23}{\ignorespaces \IeC {\cyrr }\IeC {\cyri }\IeC {\cyrs }.5.5\relax }}{25}}
\newlabel{fig:56}{{1}{26}}
\@writefile{lof}{\contentsline {figure}{\numberline {24}{\ignorespaces \IeC {\cyrr }\IeC {\cyri }\IeC {\cyrs }.5.6\relax }}{26}}
\@writefile{toc}{\contentsline {section}{\numberline {6}}{27}}
\@writefile{toc}{\contentsline {subsection}{\numberline {6.1}\IeC {\CYRD }\IeC {\cyro }\IeC {\cyrm }\IeC {\cyra }\IeC {\cyrsh }\IeC {\cyrn }\IeC {\cyre }\IeC {\cyre } \IeC {\cyrz }\IeC {\cyra }\IeC {\cyrd }\IeC {\cyra }\IeC {\cyrn }\IeC {\cyri }\IeC {\cyre }}{28}}
\@writefile{toc}{\contentsline {subsubsection}{\numberline {6.1.1}\IeC {\CYRO }\IeC {\cyrp }\IeC {\cyrr }\IeC {\cyre }\IeC {\cyrd }\IeC {\cyre }\IeC {\cyrl }\IeC {\cyre }\IeC {\cyrn }\IeC {\cyri }\IeC {\cyre } \IeC {\cyrn }\IeC {\cyra }\IeC {\cyrch }\IeC {\cyra }\IeC {\cyrl }\IeC {\cyrsftsn }\IeC {\cyrn }\IeC {\cyrery }\IeC {\cyrh } \IeC {\cyrd }\IeC {\cyra }\IeC {\cyrn }\IeC {\cyrn }\IeC {\cyrery }\IeC {\cyrh }}{28}}
\@writefile{toc}{\contentsline {subsubsection}{\numberline {6.1.2}\IeC {\CYRR }\IeC {\cyre }\IeC {\cyrsh }\IeC {\cyre }\IeC {\cyrn }\IeC {\cyri }\IeC {\cyre }}{29}}
\@writefile{toc}{\contentsline {subsubsection}{\numberline {6.1.3}\IeC {\CYRP }\IeC {\cyrr }\IeC {\cyri }\IeC {\cyrv }\IeC {\cyre }\IeC {\cyrd }\IeC {\cyre }\IeC {\cyrn }\IeC {\cyrn }\IeC {\cyra }\IeC {\cyrya } \IeC {\cyrs }\IeC {\cyrk }\IeC {\cyro }\IeC {\cyrr }\IeC {\cyro }\IeC {\cyrs }\IeC {\cyrt }\IeC {\cyrsftsn } \IeC {\cyrn }\IeC {\cyra } \IeC {\cyrv }\IeC {\cyrery }\IeC {\cyrh }\IeC {\cyro }\IeC {\cyrd }\IeC {\cyre } \IeC {\cyri }\IeC {\cyrz } \IeC {\cyrk }\IeC {\cyra }\IeC {\cyrm }\IeC {\cyre }\IeC {\cyrr }\IeC {\cyrery } \IeC {\cyrs }\IeC {\cyrg }\IeC {\cyro }\IeC {\cyrr }\IeC {\cyra }\IeC {\cyrn }\IeC {\cyri }\IeC {\cyrya }}{30}}
\@writefile{toc}{\contentsline {subsection}{\numberline {6.2}\IeC {\CYRP }\IeC {\cyrr }\IeC {\cyro }\IeC {\cyrf }\IeC {\cyri }\IeC {\cyrl }\IeC {\cyri }\IeC {\cyrr }\IeC {\cyro }\IeC {\cyrv }\IeC {\cyra }\IeC {\cyrn }\IeC {\cyri }\IeC {\cyre } \IeC {\cyrv }\IeC {\cyrh }\IeC {\cyro }\IeC {\cyrd }\IeC {\cyrn }\IeC {\cyro }\IeC {\cyrishrt } \IeC {\cyrk }\IeC {\cyrr }\IeC {\cyro }\IeC {\cyrm }\IeC {\cyrk }\IeC {\cyri }}{30}}
\newlabel{fig:61}{{6.2}{30}}
\@writefile{lof}{\contentsline {figure}{\numberline {25}{\ignorespaces \IeC {\cyrr }\IeC {\cyri }\IeC {\cyrs }.6.1\relax }}{31}}
\@writefile{toc}{\contentsline {subsection}{\numberline {6.3}\IeC {\CYRD }\IeC {\cyri }\IeC {\cyrf }\IeC {\cyrf }\IeC {\cyru }\IeC {\cyrz }\IeC {\cyro }\IeC {\cyrr }\IeC {\cyrery } \IeC {\cyrv }\IeC {\cyrn }\IeC {\cyru }\IeC {\cyrt }\IeC {\cyrr }\IeC {\cyre }\IeC {\cyrn }\IeC {\cyrn }\IeC {\cyre }\IeC {\cyrg }\IeC {\cyro } \IeC {\cyrs }\IeC {\cyrzh }\IeC {\cyra }\IeC {\cyrt }\IeC {\cyri }\IeC {\cyrya }}{31}}
\@writefile{lof}{\contentsline {figure}{\numberline {26}{\ignorespaces \IeC {\cyrr }\IeC {\cyri }\IeC {\cyrs }.6.2\relax }}{32}}
\@writefile{toc}{\contentsline {subsection}{\numberline {6.4}\IeC {\CYRD }\IeC {\cyri }\IeC {\cyrf }\IeC {\cyrf }\IeC {\cyru }\IeC {\cyrz }\IeC {\cyro }\IeC {\cyrr }\IeC {\cyrery } \IeC {\cyrv }\IeC {\cyrn }\IeC {\cyre }\IeC {\cyrsh }\IeC {\cyrn }\IeC {\cyre }\IeC {\cyrg }\IeC {\cyro } \IeC {\cyrs }\IeC {\cyrzh }\IeC {\cyra }\IeC {\cyrt }\IeC {\cyri }\IeC {\cyrya }}{32}}
\newlabel{fig:62}{{6.4}{32}}
\newlabel{fig:63}{{6.4}{32}}
\@writefile{lof}{\contentsline {figure}{\numberline {27}{\ignorespaces \IeC {\cyrr }\IeC {\cyri }\IeC {\cyrs }.6.3\relax }}{32}}
\newlabel{fig:64}{{6.4}{32}}
\newlabel{fig:65}{{6.4}{32}}
\@writefile{lof}{\contentsline {figure}{\numberline {28}{\ignorespaces \IeC {\cyrr }\IeC {\cyri }\IeC {\cyrs }.6.4\relax }}{33}}
\@writefile{lof}{\contentsline {figure}{\numberline {29}{\ignorespaces \IeC {\cyrr }\IeC {\cyri }\IeC {\cyrs }.6.5\relax }}{33}}
\@writefile{toc}{\contentsline {subsubsection}{\numberline {6.4.1}\IeC {\CYRR }\IeC {\cyra }\IeC {\cyrb }\IeC {\cyro }\IeC {\cyrt }\IeC {\cyra } \IeC {\cyrd }\IeC {\cyri }\IeC {\cyrf }\IeC {\cyrf }\IeC {\cyru }\IeC {\cyrz }\IeC {\cyro }\IeC {\cyrr }\IeC {\cyra } \IeC {\cyrv } \IeC {\cyrs }\IeC {\cyri }\IeC {\cyrs }\IeC {\cyrt }\IeC {\cyre }\IeC {\cyrm }\IeC {\cyre } \IeC {\cyrd }\IeC {\cyrv }\IeC {\cyri }\IeC {\cyrg }\IeC {\cyra }\IeC {\cyrt }\IeC {\cyre }\IeC {\cyrl }\IeC {\cyrya } (\IeC {\cyrp }\IeC {\cyrr }\IeC {\cyri } \IeC {\cyrp }\IeC {\cyre }\IeC {\cyrr }\IeC {\cyre }\IeC {\cyrm }\IeC {\cyre }\IeC {\cyrn }\IeC {\cyrn }\IeC {\cyro }\IeC {\cyrishrt } \IeC {\cyrp }\IeC {\cyrr }\IeC {\cyro }\IeC {\cyrp }\IeC {\cyru }\IeC {\cyrs }\IeC {\cyrk }\IeC {\cyrn }\IeC {\cyro }\IeC {\cyrishrt } \IeC {\cyrs }\IeC {\cyrp }\IeC {\cyro }\IeC {\cyrs }\IeC {\cyro }\IeC {\cyrb }\IeC {\cyrn }\IeC {\cyro }\IeC {\cyrs }\IeC {\cyrt }\IeC {\cyri })}{33}}
\newlabel{fig:66}{{1}{33}}
\newlabel{fig:67}{{2}{33}}
\@writefile{lof}{\contentsline {figure}{\numberline {30}{\ignorespaces \IeC {\cyrr }\IeC {\cyri }\IeC {\cyrs }.6.6\relax }}{34}}
\@writefile{lof}{\contentsline {figure}{\numberline {31}{\ignorespaces \IeC {\cyrr }\IeC {\cyri }\IeC {\cyrs }.6.7\relax }}{34}}
\newlabel{fig:68}{{2}{34}}
\@writefile{toc}{\contentsline {subsubsection}{\numberline {6.4.2}\IeC {\CYRR }\IeC {\cyra }\IeC {\cyrb }\IeC {\cyro }\IeC {\cyrt }\IeC {\cyra } \IeC {\cyrd }\IeC {\cyri }\IeC {\cyrf }\IeC {\cyrf }\IeC {\cyru }\IeC {\cyrz }\IeC {\cyro }\IeC {\cyrr }\IeC {\cyra } \IeC {\cyrp }\IeC {\cyrr }\IeC {\cyri } \IeC {\cyro }\IeC {\cyrt }\IeC {\cyrk }\IeC {\cyrl }\IeC {\cyro }\IeC {\cyrn }\IeC {\cyre }\IeC {\cyrn }\IeC {\cyri }\IeC {\cyrya }\IeC {\cyrh } \IeC {\cyrs }\IeC {\cyrk }\IeC {\cyro }\IeC {\cyrr }\IeC {\cyro }\IeC {\cyrs }\IeC {\cyrt }\IeC {\cyri } \IeC {\cyrp }\IeC {\cyro }\IeC {\cyrl }\IeC {\cyre }\IeC {\cyrt }\IeC {\cyra } \IeC {\cyro }\IeC {\cyrt } \IeC {\cyrr }\IeC {\cyra }\IeC {\cyrs }\IeC {\cyrch }\IeC {\cyre }\IeC {\cyrt }\IeC {\cyrn }\IeC {\cyro }\IeC {\cyrishrt }}{34}}
\newlabel{fig:69}{{1}{34}}
\newlabel{fig:610}{{2}{34}}
\@writefile{lof}{\contentsline {figure}{\numberline {32}{\ignorespaces \IeC {\cyrr }\IeC {\cyri }\IeC {\cyrs }.6.8\relax }}{35}}
\@writefile{lof}{\contentsline {figure}{\numberline {33}{\ignorespaces \IeC {\cyrr }\IeC {\cyri }\IeC {\cyrs }.6.9\relax }}{35}}
\@writefile{toc}{\contentsline {section}{\numberline {7}}{35}}
\@writefile{lof}{\contentsline {figure}{\numberline {34}{\ignorespaces \IeC {\cyrr }\IeC {\cyri }\IeC {\cyrs }.6.10\relax }}{36}}
\@writefile{lot}{\contentsline {table}{\numberline {1}{\ignorespaces \IeC {\CYRD }\IeC {\cyrl }\IeC {\cyrya } \IeC {\cyrm }\IeC {\cyrn }\IeC {\cyro }\IeC {\cyrg }\IeC {\cyro }\IeC {\cyrs }\IeC {\cyrk }\IeC {\cyra }\IeC {\cyrch }\IeC {\cyrk }\IeC {\cyro }\IeC {\cyrv }\IeC {\cyrery }\IeC {\cyrh } \IeC {\cyrd }\IeC {\cyri }\IeC {\cyrf }\IeC {\cyrf }\IeC {\cyru }\IeC {\cyrz }\IeC {\cyro }\IeC {\cyrr }\IeC {\cyro }\IeC {\cyrv }\relax }}{37}}
\@writefile{toc}{\contentsline {subsection}{\numberline {7.1}\IeC {\CYRS }\IeC {\cyrh }\IeC {\cyre }\IeC {\cyrm }\IeC {\cyrery } \IeC {\cyrn }\IeC {\cyre }\IeC {\cyrg }\IeC {\cyro }\IeC {\cyrl }\IeC {\cyro }\IeC {\cyrv }\IeC {\cyrn }\IeC {\cyrery }\IeC {\cyrh } \IeC {\CYRV }\IeC {\CYRZ }\IeC {\CYRU }}{37}}
\newlabel{fig:71}{{1}{37}}
\@writefile{lof}{\contentsline {figure}{\numberline {35}{\ignorespaces \IeC {\cyrr }\IeC {\cyri }\IeC {\cyrs }.7.1\relax }}{37}}
\newlabel{fig:72}{{2}{37}}
\@writefile{lof}{\contentsline {figure}{\numberline {36}{\ignorespaces \IeC {\cyrr }\IeC {\cyri }\IeC {\cyrs }.7.2\relax }}{37}}
\@writefile{lof}{\contentsline {figure}{\numberline {37}{\ignorespaces \IeC {\cyrr }\IeC {\cyri }\IeC {\cyrs }.7.3\relax }}{38}}
\newlabel{fig:73}{{3}{38}}
\newlabel{fig:74}{{4}{38}}
\@writefile{lof}{\contentsline {figure}{\numberline {38}{\ignorespaces \IeC {\cyrr }\IeC {\cyri }\IeC {\cyrs }.7.4\relax }}{38}}
\@writefile{toc}{\contentsline {subsection}{\numberline {7.2}\IeC {\CYRD }\IeC {\cyri }\IeC {\cyrf }\IeC {\cyrf }\IeC {\cyru }\IeC {\cyrz }\IeC {\cyro }\IeC {\cyrr }\IeC {\cyrery } \IeC {\cyrs }\IeC {\cyrm }\IeC {\cyre }\IeC {\cyrsh }\IeC {\cyre }\IeC {\cyrn }\IeC {\cyrn }\IeC {\cyro }\IeC {\cyrg }\IeC {\cyro } \IeC {\cyrs }\IeC {\cyrzh }\IeC {\cyra }\IeC {\cyrt }\IeC {\cyri }\IeC {\cyrya }}{38}}
\newlabel{fig:75}{{7.2}{38}}
\@writefile{lof}{\contentsline {figure}{\numberline {39}{\ignorespaces \IeC {\cyrr }\IeC {\cyri }\IeC {\cyrs }.7.5\relax }}{38}}
\@writefile{toc}{\contentsline {section}{\numberline {8}}{39}}
\@writefile{toc}{\contentsline {subsection}{\numberline {8.1}\IeC {\CYRT }\IeC {\cyro }\IeC {\cyrp }\IeC {\cyrl }\IeC {\cyri }\IeC {\cyrv }\IeC {\cyro } \IeC {\CYRP }\IeC {\CYRV }\IeC {\CYRR }\IeC {\CYRD }, \IeC {\cyrk }\IeC {\cyra }\IeC {\cyrm }\IeC {\cyre }\IeC {\cyrr }\IeC {\cyrery } \IeC {\cyrs }\IeC {\cyrg }\IeC {\cyro }\IeC {\cyrr }\IeC {\cyra }\IeC {\cyrn }\IeC {\cyri }\IeC {\cyrya } \IeC {\CYRP }\IeC {\CYRV }\IeC {\CYRR }\IeC {\CYRD }}{40}}
\@writefile{toc}{\contentsline {subsubsection}{\numberline {8.1.1}\IeC {\CYRP }\IeC {\cyra }\IeC {\cyrr }\IeC {\cyra }\IeC {\cyrm }\IeC {\cyre }\IeC {\cyrt }\IeC {\cyrr }\IeC {\cyrery } \IeC {\cyrt }\IeC {\cyro }\IeC {\cyrp }\IeC {\cyrl }\IeC {\cyri }\IeC {\cyrv }}{40}}
\@writefile{lot}{\contentsline {table}{\numberline {2}{\ignorespaces \IeC {\CYRH }\IeC {\cyra }\IeC {\cyrr }\IeC {\cyra }\IeC {\cyrk }\IeC {\cyrt }\IeC {\cyre }\IeC {\cyrr }\IeC {\cyri }\IeC {\cyrs }\IeC {\cyrt }\IeC {\cyri }\IeC {\cyrk }\IeC {\cyri } \IeC {\cyrg }\IeC {\cyro }\IeC {\cyrr }\IeC {\cyryu }\IeC {\cyrch }\IeC {\cyri }\IeC {\cyrh }\relax }}{40}}
\@writefile{toc}{\contentsline {subsection}{\numberline {8.2}\IeC {\CYRG }\IeC {\cyro }\IeC {\cyrr }\IeC {\cyre }\IeC {\cyrn }\IeC {\cyri }\IeC {\cyre } \IeC {\cyrt }\IeC {\cyro }\IeC {\cyrp }\IeC {\cyrl }\IeC {\cyri }\IeC {\cyrv }\IeC {\cyro }-\IeC {\cyrv }\IeC {\cyro }\IeC {\cyrz }\IeC {\cyrd }\IeC {\cyru }\IeC {\cyrsh }\IeC {\cyrn }\IeC {\cyri }\IeC {\cyrh } \IeC {\cyrs }\IeC {\cyrm }\IeC {\cyre }\IeC {\cyrs }\IeC {\cyre }\IeC {\cyrishrt } (\IeC {\CYRT }\IeC {\CYRV }\IeC {\CYRS })}{40}}
\newlabel{fig:81}{{8.2}{41}}
\@writefile{toc}{\contentsline {subsubsection}{\numberline {8.2.1}\IeC {\CYRU }\IeC {\cyrs }\IeC {\cyrl }\IeC {\cyro }\IeC {\cyrv }\IeC {\cyri }\IeC {\cyre } \IeC {\cyrg }\IeC {\cyro }\IeC {\cyrr }\IeC {\cyre }\IeC {\cyrn }\IeC {\cyri }\IeC {\cyre } \IeC {\CYRT }\IeC {\CYRV }\IeC {\CYRS }}{42}}
\newlabel{fig:82}{{8.2.1}{42}}
\newlabel{fig:83}{{5}{43}}
\@writefile{toc}{\contentsline {section}{\numberline {9}}{43}}
\@writefile{toc}{\contentsline {subsection}{\numberline {9.1}\IeC {\CYRK }\IeC {\cyra }\IeC {\cyrm }\IeC {\cyre }\IeC {\cyrr }\IeC {\cyrery } \IeC {\cyrzh }\IeC {\cyri }\IeC {\cyrd }\IeC {\cyrk }\IeC {\cyro }\IeC {\cyrs }\IeC {\cyrt }\IeC {\cyrery }\IeC {\cyrh } \IeC {\CYRP }\IeC {\CYRV }\IeC {\CYRR }\IeC {\CYRD }}{44}}
\@writefile{toc}{\contentsline {subsubsection}{\numberline {9.1.1}\IeC {\CYRF }\IeC {\cyro }\IeC {\cyrr }\IeC {\cyrk }\IeC {\cyra }\IeC {\cyrm }\IeC {\cyre }\IeC {\cyrr }\IeC {\cyrn }\IeC {\cyrery }\IeC {\cyre } \IeC {\CYRK }\IeC {\CYRS }}{44}}
\newlabel{fig:91}{{9.1.1}{44}}
\@writefile{toc}{\contentsline {subsubsection}{\numberline {9.1.2}\IeC {\CYRK }\IeC {\cyra }\IeC {\cyrr }\IeC {\cyrb }\IeC {\cyryu }\IeC {\cyrr }\IeC {\cyra }\IeC {\cyrt }\IeC {\cyro }\IeC {\cyrr }\IeC {\cyrn }\IeC {\cyrery }\IeC {\cyre } \IeC {\CYRK }\IeC {\CYRS }}{45}}
\newlabel{fig:92}{{9.1.2}{45}}
\@writefile{toc}{\contentsline {subsubsection}{\numberline {9.1.3}\IeC {\CYRD }\IeC {\cyrv }\IeC {\cyru }\IeC {\cyrh }\IeC {\cyrk }\IeC {\cyro }\IeC {\cyrn }\IeC {\cyrt }\IeC {\cyru }\IeC {\cyrr }\IeC {\cyrn }\IeC {\cyrery }\IeC {\cyrishrt } \IeC {\CYRK }\IeC {\CYRS }}{45}}
\newlabel{fig:93}{{9.1.3}{45}}
\@writefile{toc}{\contentsline {subsubsection}{\numberline {9.1.4}\IeC {\CYRO }\IeC {\cyrh }\IeC {\cyrl }\IeC {\cyra }\IeC {\cyrzh }\IeC {\cyrd }\IeC {\cyre }\IeC {\cyrn }\IeC {\cyri }\IeC {\cyre } \IeC {\cyrk }\IeC {\cyra }\IeC {\cyrm }\IeC {\cyre }\IeC {\cyrr } \IeC {\cyrzh }\IeC {\cyri }\IeC {\cyrd }\IeC {\cyrk }\IeC {\cyro }\IeC {\cyrs }\IeC {\cyrt }\IeC {\cyrn }\IeC {\cyrery }\IeC {\cyrh } \IeC {\CYRP }\IeC {\CYRV }\IeC {\CYRR }\IeC {\CYRD }}{45}}
\newlabel{fig:94}{{9.1.4}{45}}
\@writefile{toc}{\contentsline {subsection}{\numberline {9.2}\IeC {\CYRP }\IeC {\CYRV }\IeC {\CYRR }\IeC {\CYRD } \IeC {\cyrn }\IeC {\cyra } \IeC {\cyrt }\IeC {\cyrv }\IeC {\cyre }\IeC {\cyrr }\IeC {\cyrd }\IeC {\cyro }\IeC {\cyrm } \IeC {\cyrt }\IeC {\cyro }\IeC {\cyrp }\IeC {\cyrl }\IeC {\cyri }\IeC {\cyrv }\IeC {\cyre } (\IeC {\cyrb }\IeC {\cyre }\IeC {\cyrz } \IeC {\cyrg }\IeC {\cyra }\IeC {\cyrz }\IeC {\cyro }\IeC {\cyrg }\IeC {\cyre }\IeC {\cyrn }\IeC {\cyre }\IeC {\cyrr }\IeC {\cyra }\IeC {\cyrt }\IeC {\cyro }\IeC {\cyrr }\IeC {\cyrn }\IeC {\cyro }\IeC {\cyrg }\IeC {\cyro } \IeC {\cyrt }\IeC {\cyri }\IeC {\cyrp }\IeC {\cyra })}{46}}
\newlabel{fig:95}{{9.2}{46}}
\@writefile{toc}{\contentsline {section}{\numberline {10}\IeC {\CYREREV }\IeC {\cyrzh }\IeC {\cyre }\IeC {\cyrk }\IeC {\cyrt }\IeC {\cyro }\IeC {\cyrr }}{46}}
\@writefile{lof}{\contentsline {figure}{\numberline {40}{\ignorespaces \IeC {\CYRS }\IeC {\cyrh }\IeC {\cyre }\IeC {\cyrm }\IeC {\cyra } \IeC {\cyrs }\IeC {\cyrv }\IeC {\cyre }\IeC {\cyrr }\IeC {\cyrh }\IeC {\cyrz }\IeC {\cyrv }\IeC {\cyru }\IeC {\cyrk }\IeC {\cyro }\IeC {\cyrv }\IeC {\cyro }\IeC {\cyrg }\IeC {\cyro } \IeC {\cyrg }\IeC {\cyra }\IeC {\cyrz }\IeC {\cyro }\IeC {\cyrv }\IeC {\cyro }\IeC {\cyrg }\IeC {\cyro } \IeC {\cyrerev }\IeC {\cyrzh }\IeC {\cyre }\IeC {\cyrk }\IeC {\cyrt }\IeC {\cyro }\IeC {\cyrr }\IeC {\cyra }\relax }}{47}}
\@writefile{lof}{\contentsline {figure}{\numberline {41}{\ignorespaces \relax }}{47}}
\@writefile{toc}{\contentsline {subsection}{\numberline {10.1}\IeC {\CYRO }\IeC {\cyrs }\IeC {\cyrn }\IeC {\cyro }\IeC {\cyrv }\IeC {\cyrn }\IeC {\cyrery }\IeC {\cyre } \IeC {\cyru }\IeC {\cyrr }\IeC {\cyra }\IeC {\cyrv }\IeC {\cyrn }\IeC {\cyre }\IeC {\cyrn }\IeC {\cyri }\IeC {\cyrya } \IeC {\cyro }\IeC {\cyrp }\IeC {\cyri }\IeC {\cyrs }\IeC {\cyrery }\IeC {\cyrv }\IeC {\cyra }\IeC {\cyryu }\IeC {\cyrshch }\IeC {\cyri }\IeC {\cyre } \IeC {\cyrp }\IeC {\cyrr }\IeC {\cyro }\IeC {\cyrc }\IeC {\cyre }\IeC {\cyrs }\IeC {\cyrs }\IeC {\cyrery } \IeC {\cyrv } \IeC {\cyrerev }\IeC {\cyrzh }\IeC {\cyre }\IeC {\cyrk }\IeC {\cyrt }\IeC {\cyro }\IeC {\cyrr }\IeC {\cyre }}{47}}
\@writefile{toc}{\contentsline {subsubsection}{\numberline {10.1.1}\IeC {\CYRU }\IeC {\cyrr }\IeC {\cyra }\IeC {\cyrv }\IeC {\cyrn }\IeC {\cyre }\IeC {\cyrn }\IeC {\cyri }\IeC {\cyre } \IeC {\cyrs }\IeC {\cyro }\IeC {\cyrh }\IeC {\cyrr }\IeC {\cyra }\IeC {\cyrn }\IeC {\cyre }\IeC {\cyrn }\IeC {\cyri }\IeC {\cyrya } \IeC {\cyrp }\IeC {\cyro }\IeC {\cyrl }\IeC {\cyrn }\IeC {\cyro }\IeC {\cyrg }\IeC {\cyro } \IeC {\cyri }\IeC {\cyrm }\IeC {\cyrp }\IeC {\cyru }\IeC {\cyrl }\IeC {\cyrsftsn }\IeC {\cyrs }\IeC {\cyra }}{48}}
\@writefile{toc}{\contentsline {subsubsection}{\numberline {10.1.2}\IeC {\CYRU }\IeC {\cyrr }\IeC {\cyra }\IeC {\cyrv }\IeC {\cyrn }\IeC {\cyre }\IeC {\cyrn }\IeC {\cyri }\IeC {\cyre } \IeC {\cyrs }\IeC {\cyro }\IeC {\cyrh }\IeC {\cyrr }\IeC {\cyra }\IeC {\cyrn }\IeC {\cyre }\IeC {\cyrn }\IeC {\cyri }\IeC {\cyrya } \IeC {\cyrerev }\IeC {\cyrn }\IeC {\cyre }\IeC {\cyrr }\IeC {\cyrg }\IeC {\cyri }\IeC {\cyri }}{48}}
\@writefile{toc}{\contentsline {subsubsection}{\numberline {10.1.3}\IeC {\CYRU }\IeC {\cyrr }\IeC {\cyra }\IeC {\cyrv }\IeC {\cyrn }\IeC {\cyre }\IeC {\cyrn }\IeC {\cyri }\IeC {\cyre } \IeC {\cyrn }\IeC {\cyre }\IeC {\cyrr }\IeC {\cyra }\IeC {\cyrz }\IeC {\cyrr }\IeC {\cyrery }\IeC {\cyrv }\IeC {\cyrn }\IeC {\cyro }\IeC {\cyrs }\IeC {\cyrt }\IeC {\cyri }}{48}}
\@writefile{lof}{\contentsline {figure}{\numberline {42}{\ignorespaces \relax }}{50}}
\@writefile{lof}{\contentsline {figure}{\numberline {43}{\ignorespaces \relax }}{50}}
\@writefile{toc}{\contentsline {subsection}{\numberline {10.2}\IeC {\CYRR }\IeC {\cyra }\IeC {\cyrb }\IeC {\cyro }\IeC {\cyrt }\IeC {\cyra } \IeC {\cyrerev }\IeC {\cyrzh }\IeC {\cyre }\IeC {\cyrk }\IeC {\cyrt }\IeC {\cyro }\IeC {\cyrr }\IeC {\cyra } \IeC {\cyrp }\IeC {\cyrr }\IeC {\cyri } \IeC {\cyrp }\IeC {\cyre }\IeC {\cyrr }\IeC {\cyre }\IeC {\cyrm }\IeC {\cyre }\IeC {\cyrn }\IeC {\cyrn }\IeC {\cyrery }\IeC {\cyrh } \IeC {\cyrr }\IeC {\cyre }\IeC {\cyrzh }\IeC {\cyri }\IeC {\cyrm }\IeC {\cyra }\IeC {\cyrh }}{50}}
\@writefile{lof}{\contentsline {figure}{\numberline {44}{\ignorespaces \relax }}{51}}
\@writefile{toc}{\contentsline {section}{\numberline {11}}{52}}
\@writefile{toc}{\contentsline {subsection}{\numberline {11.1}\IeC {\CYRP }\IeC {\CYRV }\IeC {\CYRR }\IeC {\CYRD } \IeC {\cyrn }\IeC {\cyra } \IeC {\cyrt }\IeC {\cyrv }\IeC {\cyre }\IeC {\cyrr }\IeC {\cyrd }\IeC {\cyro }\IeC {\cyrm } \IeC {\cyrt }\IeC {\cyro }\IeC {\cyrp }\IeC {\cyrl }\IeC {\cyri }\IeC {\cyrv }\IeC {\cyre } (\IeC {\cyrb }\IeC {\cyre }\IeC {\cyrz } \IeC {\cyrg }\IeC {\cyra }\IeC {\cyrz }\IeC {\cyro }\IeC {\cyrg }\IeC {\cyre }\IeC {\cyrn }\IeC {\cyre }\IeC {\cyrr }\IeC {\cyra }\IeC {\cyrt }\IeC {\cyro }\IeC {\cyrr }\IeC {\cyrn }\IeC {\cyro }\IeC {\cyrg }\IeC {\cyro } \IeC {\cyrt }\IeC {\cyri }\IeC {\cyrp }\IeC {\cyra })}{53}}
\newlabel{fig:111}{{11.1}{53}}
\newlabel{fig:112}{{11.1}{53}}
\newlabel{fig:113}{{11.1}{53}}
\@writefile{lot}{\contentsline {table}{\numberline {3}{\ignorespaces \IeC {\CYRH }\IeC {\cyra }\IeC {\cyrr }\IeC {\cyra }\IeC {\cyrk }\IeC {\cyrt }\IeC {\cyre }\IeC {\cyrr }\IeC {\cyri }\IeC {\cyrs }\IeC {\cyrt }\IeC {\cyri }\IeC {\cyrk }\IeC {\cyri } \IeC {\cyrt }\IeC {\cyro }\IeC {\cyrp }\IeC {\cyrl }\IeC {\cyri }\IeC {\cyrv }\relax }}{54}}
\@writefile{toc}{\contentsline {subsection}{\numberline {11.2}\IeC {\CYRV }\IeC {\cyrery }\IeC {\cyrb }\IeC {\cyro }\IeC {\cyrr } \IeC {\cyrt }\IeC {\cyro }\IeC {\cyrp }\IeC {\cyrl }\IeC {\cyri }\IeC {\cyrv }\IeC {\cyra }}{54}}
\@writefile{toc}{\contentsline {subsection}{\numberline {11.3}\IeC {\CYRS }\IeC {\cyrt }\IeC {\cyra }\IeC {\cyrb }\IeC {\cyri }\IeC {\cyrl }\IeC {\cyri }\IeC {\cyrz }\IeC {\cyra }\IeC {\cyrc }\IeC {\cyri }\IeC {\cyrya } \IeC {\cyrg }\IeC {\cyro }\IeC {\cyrr }\IeC {\cyre }\IeC {\cyrn }\IeC {\cyri }\IeC {\cyrya } \IeC {\cyrt }\IeC {\cyrv }\IeC {\cyre }\IeC {\cyrr }\IeC {\cyrd }\IeC {\cyro }\IeC {\cyrg }\IeC {\cyro } \IeC {\cyrg }\IeC {\cyro }\IeC {\cyrr }\IeC {\cyryu }\IeC {\cyrch }\IeC {\cyre }\IeC {\cyrg }\IeC {\cyro } \IeC {\cyrv } \IeC {\cyrv }\IeC {\cyro }\IeC {\cyrz }\IeC {\cyrd }\IeC {\cyru }\IeC {\cyrsh }\IeC {\cyrn }\IeC {\cyro }\IeC {\cyrm } \IeC {\cyrp }\IeC {\cyro }\IeC {\cyrt }\IeC {\cyro }\IeC {\cyrk }\IeC {\cyre }}{54}}
\newlabel{fig:114}{{11.3}{54}}
\@writefile{toc}{\contentsline {section}{\numberline {12}}{55}}
\@writefile{toc}{\contentsline {subsection}{\numberline {12.1}\IeC {\CYRS }\IeC {\cyrp }\IeC {\cyro }\IeC {\cyrs }\IeC {\cyro }\IeC {\cyrb }\IeC {\cyrery } \IeC {\cyrp }\IeC {\cyro }\IeC {\cyrv }\IeC {\cyrery }\IeC {\cyrsh }\IeC {\cyre }\IeC {\cyrn }\IeC {\cyri }\IeC {\cyrya } \IeC {\cyrk }\IeC {\cyro }\IeC {\cyrerev }\IeC {\cyrf }\IeC {\cyrf }\IeC {\cyri }\IeC {\cyrc }\IeC {\cyri }\IeC {\cyre }\IeC {\cyrn }\IeC {\cyrt }\IeC {\cyra } \IeC {\cyrs }\IeC {\cyrt }\IeC {\cyra }\IeC {\cyrb }\IeC {\cyri }\IeC {\cyrl }\IeC {\cyri }\IeC {\cyrz }\IeC {\cyra }\IeC {\cyrc }\IeC {\cyri }\IeC {\cyri }}{56}}
\newlabel{fig:121}{{12.1}{56}}
\@writefile{lof}{\contentsline {figure}{\numberline {45}{\ignorespaces \relax }}{56}}
\newlabel{fig:122}{{12.1}{56}}
\@writefile{lof}{\contentsline {figure}{\numberline {46}{\ignorespaces \relax }}{56}}
\newlabel{fig:123}{{12.1}{56}}
\newlabel{fig:124}{{12.1}{56}}
\@writefile{toc}{\contentsline {subsection}{\numberline {12.2}\IeC {\CYRS }\IeC {\cyro }\IeC {\cyrp }\IeC {\cyrl }\IeC {\cyra } \IeC {\CYRP }\IeC {\CYRV }\IeC {\CYRR }\IeC {\CYRD }}{56}}
\@writefile{lof}{\contentsline {figure}{\numberline {47}{\ignorespaces 123\relax }}{57}}
\@writefile{lof}{\contentsline {figure}{\numberline {48}{\ignorespaces 124\relax }}{57}}
\newlabel{fig:125}{{12.2}{58}}
\@writefile{lof}{\contentsline {figure}{\numberline {49}{\ignorespaces 125\relax }}{58}}
\@writefile{toc}{\contentsline {subsection}{\numberline {12.3}\IeC {\CYRD }\IeC {\cyro }\IeC {\cyrz }\IeC {\cyrv }\IeC {\cyru }\IeC {\cyrk }\IeC {\cyro }\IeC {\cyrv }\IeC {\cyrery }\IeC {\cyre } \IeC {\cyrs }\IeC {\cyro }\IeC {\cyrp }\IeC {\cyrl }\IeC {\cyra }}{58}}
\newlabel{fig:126}{{12.3}{58}}
\newlabel{fig:127}{{12.3}{58}}
\newlabel{fig:128}{{12.3}{58}}
\newlabel{fig:129}{{12.3}{58}}
\newlabel{fig:1210}{{12.3}{58}}
\@writefile{lof}{\contentsline {figure}{\numberline {50}{\ignorespaces 126\relax }}{59}}
\@writefile{lof}{\contentsline {figure}{\numberline {51}{\ignorespaces 127\relax }}{59}}
\@writefile{lof}{\contentsline {figure}{\numberline {52}{\ignorespaces 128\relax }}{59}}
\@writefile{lof}{\contentsline {figure}{\numberline {53}{\ignorespaces 129\relax }}{60}}
\@writefile{lof}{\contentsline {figure}{\numberline {54}{\ignorespaces 1210\relax }}{60}}
\@writefile{toc}{\contentsline {subsection}{\numberline {12.4}\IeC {\CYRS }\IeC {\cyrv }\IeC {\cyre }\IeC {\cyrr }\IeC {\cyrh }\IeC {\cyrz }\IeC {\cyrv }\IeC {\cyru }\IeC {\cyrk }\IeC {\cyro }\IeC {\cyrv }\IeC {\cyrery }\IeC {\cyre } \IeC {\cyrs }\IeC {\cyro }\IeC {\cyrp }\IeC {\cyrl }\IeC {\cyra }}{60}}
\newlabel{fig:1211}{{12.4}{60}}
\@writefile{lof}{\contentsline {figure}{\numberline {55}{\ignorespaces 1211\relax }}{60}}
\@writefile{toc}{\contentsline {subsection}{\numberline {12.5}\IeC {\CYRR }\IeC {\cyra }\IeC {\cyrk }\IeC {\cyre }\IeC {\cyrt }\IeC {\cyrn }\IeC {\cyro } \IeC {\cyrp }\IeC {\cyrr }\IeC {\cyrya }\IeC {\cyrm }\IeC {\cyro }\IeC {\cyrt }\IeC {\cyro }\IeC {\cyrch }\IeC {\cyrn }\IeC {\cyrery }\IeC {\cyre } \IeC {\cyrd }\IeC {\cyrv }\IeC {\cyri }\IeC {\cyrg }\IeC {\cyra }\IeC {\cyrt }\IeC {\cyre }\IeC {\cyrl }\IeC {\cyri } (\IeC {\CYRR }\IeC {\CYRP }\IeC {\CYRD })}{61}}
\@writefile{lof}{\contentsline {figure}{\numberline {56}{\ignorespaces 1 --- \IeC {\CYRV }\IeC {\CYRZ }\IeC {\CYRU }, 2 --- \IeC {\cyrg }\IeC {\cyra }\IeC {\cyrz }\IeC {\cyro }\IeC {\cyrg }\IeC {\cyre }\IeC {\cyrn }\IeC {\cyre }\IeC {\cyrr }\IeC {\cyra }\IeC {\cyrt }\IeC {\cyro }\IeC {\cyrr } (\IeC {\cyrr }\IeC {\cyra }\IeC {\cyrk }\IeC {\cyre }\IeC {\cyrt }\IeC {\cyrn }\IeC {\cyrery }\IeC {\cyrishrt } \IeC {\cyrk }\IeC {\cyro }\IeC {\cyrn }\IeC {\cyrt }\IeC {\cyru }\IeC {\cyrr }), 3 --- \IeC {\cyrk }\IeC {\cyro }\IeC {\cyrl }\IeC {\cyrl }\IeC {\cyre }\IeC {\cyrk }\IeC {\cyrt }\IeC {\cyro }\IeC {\cyrr } \IeC {\cyrv }\IeC {\cyrv }\IeC {\cyro }\IeC {\cyrd }\IeC {\cyra } \IeC {\CYRP }\IeC {\CYRS } \IeC {\cyrg }/\IeC {\cyrg }, 4 --- \IeC {\cyrk }\IeC {\cyra }\IeC {\cyrm }\IeC {\cyre }\IeC {\cyrr }\IeC {\cyra } \IeC {\cyrd }\IeC {\cyro }\IeC {\cyrzh }\IeC {\cyri }\IeC {\cyrg }\IeC {\cyra }\IeC {\cyrn }\IeC {\cyri }\IeC {\cyrya }, 5 --- \IeC {\cyrs }\IeC {\cyro }\IeC {\cyrp }\IeC {\cyrl }\IeC {\cyro }\relax }}{61}}
\@writefile{lof}{\contentsline {figure}{\numberline {57}{\ignorespaces 1 --- \IeC {\CYRV }\IeC {\CYRZ }\IeC {\CYRU }, 2 --- \IeC {\cyrg }\IeC {\cyra }\IeC {\cyrz }\IeC {\cyro }\IeC {\cyrg }\IeC {\cyre }\IeC {\cyrn }\IeC {\cyre }\IeC {\cyrr }\IeC {\cyra }\IeC {\cyrt }\IeC {\cyro }\IeC {\cyrr } (\IeC {\cyrr }\IeC {\cyra }\IeC {\cyrk }\IeC {\cyre }\IeC {\cyrt }\IeC {\cyrn }\IeC {\cyrery }\IeC {\cyrishrt } \IeC {\cyrk }\IeC {\cyro }\IeC {\cyrn }\IeC {\cyrt }\IeC {\cyru }\IeC {\cyrr }), 3 --- \IeC {\cyrk }\IeC {\cyro }\IeC {\cyrl }\IeC {\cyrl }\IeC {\cyre }\IeC {\cyrk }\IeC {\cyrt }\IeC {\cyro }\IeC {\cyrr } \IeC {\cyrv }\IeC {\cyrv }\IeC {\cyro }\IeC {\cyrd }\IeC {\cyra } \IeC {\CYRP }\IeC {\CYRS } \IeC {\cyrg }/\IeC {\cyrg }, 4 --- \IeC {\cyrerev }\IeC {\cyrzh }\IeC {\cyre }\IeC {\cyrk }\IeC {\cyrt }\IeC {\cyro }\IeC {\cyrr } (\IeC {\cyrc }\IeC {\cyri }\IeC {\cyrl }\IeC {\cyri }\IeC {\cyrn }\IeC {\cyrd }\IeC {\cyrr }\IeC {\cyri }\IeC {\cyrch }. \IeC {\cyrk }\IeC {\cyra }\IeC {\cyrm }\IeC {\cyre }\IeC {\cyrr }\IeC {\cyra } \IeC {\cyrs }\IeC {\cyrm }\IeC {\cyre }\IeC {\cyrsh }\IeC {\cyre }\IeC {\cyrn }\IeC {\cyri }\IeC {\cyrya }), 5 --- \IeC {\cyrd }\IeC {\cyri }\IeC {\cyrf }\IeC {\cyrf }\IeC {\cyru }\IeC {\cyrz }\IeC {\cyro }\IeC {\cyrr } \IeC {\cyrerev }\IeC {\cyrzh }\IeC {\cyre }\IeC {\cyrk }\IeC {\cyrt }\IeC {\cyro }\IeC {\cyrr }\IeC {\cyra }, 6 --- \IeC {\cyrr }\IeC {\cyre }\IeC {\cyrsh }\IeC {\cyre }\IeC {\cyrt }\IeC {\cyrk }\IeC {\cyra } \IeC {\cyrs }\IeC {\cyrt }\IeC {\cyra }\IeC {\cyrb }\IeC {\cyri }\IeC {\cyrl }\IeC {\cyri }\IeC {\cyrz }\IeC {\cyra }\IeC {\cyrt }\IeC {\cyro }\IeC {\cyrr }\IeC {\cyra }, 7 --- \IeC {\cyrv }\IeC {\cyro }\IeC {\cyrs }\IeC {\cyrp }\IeC {\cyrl }\IeC {\cyra }\IeC {\cyrm }\IeC {\cyre }\IeC {\cyrn }\IeC {\cyri }\IeC {\cyrt }\IeC {\cyre }\IeC {\cyrl }\IeC {\cyrsftsn }, 8 --- \IeC {\cyrk }\IeC {\cyra }\IeC {\cyrm }\IeC {\cyre }\IeC {\cyrr }\IeC {\cyra } \IeC {\cyrd }\IeC {\cyro }\IeC {\cyrzh }\IeC {\cyri }\IeC {\cyrg }\IeC {\cyra }\IeC {\cyrn }\IeC {\cyri }\IeC {\cyrya }, 9 --- \IeC {\cyrs }\IeC {\cyro }\IeC {\cyrp }\IeC {\cyrl }\IeC {\cyro }\relax }}{61}}
\@writefile{lof}{\contentsline {figure}{\numberline {58}{\ignorespaces \relax }}{62}}
\@writefile{lof}{\contentsline {figure}{\numberline {59}{\ignorespaces \relax }}{62}}
\@writefile{lof}{\contentsline {figure}{\numberline {60}{\ignorespaces \relax }}{63}}
\@writefile{toc}{\contentsline {section}{\numberline {13}}{63}}
\gdef \LT@i {\LT@entry 
    {1}{126.61101pt}\LT@entry 
    {1}{52.62247pt}\LT@entry 
    {1}{75.89052pt}\LT@entry 
    {1}{82.75569pt}\LT@entry 
    {1}{34.66513pt}}
\@writefile{toc}{\contentsline {subsection}{\numberline {13.1}\IeC {\CYRT }\IeC {\cyro }\IeC {\cyrp }\IeC {\cyrl }\IeC {\cyri }\IeC {\cyrv }\IeC {\cyro } \IeC {\CYRR }\IeC {\CYRP }\IeC {\CYRD }}{64}}
\newlabel{fig:131}{{13.1}{64}}
\@writefile{lot}{\contentsline {table}{\numberline {4}{\ignorespaces \IeC {\cyrh }\IeC {\cyra }\IeC {\cyrr }\IeC {\cyra }\IeC {\cyrk }\IeC {\cyrt }\IeC {\cyre }\IeC {\cyrr }\IeC {\cyri }\IeC {\cyrs }\IeC {\cyrt }\IeC {\cyri }\IeC {\cyrk }\IeC {\cyri } \IeC {\cyrt }\IeC {\cyro }\IeC {\cyrp }\IeC {\cyrl }\IeC {\cyri }\IeC {\cyrv } \IeC {\CYRR }\IeC {\CYRP }\IeC {\CYRD }\relax }}{64}}
\@writefile{toc}{\contentsline {subsection}{\numberline {13.2}\IeC {\CYRO }\IeC {\cyrs }\IeC {\cyro }\IeC {\cyrb }\IeC {\cyre }\IeC {\cyrn }\IeC {\cyrn }\IeC {\cyro }\IeC {\cyrs }\IeC {\cyrt }\IeC {\cyri } \IeC {\cyrg }\IeC {\cyro }\IeC {\cyrr }\IeC {\cyre }\IeC {\cyrn }\IeC {\cyri }\IeC {\cyrya } \IeC {\CYRB }\IeC {\cyro }\IeC {\cyrr }\IeC {\cyra }}{65}}
\@writefile{toc}{\contentsline {section}{\numberline {14}}{65}}
\@writefile{toc}{\contentsline {subsection}{\numberline {14.1}\IeC {\CYRP }\IeC {\cyra }\IeC {\cyrs }\IeC {\cyrt }\IeC {\cyro }\IeC {\cyro }\IeC {\cyrb }\IeC {\cyrr }\IeC {\cyra }\IeC {\cyrz }\IeC {\cyrn }\IeC {\cyrery }\IeC {\cyre } \IeC {\cyrt }\IeC {\cyro }\IeC {\cyrp }\IeC {\cyrl }\IeC {\cyri }\IeC {\cyrv }\IeC {\cyra }}{66}}
\@writefile{toc}{\contentsline {subsection}{\numberline {14.2}\IeC {\CYRV }\IeC {\cyro }\IeC {\cyrz }\IeC {\cyrd }\IeC {\cyru }\IeC {\cyrh }\IeC {\cyro }\IeC {\cyrz }\IeC {\cyra }\IeC {\cyrb }\IeC {\cyro }\IeC {\cyrr }\IeC {\cyrn }\IeC {\cyri }\IeC {\cyrk }\IeC {\cyri }}{67}}
\newlabel{fig:141}{{14.2}{67}}
\@writefile{lof}{\contentsline {figure}{\numberline {61}{\ignorespaces 141\relax }}{67}}
\@writefile{toc}{\contentsline {subsection}{\numberline {14.3}\IeC {\CYRR }\IeC {\cyre }\IeC {\cyrg }\IeC {\cyru }\IeC {\cyrl }\IeC {\cyri }\IeC {\cyrr }\IeC {\cyro }\IeC {\cyrv }\IeC {\cyra }\IeC {\cyrn }\IeC {\cyri }\IeC {\cyre } \IeC {\CYRR }\IeC {\CYRP }\IeC {\CYRD }}{67}}
\newlabel{fig:142}{{14.3}{67}}
\newlabel{fig:143}{{14.3}{67}}
\@writefile{toc}{\contentsline {subsection}{\numberline {14.4}\IeC {\CYRD }\IeC {\cyrv }\IeC {\cyri }\IeC {\cyrg }\IeC {\cyra }\IeC {\cyrt }\IeC {\cyre }\IeC {\cyrl }\IeC {\cyrsftsn } \IeC {\CYRA }\IeC {\CYRL }31-\IeC {\CYRF } \IeC {\cyrt }\IeC {\cyru }\IeC {\cyrr }\IeC {\cyrb }\IeC {\cyro }\IeC {\cyrr }\IeC {\cyre }\IeC {\cyra }\IeC {\cyrk }\IeC {\cyrt }\IeC {\cyri }\IeC {\cyrv }\IeC {\cyrn }\IeC {\cyrery }\IeC {\cyrishrt }}{67}}
\@writefile{lof}{\contentsline {figure}{\numberline {62}{\ignorespaces 142\relax }}{68}}
\@writefile{toc}{\contentsline {section}{\numberline {15}}{68}}
\@writefile{lof}{\contentsline {figure}{\numberline {63}{\ignorespaces 143\relax }}{69}}
\@writefile{lof}{\contentsline {figure}{\numberline {64}{\ignorespaces 144,1 --- \IeC {\CYRK }\IeC {\CYRN }\IeC {\CYRD }, 2 --- \IeC {\CYRK }\IeC {\CYRV }\IeC {\CYRD }, 3 --- \IeC {\cyrv }\IeC {\cyrn }\IeC {\cyre }\IeC {\cyrsh }\IeC {\cyrn }\IeC {\cyri }\IeC {\cyrishrt } \IeC {\cyrk }\IeC {\cyro }\IeC {\cyrn }\IeC {\cyrt }\IeC {\cyru }\IeC {\cyrr }, 4 --- \IeC {\CYRK }\IeC {\CYRS }, 5 --- \IeC {\cyrt }\IeC {\cyre }\IeC {\cyrp }\IeC {\cyrl }\IeC {\cyro }\IeC {\cyro }\IeC {\cyrb }\IeC {\cyrm }\IeC {\cyre }\IeC {\cyrn }\IeC {\cyrn }\IeC {\cyri }\IeC {\cyrk }, 6 --- \IeC {\cyrt }\IeC {\cyru }\IeC {\cyrr }\IeC {\cyrb }\IeC {\cyri }\IeC {\cyrn }\IeC {\cyra } \IeC {\cyrv }\IeC {\cyrery }\IeC {\cyrs }\IeC {\cyro }\IeC {\cyrk }\IeC {\cyro }\IeC {\cyrg }\IeC {\cyro } \IeC {\cyrd }\IeC {\cyra }\IeC {\cyrv }\IeC {\cyrl }\IeC {\cyre }\IeC {\cyrn }\IeC {\cyri }\IeC {\cyrya }, 7 --- \IeC {\cyrt }\IeC {\cyru }\IeC {\cyrb }\IeC {\cyri }\IeC {\cyrn }\IeC {\cyra } \IeC {\cyrn }\IeC {\cyri }\IeC {\cyrz }\IeC {\cyrk }\IeC {\cyro }\IeC {\cyrg }\IeC {\cyro } \IeC {\cyrd }\IeC {\cyra }\IeC {\cyrv }\IeC {\cyrl }\IeC {\cyre }\IeC {\cyrn }\IeC {\cyri }\IeC {\cyrya }, 8 --- \IeC {\cyrs }\IeC {\cyrm }\IeC {\cyre }\IeC {\cyrs }\IeC {\cyri }\IeC {\cyrt }\IeC {\cyre }\IeC {\cyrl }\IeC {\cyrsftsn }, 9 --- \IeC {\cyrs }\IeC {\cyrt }\IeC {\cyra }\IeC {\cyrb }\IeC {\cyri }\IeC {\cyrl }\IeC {\cyri }\IeC {\cyrz }\IeC {\cyra }\IeC {\cyrt }\IeC {\cyro }\IeC {\cyrr }, 10 --- \IeC {\cyrv }\IeC {\cyrs }\IeC {\cyre }\IeC {\cyrr }\IeC {\cyre }\IeC {\cyrzh }\IeC {\cyri }\IeC {\cyrm }\IeC {\cyrn }\IeC {\cyro }\IeC {\cyre } \IeC {\cyrs }\IeC {\cyro }\IeC {\cyrp }\IeC {\cyrl }\IeC {\cyro }\relax }}{70}}
\@writefile{toc}{\contentsline {subsection}{\numberline {15.1}\IeC {\CYRR }\IeC {\cyra }\IeC {\cyrk }\IeC {\cyre }\IeC {\cyrt }\IeC {\cyrn }\IeC {\cyro }-\IeC {\cyrt }\IeC {\cyru }\IeC {\cyrr }\IeC {\cyrb }\IeC {\cyri }\IeC {\cyrn }\IeC {\cyrn }\IeC {\cyrery }\IeC {\cyrishrt } \IeC {\cyrd }\IeC {\cyrv }\IeC {\cyri }\IeC {\cyrg }\IeC {\cyra }\IeC {\cyrt }\IeC {\cyre }\IeC {\cyrl }\IeC {\cyrsftsn }}{71}}
\@writefile{lof}{\contentsline {figure}{\numberline {65}{\ignorespaces \IeC {\CYRR }\IeC {\cyra }\IeC {\cyrb }\IeC {\cyro }\IeC {\cyrch }\IeC {\cyri }\IeC {\cyrishrt } \IeC {\cyrc }\IeC {\cyri }\IeC {\cyrk }\IeC {\cyrl }, 2-3 --- \IeC {\CYRK }\IeC {\CYRS }. 3-4 --- \IeC {\cyrs }\IeC {\cyro }\IeC {\cyrp }\IeC {\cyrl }\IeC {\cyro }\relax }}{71}}
\@writefile{lof}{\contentsline {figure}{\numberline {66}{\ignorespaces \IeC {\CYRC }\IeC {\cyri }\IeC {\cyrk }\IeC {\cyrl } \IeC {\cyrb }\IeC {\cyrr }\IeC {\cyra }\IeC {\cyrishrt }\IeC {\cyrt }\IeC {\cyro }\IeC {\cyrn }\IeC {\cyra }, 1-2 --- \IeC {\CYRV }\IeC {\CYRZ }\IeC {\CYRU }, 2-3 --- \IeC {\cyrs }\IeC {\cyrzh }\IeC {\cyra }\IeC {\cyrt }\IeC {\cyri }\IeC {\cyre } \IeC {\cyrv } \IeC {\cyrk }\IeC {\cyro }\IeC {\cyrm }\IeC {\cyrp }\IeC {\cyrr }\IeC {\cyre }\IeC {\cyrs }\IeC {\cyrs }\IeC {\cyro }\IeC {\cyrr }\IeC {\cyra }, 3-4 --- \IeC {\cyrp }\IeC {\cyro }\IeC {\cyrd }\IeC {\cyrv }\IeC {\cyro }\IeC {\cyrd } \IeC {\cyrt }\IeC {\cyre }\IeC {\cyrp }\IeC {\cyrl }\IeC {\cyra } \IeC {\cyrv } \IeC {\CYRK }\IeC {\CYRS }, 4-5 --- \IeC {\cyrr }\IeC {\cyra }\IeC {\cyrs }\IeC {\cyrsh }\IeC {\cyri }\IeC {\cyrr }\IeC {\cyre }\IeC {\cyrn }\IeC {\cyri }\IeC {\cyre } \IeC {\cyrv } \IeC {\cyrt }\IeC {\cyru }\IeC {\cyrr }\IeC {\cyrb }\IeC {\cyri }\IeC {\cyrn }\IeC {\cyre }, 5-6 --- \IeC {\cyrs }\IeC {\cyro }\IeC {\cyrp }\IeC {\cyrl }\IeC {\cyro } \relax }}{72}}
\@writefile{toc}{\contentsline {section}{\numberline {16}}{72}}
\@writefile{lof}{\contentsline {figure}{\numberline {67}{\ignorespaces \IeC {\cyrr }\IeC {\cyra }\IeC {\cyrk }\IeC {\cyre }\IeC {\cyrt }\IeC {\cyrn }\IeC {\cyro }-\IeC {\cyrt }\IeC {\cyru }\IeC {\cyrr }\IeC {\cyrb }\IeC {\cyri }\IeC {\cyrn }\IeC {\cyrn }\IeC {\cyrery }\IeC {\cyrishrt } \IeC {\cyrd }\IeC {\cyrv }\IeC {\cyri }\IeC {\cyrg }\IeC {\cyra }\IeC {\cyrt }\IeC {\cyre }\IeC {\cyrl }\IeC {\cyrsftsn }\relax }}{73}}
\@writefile{lot}{\contentsline {table}{\numberline {5}{\ignorespaces \IeC {\CYRS }\IeC {\cyrr }\IeC {\cyra }\IeC {\cyrv }\IeC {\cyrn }\IeC {\cyre }\IeC {\cyrn }\IeC {\cyri }\IeC {\cyre } \IeC {\cyrt }\IeC {\cyrr }\IeC {\cyre }\IeC {\cyrh } \IeC {\cyrs }\IeC {\cyrh }\IeC {\cyre }\IeC {\cyrm }, $ P_{0, 1 \IeC {\cyrs }\IeC {\cyrh }\IeC {\cyre }\IeC {\cyrm }\IeC {\cyrery }} =40 \IeC {\cyrt }\IeC {\cyro }\IeC {\cyrn }\IeC {\cyrn }\IeC {\cyrs }\IeC {\cyri }\IeC {\cyrl }\IeC {\cyrery } $, $ \pi _\IeC {\cyrk } = 3 $, $ \ensuremath  {\alpha }_\ensuremath  {\Sigma }= 1$\relax }}{73}}
\@writefile{lof}{\contentsline {figure}{\numberline {68}{\ignorespaces \IeC {\CYRC }\IeC {\cyri }\IeC {\cyrk }\IeC {\cyrl } \IeC {\CYRR }\IeC {\CYRT }\IeC {\CYRD }\relax }}{74}}
\@writefile{toc}{\contentsline {subsection}{\numberline {16.1}\IeC {\CYRS }\IeC {\cyrh }\IeC {\cyre }\IeC {\cyrm }\IeC {\cyra } \IeC {\cyrr }\IeC {\cyra }\IeC {\cyrk }\IeC {\cyre }\IeC {\cyrt }\IeC {\cyrn }\IeC {\cyro }\IeC {\cyrp }\IeC {\cyrr }\IeC {\cyrya }\IeC {\cyrm }\IeC {\cyro }\IeC {\cyrt }\IeC {\cyro }\IeC {\cyrch }\IeC {\cyrn }\IeC {\cyro }\IeC {\cyrg }\IeC {\cyro } \IeC {\cyrd }\IeC {\cyrv }\IeC {\cyri }\IeC {\cyrg }\IeC {\cyra }\IeC {\cyrt }\IeC {\cyre }\IeC {\cyrl }\IeC {\cyrya } \IeC {\cyrb }\IeC {\cyre }\IeC {\cyrz } \IeC {\cyrs }\IeC {\cyrm }\IeC {\cyre }\IeC {\cyrsh }\IeC {\cyre }\IeC {\cyrn }\IeC {\cyri }\IeC {\cyrya } \IeC {\cyrp }\IeC {\cyro }\IeC {\cyrt }\IeC {\cyro }\IeC {\cyrk }\IeC {\cyro }\IeC {\cyrv }}{75}}
\@writefile{lof}{\contentsline {figure}{\numberline {69}{\ignorespaces rpd161\relax }}{75}}
\providecommand*\caption@xref[2]{\@setref\relax\@undefined{#1}}
\newlabel{fig:rpd161}{{69}{75}}
\@writefile{toc}{\contentsline {subsection}{\numberline {16.2}\IeC {\CYRT }\IeC {\cyru }\IeC {\cyrr }\IeC {\cyrb }\IeC {\cyro }\IeC {\cyrp }\IeC {\cyrr }\IeC {\cyrya }\IeC {\cyrm }\IeC {\cyro }\IeC {\cyrt }\IeC {\cyro }\IeC {\cyrch }\IeC {\cyrn }\IeC {\cyrery }\IeC {\cyre } \IeC {\cyrd }\IeC {\cyrv }\IeC {\cyri }\IeC {\cyrg }\IeC {\cyra }\IeC {\cyrt }\IeC {\cyre }\IeC {\cyrl }\IeC {\cyri }}{75}}
\@writefile{toc}{\contentsline {subsection}{\numberline {16.3}\IeC {\CYRZH }\IeC {\cyri }\IeC {\cyrd }\IeC {\cyrk }\IeC {\cyro }\IeC {\cyrs }\IeC {\cyrt }\IeC {\cyrn }\IeC {\cyro }\IeC {\cyrishrt } \IeC {\cyrv }\IeC {\cyro }\IeC {\cyrz }\IeC {\cyrd }\IeC {\cyru }\IeC {\cyrsh }\IeC {\cyrn }\IeC {\cyro }-\IeC {\cyrr }\IeC {\cyre }\IeC {\cyra }\IeC {\cyrk }\IeC {\cyrt }\IeC {\cyri }\IeC {\cyrv }\IeC {\cyrn }\IeC {\cyrery }\IeC {\cyrishrt } \IeC {\cyrd }\IeC {\cyrv }\IeC {\cyri }\IeC {\cyrg }\IeC {\cyra }\IeC {\cyrt }\IeC {\cyre }\IeC {\cyrl }\IeC {\cyrsftsn } (\IeC {\CYRZH }\IeC {\CYRV }\IeC {\CYRR }\IeC {\CYRD })}{75}}
\@writefile{lof}{\contentsline {figure}{\numberline {70}{\ignorespaces \IeC {\CYRT }\IeC {\cyru }\IeC {\cyrr }\IeC {\cyrb }\IeC {\cyro }\IeC {\cyrp }\IeC {\cyrr }\IeC {\cyrya }\IeC {\cyrm }\IeC {\cyro }\IeC {\cyrt }\IeC {\cyro }\IeC {\cyrch }\IeC {\cyrn }\IeC {\cyrery }\IeC {\cyrishrt } \IeC {\cyrd }\IeC {\cyrv }\IeC {\cyri }\IeC {\cyrg }\IeC {\cyra }\IeC {\cyrt }\IeC {\cyre }\IeC {\cyrl }\IeC {\cyrsftsn } \IeC {\cyrs }\IeC {\cyro } \IeC {\cyrs }\IeC {\cyro }\IeC {\cyrv }\IeC {\cyrm }\IeC {\cyre }\IeC {\cyrshch }\IeC {\cyre }\IeC {\cyrn }\IeC {\cyrn }\IeC {\cyrery }\IeC {\cyrm }\IeC {\cyri } \IeC {\cyrk }\IeC {\cyra }\IeC {\cyrm }\IeC {\cyre }\IeC {\cyrr }\IeC {\cyra }\IeC {\cyrm }\IeC {\cyri } (\IeC {\CYRF }\IeC {\CYRK } \IeC {\CYRT }\IeC {\CYRR }\IeC {\CYRD } \IeC {\cyri } \IeC {\CYRK }\IeC {\CYRS } \IeC {\CYRP }\IeC {\CYRV }\IeC {\CYRR }\IeC {\CYRD })\relax }}{76}}
\newlabel{fig:turbopryam1}{{70}{76}}
\@writefile{toc}{\contentsline {subsection}{\numberline {16.4}\IeC {\CYRG }\IeC {\CYRP }\IeC {\CYRV }\IeC {\CYRR }\IeC {\CYRD }. \IeC {\CYRN }\IeC {\cyre }\IeC {\cyro }\IeC {\cyrb }\IeC {\cyrh }\IeC {\cyro }\IeC {\cyrd }\IeC {\cyri }\IeC {\cyrm }\IeC {\cyro }\IeC {\cyrs }\IeC {\cyrt }\IeC {\cyrsftsn } \IeC {\cyrp }\IeC {\cyre }\IeC {\cyrr }\IeC {\cyre }\IeC {\cyrh }\IeC {\cyro }\IeC {\cyrd }\IeC {\cyra } \IeC {\cyrn }\IeC {\cyra } \IeC {\cyrs }\IeC {\cyrh }\IeC {\cyre }\IeC {\cyrm }\IeC {\cyru } \IeC {\CYRG }\IeC {\CYRP }\IeC {\CYRV }\IeC {\CYRR }\IeC {\CYRD } \IeC {\cyrp }\IeC {\cyrr }\IeC {\cyri } $ M>5 $}{76}}
\@writefile{lof}{\contentsline {figure}{\numberline {71}{\ignorespaces 1 --- \IeC {\CYRV }\IeC {\CYRZ }\IeC {\CYRU }, 2 --- \IeC {\cyrt }\IeC {\cyre }\IeC {\cyrp }\IeC {\cyrl }\IeC {\cyro }\IeC {\cyro }\IeC {\cyrb }\IeC {\cyrm }\IeC {\cyre }\IeC {\cyrn }\IeC {\cyrn }\IeC {\cyri }\IeC {\cyrk }, 3 --- \IeC {\cyrs }\IeC {\cyrzh }\IeC {\cyri }\IeC {\cyrzh }\IeC {\cyre }\IeC {\cyrn }\IeC {\cyrn }\IeC {\cyrery }\IeC {\cyrishrt } \IeC {\cyrv }\IeC {\cyro }\IeC {\cyrz }\IeC {\cyrd }\IeC {\cyru }\IeC {\cyrh }, 4 --- \IeC {\cyrt }\IeC {\cyru }\IeC {\cyrr }\IeC {\cyrb }\IeC {\cyri }\IeC {\cyrn }\IeC {\cyra }, 5 --- \IeC {\cyrr }\IeC {\cyra }\IeC {\cyrs }\IeC {\cyrp }\IeC {\cyrr }\IeC {\cyre }\IeC {\cyrd }\IeC {\cyre }\IeC {\cyrl }\IeC {\cyri }\IeC {\cyrt }\IeC {\cyre }\IeC {\cyrl }\IeC {\cyrsftsn }, 6 --- \IeC {\cyrn }\IeC {\cyra }\IeC {\cyrs }\IeC {\cyro }\IeC {\cyrs }\IeC {\cyrery }, 7 --- \IeC {\cyrk }\IeC {\cyra }\IeC {\cyrm }\IeC {\cyre }\IeC {\cyrr }\IeC {\cyra } \IeC {\cyrs }\IeC {\cyrg }\IeC {\cyro }\IeC {\cyrr }\IeC {\cyra }\IeC {\cyrn }\IeC {\cyri }\IeC {\cyrya }\relax }}{77}}
\newlabel{fig:jvrd}{{71}{77}}
\@writefile{lot}{\contentsline {table}{\numberline {6}{\ignorespaces $ \ensuremath  {\alpha }=1 $\relax }}{77}}
\@writefile{lof}{\contentsline {figure}{\numberline {72}{\ignorespaces \IeC {\CYRS }\IeC {\cyrh }\IeC {\cyre }\IeC {\cyrm }\IeC {\cyra } \IeC {\cyrd }\IeC {\cyrv }\IeC {\cyri }\IeC {\cyrg }\IeC {\cyra }\IeC {\cyrt }\IeC {\cyre }\IeC {\cyrl }\IeC {\cyrya } RB-545\relax }}{78}}
\newlabel{fig:jvrd3}{{72}{78}}
\@writefile{lof}{\contentsline {figure}{\numberline {73}{\ignorespaces gpvrd1\relax }}{78}}
\newlabel{fig:gpvrd1}{{73}{78}}
\@writefile{lof}{\contentsline {figure}{\numberline {74}{\ignorespaces gpvrd2\relax }}{79}}
\newlabel{fig:gpvrd2}{{74}{79}}
\@writefile{lof}{\contentsline {figure}{\numberline {75}{\ignorespaces gpvrd3\relax }}{79}}
\newlabel{fig:gpvrd3}{{75}{79}}
\@writefile{lof}{\contentsline {figure}{\numberline {76}{\ignorespaces gpvrd4\relax }}{80}}
\newlabel{fig:gpvrd4}{{76}{80}}
\@writefile{lof}{\contentsline {figure}{\numberline {77}{\ignorespaces gpvrd5\relax }}{80}}
\newlabel{fig:gpvrd5}{{77}{80}}
