\relax 
\providecommand{\transparent@use}[1]{}
\catcode `"\active 
\babel@aux{russian}{}
\@writefile{lof}{\contentsline {figure}{\numberline {1}{\ignorespaces ris11\relax }}{1}}
\providecommand*\caption@xref[2]{\@setref\relax\@undefined{#1}}
\newlabel{fig:ris11}{{1}{1}}
\@writefile{lof}{\contentsline {figure}{\numberline {2}{\ignorespaces ris12\relax }}{1}}
\newlabel{fig:ris12}{{2}{1}}
\@writefile{lof}{\contentsline {figure}{\numberline {3}{\ignorespaces ris23\relax }}{3}}
\newlabel{fig:ris23}{{3}{3}}
\@writefile{lof}{\contentsline {figure}{\numberline {4}{\ignorespaces ris24\relax }}{3}}
\newlabel{fig:ris24}{{4}{3}}
\@writefile{lof}{\contentsline {figure}{\numberline {5}{\ignorespaces ris25\relax }}{3}}
\newlabel{fig:ris25}{{5}{3}}
\@writefile{lof}{\contentsline {figure}{\numberline {6}{\ignorespaces \IeC {\CYRV }\IeC {\cyre }\IeC {\cyre }\IeC {\cyrr }\IeC {\cyrn }\IeC {\cyra }\IeC {\cyrya } \IeC {\cyrs }\IeC {\cyrh }\IeC {\cyre }\IeC {\cyrm }\IeC {\cyra } \IeC {\cyrs }\IeC {\cyrb }\IeC {\cyro }\IeC {\cyrr }\IeC {\cyrk }\IeC {\cyri }\relax }}{4}}
\@writefile{lof}{\contentsline {figure}{\numberline {7}{\ignorespaces \IeC {\CYRL }\IeC {\cyri }\IeC {\cyrn }\IeC {\cyre }\IeC {\cyrn }\IeC {\cyra }\IeC {\cyrya } \IeC {\cyrs }\IeC {\cyrh }\IeC {\cyre }\IeC {\cyrm }\IeC {\cyra } \IeC {\cyrs }\IeC {\cyrb }\IeC {\cyro }\IeC {\cyrr }\IeC {\cyrk }\IeC {\cyri }\relax }}{4}}
\@writefile{lof}{\contentsline {figure}{\numberline {8}{\ignorespaces \IeC {\CYRG }\IeC {\cyrr }\IeC {\cyra }\IeC {\cyrf }\IeC {\cyri }\IeC {\cyrk } \IeC {\cyrz }\IeC {\cyra }\IeC {\cyrg }\IeC {\cyrr }\IeC {\cyru }\IeC {\cyrz }\IeC {\cyrk }\IeC {\cyri } \IeC {\cyrr }\IeC {\cyra }\IeC {\cyrb }\IeC {\cyro }\IeC {\cyrch }\IeC {\cyri }\IeC {\cyrh } \IeC {\cyrm }\IeC {\cyre }\IeC {\cyrs }\IeC {\cyrt }\relax }}{5}}
\@writefile{lof}{\contentsline {figure}{\numberline {9}{\ignorespaces \IeC {\CYRC }\IeC {\cyri }\IeC {\cyrk }\IeC {\cyrl }\IeC {\cyro }\IeC {\cyrv }\IeC {\cyro }\IeC {\cyrishrt } \IeC {\cyrg }\IeC {\cyrr }\IeC {\cyra }\IeC {\cyrf }\IeC {\cyri }\IeC {\cyrk }\relax }}{5}}
\@writefile{lof}{\contentsline {figure}{\numberline {10}{\ignorespaces ris26\relax }}{6}}
\newlabel{fig:ris26}{{10}{6}}
\@writefile{lof}{\contentsline {figure}{\numberline {11}{\ignorespaces \IeC {\CYRO }\IeC {\cyrd }\IeC {\cyri }\IeC {\cyrn } \IeC {\cyrc }\IeC {\cyre }\IeC {\cyrh } \IeC {\cyrd }\IeC {\cyrl }\IeC {\cyrya } 2-\IeC {\cyrh } \IeC {\cyrt }\IeC {\cyri }\IeC {\cyrp }\IeC {\cyro }\IeC {\cyrv } \IeC {\cyrd }\IeC {\cyre }\IeC {\cyrt }\IeC {\cyra }\IeC {\cyrl }\IeC {\cyre }\IeC {\cyrishrt }\relax }}{7}}
\@writefile{lof}{\contentsline {figure}{\numberline {12}{\ignorespaces \relax }}{8}}
