<?xml version="1.0" encoding="UTF-8" standalone="no"?>
<!-- Created with Inkscape (http://www.inkscape.org/) -->

<svg
   xmlns:dc="http://purl.org/dc/elements/1.1/"
   xmlns:cc="http://creativecommons.org/ns#"
   xmlns:rdf="http://www.w3.org/1999/02/22-rdf-syntax-ns#"
   xmlns:svg="http://www.w3.org/2000/svg"
   xmlns="http://www.w3.org/2000/svg"
   xmlns:sodipodi="http://sodipodi.sourceforge.net/DTD/sodipodi-0.dtd"
   xmlns:inkscape="http://www.inkscape.org/namespaces/inkscape"
   width="453.5433"
   height="340.15747"
   id="svg2"
   sodipodi:version="0.32"
   inkscape:version="0.92.3 (2405546, 2018-03-11)"
   sodipodi:docname="11.svg"
   version="1.0">
  <defs
     id="defs4" />
  <sodipodi:namedview
     id="base"
     pagecolor="#ffffff"
     bordercolor="#666666"
     borderopacity="1.0"
     inkscape:pageopacity="0.0"
     inkscape:pageshadow="2"
     inkscape:zoom="1.540463"
     inkscape:cx="200.15209"
     inkscape:cy="166.31909"
     inkscape:document-units="mm"
     inkscape:current-layer="layer1"
     inkscape:window-width="1360"
     inkscape:window-height="739"
     inkscape:window-x="0"
     inkscape:window-y="0"
     width="12.8cm"
     height="9.6cm"
     units="cm"
     showgrid="true"
     grid_units="mm"
     inkscape:object-paths="false"
     inkscape:grid-points="true"
     inkscape:grid-bbox="true"
     inkscape:guide-points="true"
     showguides="true"
     inkscape:guide-bbox="true"
     inkscape:window-maximized="0">
    <sodipodi:guide
       orientation="vertical"
       position="56.476527"
       id="guide3573"
       inkscape:locked="false" />
    <sodipodi:guide
       orientation="horizontal"
       position="11.035643"
       id="guide3579"
       inkscape:locked="false" />
    <sodipodi:guide
       orientation="horizontal"
       position="24.018753"
       id="guide3886"
       inkscape:locked="false" />
    <sodipodi:guide
       orientation="horizontal"
       position="285.62841"
       id="guide3988"
       inkscape:locked="false" />
    <sodipodi:guide
       orientation="horizontal"
       position="303.15561"
       id="guide4081"
       inkscape:locked="false" />
    <inkscape:grid
       id="GridFromPre046Settings"
       type="xygrid"
       originx="0px"
       originy="0px"
       spacingx="2mm"
       spacingy="2mm"
       color="#3f3fff"
       empcolor="#3f3fff"
       opacity="0.15"
       empopacity="0.38"
       empspacing="5" />
  </sodipodi:namedview>
  <metadata
     id="metadata7">
    <rdf:RDF>
      <cc:Work
         rdf:about="">
        <dc:format>image/svg+xml</dc:format>
        <dc:type
           rdf:resource="http://purl.org/dc/dcmitype/StillImage" />
        <dc:title></dc:title>
      </cc:Work>
    </rdf:RDF>
  </metadata>
  <g
     inkscape:label="Layer 1"
     inkscape:groupmode="layer"
     id="layer1"
     style="display:inline">
    <path
       style="fill:none;stroke:#000000;stroke-width:1px;stroke-linecap:butt;stroke-linejoin:miter;stroke-opacity:1"
       d="M 56.476527,52.913376 V 287.24408"
       id="path176"
       inkscape:connector-curvature="0" />
    <rect
       id="rect180"
       width="7.5590553"
       height="232.71503"
       x="68.031494"
       y="54.52906" />
    <path
       style="fill:none;stroke:#000000;stroke-width:1px;stroke-linecap:butt;stroke-linejoin:miter;stroke-opacity:1"
       d="M 90.708661,54.529061 V 287.24408"
       id="path184"
       inkscape:connector-curvature="0" />
    <path
       style="fill:none;stroke:#000000;stroke-width:1px;stroke-linecap:butt;stroke-linejoin:miter;stroke-opacity:1"
       d="m 90.708661,54.529061 c 37.795279,43.738646 52.913389,66.415809 50.158079,114.251359 -1.812,31.45849 -27.48091,95.7865 -50.158079,118.46366"
       id="path186"
       inkscape:connector-curvature="0"
       sodipodi:nodetypes="csc" />
    <text
       xml:space="preserve"
       style="font-size:13.22834682px;line-height:1.25"
       x="120.94488"
       y="83.149597"
       id="text190"><tspan
         sodipodi:role="line"
         id="tspan188"
         x="120.94488"
         y="83.149597">$q_v$</tspan></text>
    <path
       style="fill:none;stroke:#000000;stroke-width:1px;stroke-linecap:butt;stroke-linejoin:miter;stroke-opacity:1"
       d="M 90.708661,54.529061 H 188.97638"
       id="path192"
       inkscape:connector-curvature="0" />
    <path
       style="fill:none;stroke:#000000;stroke-width:1px;stroke-linecap:butt;stroke-linejoin:miter;stroke-opacity:1"
       d="M 90.708661,287.24408 H 188.97638"
       id="path194"
       inkscape:connector-curvature="0" />
    <path
       style="fill:none;stroke:#000000;stroke-width:1px;stroke-linecap:butt;stroke-linejoin:miter;stroke-opacity:1"
       d="m 188.97638,52.913376 c -7.2005,75.950104 87.43706,159.846874 68.03149,234.330704"
       id="path196"
       inkscape:connector-curvature="0" />
    <path
       style="fill:none;stroke:#000000;stroke-width:1px;stroke-linecap:butt;stroke-linejoin:miter;stroke-opacity:1"
       d="m 188.97638,287.24408 h 151.1811"
       id="path198"
       inkscape:connector-curvature="0" />
    <path
       style="fill:none;stroke:#000000;stroke-width:1px;stroke-linecap:butt;stroke-linejoin:miter;stroke-opacity:1"
       d="M 257.00787,287.24408 C 325.03937,219.21259 295.36384,120.51087 188.97638,54.529061 215.06613,123.68459 313.18497,216.44145 257.00787,287.24408"
       id="path200"
       inkscape:connector-curvature="0"
       sodipodi:nodetypes="ccc" />
    <path
       style="fill:none;stroke:#000000;stroke-width:1px;stroke-linecap:butt;stroke-linejoin:miter;stroke-opacity:1"
       d="M 264.56693,120.94487 279.68504,90.708652"
       id="path204"
       inkscape:connector-curvature="0" />
    <path
       style="fill:none;stroke:#000000;stroke-width:1px;stroke-linecap:butt;stroke-linejoin:miter;stroke-opacity:1"
       d="M 309.92126,90.708652 H 279.68504"
       id="path206"
       inkscape:connector-curvature="0" />
    <path
       style="fill:none;stroke:#000000;stroke-width:1px;stroke-linecap:butt;stroke-linejoin:miter;stroke-opacity:1"
       d="m 226.77165,128.50393 22.67717,-45.354333 30.23622,0"
       id="path208"
       inkscape:connector-curvature="0" />
    <path
       style="fill:none;stroke:#000000;stroke-width:1px;stroke-linecap:butt;stroke-linejoin:miter;stroke-opacity:1"
       d="M 188.97638,90.708652 173.85827,120.94487"
       id="path210"
       inkscape:connector-curvature="0" />
    <path
       style="fill:none;stroke:#000000;stroke-width:1px;stroke-linecap:butt;stroke-linejoin:miter;stroke-opacity:1"
       d="m 151.1811,120.94487 h 22.67717"
       id="path212"
       inkscape:connector-curvature="0" />
    <text
       xml:space="preserve"
       style="font-size:13.22834682px;line-height:1.25"
       x="146.13187"
       y="114.76289"
       id="text216"><tspan
         sodipodi:role="line"
         id="tspan214"
         x="146.13187"
         y="114.76289">$T_z$</tspan></text>
    <text
       xml:space="preserve"
       style="font-size:13.22834682px;line-height:1.25"
       x="245.77664"
       y="75.375839"
       id="text220"><tspan
         sodipodi:role="line"
         id="tspan218"
         x="245.77664"
         y="75.375839">$T_5$</tspan></text>
    <text
       xml:space="preserve"
       style="font-size:13.22834682px;line-height:1.25"
       x="294.80316"
       y="83.149597"
       id="text224"><tspan
         sodipodi:role="line"
         id="tspan222"
         x="294.80316"
         y="83.149597">$T_c$</tspan></text>
    <path
       style="fill:none;stroke:#000000;stroke-width:1px;stroke-linecap:butt;stroke-linejoin:miter;stroke-opacity:1"
       d="M 7.5590551,54.529061 H 52.913386"
       id="path226"
       inkscape:connector-curvature="0" />
    <path
       style="fill:none;stroke:#000000;stroke-width:1px;stroke-linecap:butt;stroke-linejoin:miter;stroke-opacity:1"
       d="m 15.11811,287.24408 c 1.263558,-1.05628 1.263558,-1.05628 0,0"
       id="path228"
       inkscape:connector-curvature="0" />
    <path
       style="fill:none;stroke:#000000;stroke-width:1px;stroke-linecap:butt;stroke-linejoin:miter;stroke-opacity:1"
       d="M 52.913386,287.24408 H 15.11811"
       id="path230"
       inkscape:connector-curvature="0" />
    <path
       style="fill:none;stroke:#000000;stroke-width:1px;stroke-linecap:butt;stroke-linejoin:miter;stroke-opacity:1"
       d="M 15.11811,54.529061 V 287.24408"
       id="path232"
       inkscape:connector-curvature="0" />
    <path
       style="fill:none;stroke:#000000;stroke-width:1px;stroke-linecap:butt;stroke-linejoin:miter;stroke-opacity:1"
       d="M 56.476527,166.2992 H 15.11811 l 0,-7.55905"
       id="path234"
       inkscape:connector-curvature="0" />
    <path
       style="fill:none;stroke:#000000;stroke-width:1px;stroke-linecap:butt;stroke-linejoin:miter;stroke-opacity:1"
       d="M 7.5590551,173.85826 C 12.419951,167.7363 18.791604,164.46608 22.677165,158.74015"
       id="path240"
       inkscape:connector-curvature="0" />
    <text
       xml:space="preserve"
       style="font-size:13.22834682px;line-height:1.25"
       x="22.677164"
       y="98.267708"
       id="text244"><tspan
         sodipodi:role="line"
         id="tspan242"
         x="22.677164"
         y="98.267708">H</tspan></text>
    <text
       xml:space="preserve"
       style="font-size:13.22834682px;line-height:1.25"
       x="22.677164"
       y="226.77164"
       id="text248"><tspan
         sodipodi:role="line"
         id="tspan246"
         x="22.677164"
         y="226.77164">H</tspan></text>
    <path
       style="fill:none;stroke:#000000;stroke-width:1px;stroke-linecap:butt;stroke-linejoin:miter;stroke-opacity:1"
       d="M 7.5590551,294.80314 C 10.497507,285.99318 20.984329,280.64577 22.677165,279.68503"
       id="path250"
       inkscape:connector-curvature="0" />
    <path
       style="fill:none;stroke:#000000;stroke-width:1px;stroke-linecap:butt;stroke-linejoin:miter;stroke-opacity:1"
       d="M 7.5590551,60.472431 C 14.119448,56.881298 19.044399,49.572736 22.677165,45.354321"
       id="path252"
       inkscape:connector-curvature="0" />
    <path
       style="fill:none;stroke:#000000;stroke-width:1px;stroke-linecap:butt;stroke-linejoin:miter;stroke-opacity:1"
       d="M 56.476527,166.2992 H 317.48031"
       id="path254"
       inkscape:connector-curvature="0" />
    <text
       xml:space="preserve"
       style="font-size:13.22834682px;line-height:1.25"
       x="181.41731"
       y="45.354321"
       id="text258"><tspan
         sodipodi:role="line"
         id="tspan256"
         x="181.41731"
         y="45.354321">$T_1$</tspan></text>
    <text
       xml:space="preserve"
       style="font-size:13.22834682px;line-height:1.25"
       x="255.17178"
       y="301.68848"
       id="text262"><tspan
         sodipodi:role="line"
         id="tspan260"
         x="255.17178"
         y="301.68848">$T_2$</tspan><tspan
         sodipodi:role="line"
         x="255.17178"
         y="318.22391"
         id="tspan264" /></text>
    <path
       style="fill:none;stroke:#000000;stroke-width:1px;stroke-linecap:butt;stroke-linejoin:miter;stroke-opacity:1"
       d="M 188.97638,54.529061 V 287.24408"
       id="path266"
       inkscape:connector-curvature="0" />
    <path
       style="fill:none;stroke:#000000;stroke-width:1px;stroke-linecap:butt;stroke-linejoin:miter;stroke-opacity:1"
       d="m 188.97638,287.24408 v 30.23623"
       id="path268"
       inkscape:connector-curvature="0" />
    <path
       style="fill:none;stroke:#000000;stroke-width:1px;stroke-linecap:butt;stroke-linejoin:miter;stroke-opacity:1"
       d="m 257.00787,287.24408 v 28.89464"
       id="path270"
       inkscape:connector-curvature="0" />
    <path
       style="fill:none;stroke:#000000;stroke-width:1px;stroke-linecap:butt;stroke-linejoin:miter;stroke-opacity:1"
       d="m 181.41732,316.13872 h 83.14961"
       id="path272"
       inkscape:connector-curvature="0" />
    <path
       style="fill:none;stroke:#000000;stroke-width:1px;stroke-linecap:butt;stroke-linejoin:miter;stroke-opacity:1"
       d="m 249.44882,325.03936 c 2.67089,-7.24953 11.355,-13.74546 15.11811,-15.11811"
       id="path276"
       inkscape:connector-curvature="0" />
    <path
       style="fill:none;stroke:#000000;stroke-width:1px;stroke-linecap:butt;stroke-linejoin:miter;stroke-opacity:1"
       d="m 181.41732,317.48031 c 4.50737,2.72243 10.31438,-4.96238 15.11811,-7.55906"
       id="path278"
       inkscape:connector-curvature="0" />
    <text
       xml:space="preserve"
       style="font-size:13.22834682px;line-height:1.25"
       x="188.01389"
       y="309.69174"
       id="text282"><tspan
         sodipodi:role="line"
         id="tspan280"
         x="188.01389"
         y="309.69174">$\D T_{1-2}</tspan></text>
    <path
       style="fill:none;stroke:#000000;stroke-width:1px;stroke-linecap:butt;stroke-linejoin:miter;stroke-opacity:1"
       d="M 287.24409,188.97637 H 188.97638"
       id="path284"
       inkscape:connector-curvature="0" />
    <path
       style="fill:none;stroke:#000000;stroke-width:1px;stroke-linecap:butt;stroke-linejoin:miter;stroke-opacity:1"
       d="m 272.12598,234.3307 h -83.1496"
       id="path286"
       inkscape:connector-curvature="0" />
    <text
       xml:space="preserve"
       style="font-size:13.22834682px;line-height:1.25"
       x="162.77934"
       y="229.45482"
       id="text290"><tspan
         sodipodi:role="line"
         x="162.77934"
         y="229.45482"
         id="tspan292">$z_{extr,5}$</tspan></text>
    <text
       xml:space="preserve"
       style="font-size:13.22834682px;line-height:1.25;display:inline"
       x="162.72885"
       y="183.92017"
       id="text290-1"><tspan
         sodipodi:role="line"
         x="162.72885"
         y="183.92017"
         id="tspan292-0">$z_{extr,c}$</tspan></text>
    <text
       xml:space="preserve"
       style="font-size:13.22834682px;line-height:1.25"
       x="132.39886"
       y="49.249252"
       id="text316"><tspan
         sodipodi:role="line"
         x="132.39886"
         y="49.249252"
         id="tspan318">$z=0$</tspan></text>
  </g>
  <g
     inkscape:groupmode="layer"
     id="layer2"
     inkscape:label="Layer 2" />
</svg>
