<?xml version="1.0" encoding="UTF-8" standalone="no"?>
<!-- Created with Inkscape (http://www.inkscape.org/) -->

<svg
   xmlns:dc="http://purl.org/dc/elements/1.1/"
   xmlns:cc="http://creativecommons.org/ns#"
   xmlns:rdf="http://www.w3.org/1999/02/22-rdf-syntax-ns#"
   xmlns:svg="http://www.w3.org/2000/svg"
   xmlns="http://www.w3.org/2000/svg"
   xmlns:sodipodi="http://sodipodi.sourceforge.net/DTD/sodipodi-0.dtd"
   xmlns:inkscape="http://www.inkscape.org/namespaces/inkscape"
   width="240mm"
   height="120mm"
   viewBox="0 0 240 120"
   version="1.1"
   id="svg8"
   inkscape:version="0.92.4 (unknown)"
   sodipodi:docname="ris23.svg">
  <defs
     id="defs2">
    <marker
       markerWidth="0.911"
       markerHeight="1.690"
       refX="0"
       refY="0"
       orient="auto-start-reverse"
       id="marker-arrow-0.5308">
      <g
         id="g914"
         transform="scale(2.153529264004019)">
        <path
           id="path912"
           inkscape:connector-curvature="0"
           style="fill:none;stroke:#000000;stroke-width:0.6;stroke-linecap:round;stroke-linejoin:round;stroke-miterlimit:10;stroke-dasharray:none;stroke-opacity:1"
           d="M -1.55415,2.0722 C -1.42464,1.29512 0,0.1295 0.38852,0 0,-0.1295 -1.42464,-1.29512 -1.55415,-2.0722" />
      </g>
    </marker>
    <marker
       markerWidth="0.911"
       markerHeight="1.690"
       refX="0"
       refY="0"
       orient="auto-start-reverse"
       id="marker-arrow-0.5308-3">
      <g
         id="g982"
         transform="scale(2.153529264004019)">
        <path
           id="path980"
           inkscape:connector-curvature="0"
           style="fill:none;stroke:#000000;stroke-width:0.6;stroke-linecap:round;stroke-linejoin:round;stroke-miterlimit:10;stroke-dasharray:none;stroke-opacity:1"
           d="M -1.55415,2.0722 C -1.42464,1.29512 0,0.1295 0.38852,0 0,-0.1295 -1.42464,-1.29512 -1.55415,-2.0722" />
      </g>
    </marker>
  </defs>
  <sodipodi:namedview
     id="base"
     pagecolor="#ffffff"
     bordercolor="#666666"
     borderopacity="1.0"
     inkscape:pageopacity="0.0"
     inkscape:pageshadow="2"
     inkscape:zoom="5.6250281"
     inkscape:cx="178.15183"
     inkscape:cy="302.95427"
     inkscape:document-units="mm"
     inkscape:current-layer="layer1"
     showgrid="false"
     showborder="true"
     width="200mm"
     showguides="true"
     inkscape:guide-bbox="true"
     inkscape:window-width="2556"
     inkscape:window-height="1383"
     inkscape:window-x="0"
     inkscape:window-y="20"
     inkscape:window-maximized="0">
    <inkscape:grid
       type="xygrid"
       id="grid815"
       units="mm"
       spacingx="10"
       spacingy="10"
       empspacing="4"
       dotted="false" />
  </sodipodi:namedview>
  <metadata
     id="metadata5">
    <rdf:RDF>
      <cc:Work
         rdf:about="">
        <dc:format>image/svg+xml</dc:format>
        <dc:type
           rdf:resource="http://purl.org/dc/dcmitype/StillImage" />
        <dc:title />
      </cc:Work>
    </rdf:RDF>
  </metadata>
  <g
     inkscape:label="Layer 1"
     inkscape:groupmode="layer"
     id="layer1"
     transform="translate(0,-177)">
    <text
       id="text818"
       xml:space="preserve"
       style="font-size:2.64583325px;font-family:'Iosevka Term';-inkscape-font-specification:'Iosevka Term, Normal';fill:#000000;fill-opacity:1;stroke:none;stroke-width:0.26458332"
       y="212.13281"
       x="40.844765"><tspan
         id="tspan816"
         sodipodi:role="line"
         x="40.844765"
         y="212.13281"
         style="stroke-width:0.26458332">$1$</tspan></text>
    <text
       id="text832"
       xml:space="preserve"
       style="font-size:2.64583325px;font-family:'Iosevka Term';-inkscape-font-specification:'Iosevka Term, Normal';fill:#000000;fill-opacity:1;stroke:none;stroke-width:0.26458332"
       y="215.47929"
       x="42.42067"><tspan
         id="tspan830"
         sodipodi:role="line"
         x="42.42067"
         y="215.47929"
         style="stroke-width:0.26458332">2</tspan></text>
    <text
       id="text846"
       xml:space="preserve"
       style="font-size:2.64583325px;font-family:'Iosevka Term';-inkscape-font-specification:'Iosevka Term, Normal';fill:#000000;fill-opacity:1;stroke:none;stroke-width:0.26458332"
       y="218.61203"
       x="42.437347"><tspan
         id="tspan844"
         sodipodi:role="line"
         x="42.437347"
         y="218.61203"
         style="stroke-width:0.26458332">3</tspan></text>
    <text
       id="text860"
       xml:space="preserve"
       style="font-size:2.64583325px;font-family:'Iosevka Term';-inkscape-font-specification:'Iosevka Term, Normal';fill:#000000;fill-opacity:1;stroke:none;stroke-width:0.26458332"
       y="221.81183"
       x="42.535942"><tspan
         id="tspan858"
         sodipodi:role="line"
         x="42.535942"
         y="221.81183"
         style="stroke-width:0.26458332">4</tspan></text>
    <path
       style="fill:none;stroke:#000000;stroke-width:0.26458332px;stroke-linecap:butt;stroke-linejoin:miter;stroke-opacity:1"
       d="m 46.519396,211.6282 h 3.857019"
       id="path872"
       inkscape:connector-curvature="0" />
    <path
       style="fill:none;stroke:#000000;stroke-width:0.26458332px;stroke-linecap:butt;stroke-linejoin:miter;stroke-opacity:1"
       d="m 50.611598,214.96782 h 3.951091"
       id="path874"
       inkscape:connector-curvature="0" />
    <path
       style="fill:none;stroke:#000000;stroke-width:0.26458332px;stroke-linecap:butt;stroke-linejoin:miter;stroke-opacity:1"
       d="m 55.503426,218.16632 h 4.609605"
       id="path876"
       inkscape:connector-curvature="0" />
    <path
       style="fill:none;stroke:#000000;stroke-width:0.26458332px;stroke-linecap:butt;stroke-linejoin:miter;stroke-opacity:1"
       d="m 60.865622,222.11741 h 3.857017"
       id="path878"
       inkscape:connector-curvature="0" />
    <path
       style="fill:none;stroke:black;stroke-width:0.14044083;stroke-linecap:butt;stroke-linejoin:miter;stroke-opacity:1;fill-opacity:1;marker-end:none;marker-start:none;stroke-dasharray:1.05330625,1.05330625"
       d="m 50.376415,211.6282 v 3.52776"
       id="path880"
       inkscape:connector-curvature="0" />
    <path
       style="fill:none;stroke:black;stroke-width:0.14044083;stroke-linecap:butt;stroke-linejoin:miter;stroke-opacity:1;fill-opacity:1;marker-end:none;marker-start:none;stroke-dasharray:1.05330625,1.05330625"
       d="m 54.562689,214.96782 v 3.38665"
       id="path890"
       inkscape:connector-curvature="0" />
    <path
       style="fill:none;stroke:black;stroke-width:0.14044083;stroke-linecap:butt;stroke-linejoin:miter;stroke-opacity:1;fill-opacity:1;marker-end:none;marker-start:none;stroke-dasharray:1.05330625,1.05330625"
       d="m 60.113031,218.16632 v 3.99813"
       id="path900"
       inkscape:connector-curvature="0" />
    <path
       style="fill:none;stroke:black;stroke-width:0.14044083;stroke-linecap:butt;stroke-linejoin:miter;stroke-opacity:1;fill-opacity:1;marker-end:url(#marker-arrow-0.5308);marker-start:none;stroke-dasharray:none"
       d="M 43.650151,224.93962 H 76.764059"
       id="path910"
       inkscape:connector-curvature="0" />
    <text
       id="text938"
       xml:space="preserve"
       style="font-size:2.64583325px;font-family:'Iosevka Term';-inkscape-font-specification:'Iosevka Term, Normal';fill:#000000;fill-opacity:1;stroke:none;stroke-width:0.26458332"
       y="227.96103"
       x="75.336662"><tspan
         id="tspan936"
         sodipodi:role="line"
         x="75.336662"
         y="227.96103"
         style="stroke-width:0.26458332">$\t$</tspan></text>
    <text
       id="text952"
       xml:space="preserve"
       style="font-size:2.64583325px;font-family:'Iosevka Term';-inkscape-font-specification:'Iosevka Term, Normal';fill:#000000;fill-opacity:1;stroke:none;stroke-width:0.26458332"
       y="209.40503"
       x="52.742081"><tspan
         id="tspan950"
         sodipodi:role="line"
         x="52.742081"
         y="209.40503"
         style="stroke-width:0.26458332">$t_i$</tspan></text>
    <path
       style="fill:none;stroke:black;stroke-width:0.14044083;stroke-linecap:butt;stroke-linejoin:miter;stroke-opacity:1;fill-opacity:1;marker-end:none;marker-start:none;stroke-dasharray:none"
       d="m 52.587143,214.3093 2.587025,-3.99813"
       id="path964"
       inkscape:connector-curvature="0" />
    <path
       style="fill:none;stroke:#000000;stroke-width:0.26458332px;stroke-linecap:butt;stroke-linejoin:miter;stroke-opacity:1"
       d="m 46.519396,211.6282 v 16.50992"
       id="path974"
       inkscape:connector-curvature="0" />
    <path
       style="fill:none;stroke:#000000;stroke-width:0.26458332px;stroke-linecap:butt;stroke-linejoin:miter;stroke-opacity:1"
       d="m 64.722639,222.11741 v 6.44404"
       id="path976"
       inkscape:connector-curvature="0" />
    <path
       style="fill:none;stroke:black;stroke-width:0.14044083;stroke-linecap:butt;stroke-linejoin:miter;stroke-opacity:1;fill-opacity:1;marker-end:url(#marker-arrow-0.5308);marker-start:url(#marker-arrow-0.5308);stroke-dasharray:none"
       d="M 46.519396,228.13812 H 64.581529"
       id="path978"
       inkscape:connector-curvature="0" />
    <text
       id="text1015"
       xml:space="preserve"
       style="font-size:2.64583325px;font-family:'Iosevka Term';-inkscape-font-specification:'Iosevka Term, Normal';fill:#000000;fill-opacity:1;stroke:none;stroke-width:0.26458332"
       y="227.46716"
       x="47.97678"><tspan
         id="tspan1013"
         sodipodi:role="line"
         x="47.97678"
         y="227.46716"
         style="stroke-width:0.26458332">$\S t_i$</tspan></text>
    <text
       id="text1029"
       xml:space="preserve"
       style="font-size:2.64583325px;font-family:'Iosevka Term';-inkscape-font-specification:'Iosevka Term, Normal';fill:#000000;fill-opacity:1;stroke:none;stroke-width:0.26458332"
       y="217.64886"
       x="30.560537"><tspan
         id="tspan1027"
         sodipodi:role="line"
         x="30.560537"
         y="217.64886"
         style="stroke-width:0.26458332">работы</tspan></text>
    <text
       id="text1043"
       xml:space="preserve"
       style="font-size:2.64583325px;font-family:'Iosevka Term';-inkscape-font-specification:'Iosevka Term, Normal';fill:#000000;fill-opacity:1;stroke:none;stroke-width:0.26458332"
       y="232.31976"
       x="52.63261"><tspan
         id="tspan1041"
         sodipodi:role="line"
         x="52.63261"
         y="232.31976"
         style="stroke-width:0.26458332">время</tspan></text>
  </g>
</svg>
