<?xml version="1.0" encoding="UTF-8" standalone="no"?>
<!-- Created with Inkscape (http://www.inkscape.org/) -->

<svg
   xmlns:osb="http://www.openswatchbook.org/uri/2009/osb"
   xmlns:dc="http://purl.org/dc/elements/1.1/"
   xmlns:cc="http://creativecommons.org/ns#"
   xmlns:rdf="http://www.w3.org/1999/02/22-rdf-syntax-ns#"
   xmlns:svg="http://www.w3.org/2000/svg"
   xmlns="http://www.w3.org/2000/svg"
   xmlns:sodipodi="http://sodipodi.sourceforge.net/DTD/sodipodi-0.dtd"
   xmlns:inkscape="http://www.inkscape.org/namespaces/inkscape"
   width="240mm"
   height="120mm"
   viewBox="0 0 240 120"
   version="1.1"
   id="svg8"
   inkscape:version="0.92.4 (unknown)"
   sodipodi:docname="ris26.svg">
  <defs
     id="defs2">
    <linearGradient
       id="linearGradient820"
       osb:paint="solid">
      <stop
         style="stop-color:#ffffff;stop-opacity:1;"
         offset="0"
         id="stop818" />
    </linearGradient>
    <marker
       markerWidth="0.911"
       markerHeight="1.690"
       refX="0"
       refY="0"
       orient="auto-start-reverse"
       id="marker-arrow-0.5308">
      <g
         id="g2584"
         transform="scale(2.153529264004019)">
        <path
           id="path2582"
           inkscape:connector-curvature="0"
           style="fill:none;stroke:#000000;stroke-width:0.6;stroke-linecap:round;stroke-linejoin:round;stroke-miterlimit:10;stroke-dasharray:none;stroke-opacity:1"
           d="M -1.55415,2.0722 C -1.42464,1.29512 0,0.1295 0.38852,0 0,-0.1295 -1.42464,-1.29512 -1.55415,-2.0722" />
      </g>
    </marker>
    <marker
       markerWidth="0.911"
       markerHeight="1.690"
       refX="0"
       refY="0"
       orient="auto-start-reverse"
       id="marker-arrow-0.5308-3">
      <g
         id="g2610"
         transform="scale(2.153529264004019)">
        <path
           id="path2608"
           inkscape:connector-curvature="0"
           style="fill:none;stroke:#000000;stroke-width:0.6;stroke-linecap:round;stroke-linejoin:round;stroke-miterlimit:10;stroke-dasharray:none;stroke-opacity:1"
           d="M -1.55415,2.0722 C -1.42464,1.29512 0,0.1295 0.38852,0 0,-0.1295 -1.42464,-1.29512 -1.55415,-2.0722" />
      </g>
    </marker>
  </defs>
  <sodipodi:namedview
     id="base"
     pagecolor="#ffffff"
     bordercolor="#666666"
     borderopacity="1.0"
     inkscape:pageopacity="0.0"
     inkscape:pageshadow="2"
     inkscape:zoom="3.9774955"
     inkscape:cx="340.20276"
     inkscape:cy="320.16072"
     inkscape:document-units="mm"
     inkscape:current-layer="layer1"
     showgrid="false"
     showborder="true"
     width="200mm"
     showguides="true"
     inkscape:guide-bbox="true"
     inkscape:window-width="2556"
     inkscape:window-height="1383"
     inkscape:window-x="0"
     inkscape:window-y="20"
     inkscape:window-maximized="0">
    <inkscape:grid
       type="xygrid"
       id="grid815"
       units="mm"
       spacingx="10"
       spacingy="10"
       empspacing="4"
       dotted="false" />
  </sodipodi:namedview>
  <metadata
     id="metadata5">
    <rdf:RDF>
      <cc:Work
         rdf:about="">
        <dc:format>image/svg+xml</dc:format>
        <dc:type
           rdf:resource="http://purl.org/dc/dcmitype/StillImage" />
        <dc:title />
      </cc:Work>
    </rdf:RDF>
  </metadata>
  <g
     inkscape:label="Layer 1"
     inkscape:groupmode="layer"
     id="layer1"
     transform="translate(0,-177)">
    <path
       style="fill:none;stroke:black;stroke-width:0.14044083;stroke-linecap:butt;stroke-linejoin:miter;stroke-opacity:1;fill-opacity:1;marker-end:none;marker-start:none;stroke-dasharray:1.05330625,1.05330625"
       d="m 77.163297,225.09179 v -16.43046 h 21.485986 v 16.5635 z"
       id="path2456"
       inkscape:connector-curvature="0" />
    <path
       style="fill:none;stroke:#000000;stroke-width:0.07925248px;stroke-linecap:butt;stroke-linejoin:miter;stroke-opacity:1"
       d="m 79.498614,215.86564 v -4.8694 h 6.50474 v 4.90883 z"
       id="path2456-3"
       inkscape:connector-curvature="0" />
    <path
       style="fill:none;stroke:#000000;stroke-width:0.07925248px;stroke-linecap:butt;stroke-linejoin:miter;stroke-opacity:1"
       d="m 89.210545,215.53304 v -4.8694 h 6.504741 v 4.90883 z"
       id="path2456-3-6"
       inkscape:connector-curvature="0" />
    <path
       style="fill:none;stroke:#000000;stroke-width:0.07925248px;stroke-linecap:butt;stroke-linejoin:miter;stroke-opacity:1"
       d="m 78.766893,223.18285 v -4.8694 h 6.50474 v 4.90883 z"
       id="path2456-3-7"
       inkscape:connector-curvature="0" />
    <path
       style="fill:none;stroke:#000000;stroke-width:0.07925248px;stroke-linecap:butt;stroke-linejoin:miter;stroke-opacity:1"
       d="m 88.744906,223.38241 v -4.8694 h 6.50474 v 4.90883 z"
       id="path2456-3-5"
       inkscape:connector-curvature="0" />
    <text
       id="text2518"
       xml:space="preserve"
       style="font-size:2.64583325px;font-family:'Iosevka Term';-inkscape-font-specification:'Iosevka Term, Normal';fill:#000000;fill-opacity:1;stroke:none;stroke-width:0.26458332"
       y="214.26146"
       x="80.340714"><tspan
         id="tspan2516"
         sodipodi:role="line"
         x="80.340714"
         y="214.26146"
         style="stroke-width:0.26458332">I(i)</tspan></text>
    <text
       id="text2532"
       xml:space="preserve"
       style="font-size:2.64583325px;font-family:'Iosevka Term';-inkscape-font-specification:'Iosevka Term, Normal';fill:#000000;fill-opacity:1;stroke:none;stroke-width:0.26458332"
       y="214.08258"
       x="91.083923"><tspan
         id="tspan2530"
         sodipodi:role="line"
         x="91.083923"
         y="214.08258"
         style="stroke-width:0.26458332">II</tspan></text>
    <text
       id="text2546"
       xml:space="preserve"
       style="font-size:2.64583325px;font-family:'Iosevka Term';-inkscape-font-specification:'Iosevka Term, Normal';fill:#000000;fill-opacity:1;stroke:none;stroke-width:0.26458332"
       y="221.79892"
       x="91.11544"><tspan
         id="tspan2544"
         sodipodi:role="line"
         x="91.11544"
         y="221.79892"
         style="stroke-width:0.26458332">IV</tspan></text>
    <text
       id="text2560"
       xml:space="preserve"
       style="font-size:2.64583325px;font-family:'Iosevka Term';-inkscape-font-specification:'Iosevka Term, Normal';fill:#000000;fill-opacity:1;stroke:none;stroke-width:0.26458332"
       y="221.93196"
       x="80.449669"><tspan
         id="tspan2558"
         sodipodi:role="line"
         x="80.449669"
         y="221.93196"
         style="stroke-width:0.26458332">III</tspan></text>
    <path
       style="fill:none;stroke:black;stroke-width:0.14044083;stroke-linecap:butt;stroke-linejoin:miter;stroke-opacity:1;fill-opacity:1;marker-end:url(#marker-arrow-0.5308);marker-start:none;stroke-dasharray:none"
       d="m 68.316125,215.44638 h 8.78065"
       id="path2572"
       inkscape:connector-curvature="0" />
    <path
       style="fill:none;stroke:black;stroke-width:0.14044083;stroke-linecap:butt;stroke-linejoin:miter;stroke-opacity:1;fill-opacity:1;marker-end:url(#marker-arrow-0.5308);marker-start:none;stroke-dasharray:none"
       d="m 68.582206,223.36227 h 8.44805"
       id="path2606"
       inkscape:connector-curvature="0" />
    <text
       id="text2643"
       xml:space="preserve"
       style="font-size:2.64583325px;font-family:'Iosevka Term';-inkscape-font-specification:'Iosevka Term, Normal';fill:#000000;fill-opacity:1;stroke:none;stroke-width:0.26458332"
       y="214.04765"
       x="67.719872"><tspan
         id="tspan2641"
         sodipodi:role="line"
         x="67.719872"
         y="214.04765"
         style="stroke-width:0.26458332">$A(j)$</tspan></text>
    <text
       id="text2657"
       xml:space="preserve"
       style="font-size:2.64583325px;font-family:'Iosevka Term';-inkscape-font-specification:'Iosevka Term, Normal';fill:#000000;fill-opacity:1;stroke:none;stroke-width:0.26458332"
       y="222.36269"
       x="68.715096"><tspan
         id="tspan2655"
         sodipodi:role="line"
         x="68.715096"
         y="222.36269"
         style="stroke-width:0.26458332">$B(j)$</tspan></text>
  </g>
</svg>
